WeightClassKg,Sex,Event,Place,Name,Country,Division,BirthYear,Equipment,BodyweightKg,Squat1Kg,Squat2Kg,Squat3Kg,Squat4Kg,Best3SquatKg,Bench1Kg,Bench2Kg,Bench3Kg,Bench4Kg,Best3BenchKg,Deadlift1Kg,Deadlift2Kg,Deadlift3Kg,Deadlift4Kg,Best3DeadliftKg,TotalKg
75,M,B,1,Abu Chaudhury,,J,1991,Raw,69.1,,,,,,140,145,-147.5,,145,,,,,,145
90,M,SBD,2,Adam Browne,,M1,,Wraps,88.2,-120,120,140,,140,140,150,-157.5,,150,160,170,-210,,170,460
90,M,B,4,Adam Browne,,M1,1973,Raw,87.5,,,,,,145,152.5,-157.5,,152.5,,,,,,152.5
140,M,B,1,Adam Nalewajk,,O,1987,Single-ply,139.8,,,,,,100,-155,-155,,100,,,,,,100
90,M,B,6,Agil Humbatov,,O,1985,Raw,87,,,,,,160,172.5,-180,,172.5,,,,,,172.5
90,M,D,5,Agil Humbatov,,O,1985,Raw,87,,,,,,,,,,,230,255,-275,,255,255
90,M,D,1,Agil Humbatov,,O,1985,Single-ply,86.4,,,,,,,,,,,220,,,,220,220
125,M,B,2,Agnis Beirs,,O,1981,Multi-ply,120.2,,,,,,240,255,262.5,,262.5,,,,,,262.5
90,M,SBD,2,Aigars Jaņēvičs,,O,,Wraps,89.2,220,230,240,,240,175,182.5,-185,,182.5,250,265,-275,,265,687.5
110,M,B,1,Aigars Polis,,M3,1962,Multi-ply,106.2,,,,,,-210,-210,210,,210,,,,,,210
82.5,M,B,1,Aigars Skrebeļs,,M1,1971,Raw,79.4,,,,,,140,145,-150,,145,,,,,,145
52,M,B,1,Aigars Višņevskis,,M2,1967,Raw,43.5,,,,,,107.5,112.5,117.5,,117.5,,,,,,117.5
75,M,B,2,Akshin Ismailov,,O,1978,Multi-ply,75,,,,,,210,232.5,-242.5,,232.5,,,,,,232.5
110,M,SBD,1,Aldis Kampāns,,M2,,Single-ply,104.5,200,210,-220,,210,145,152.5,-157.5,,152.5,210,220,-230,,220,582.5
75,M,B,3,Aleksandr Rabinovich,,O,1967,Raw,74.2,,,,,,157.5,167.5,170,,170,,,,,,170
75,M,B,1,Aleksandr Rabinovich,,M2,1967,Raw,74.2,,,,,,157.5,167.5,170,,170,,,,,,170
75,M,B,1,Aleksandr Rabinovich,,M2,1967,Single-ply,75,,,,,,165,175,182.5,,182.5,,,,,,182.5
60,M,SBD,1,Aleksandr Romanichev,,M3,,Multi-ply,59.5,200,220,,,220,125,132.5,-140,,132.5,205,225,,,225,577.5
56,M,B,1,Aleksandr Romanichev,,M3,1963,Raw,55.9,,,,,,102.5,110,112.5,115,112.5,,,,,,112.5
60,M,B,1,Aleksandr Romanichev,,M3,1963,Multi-ply,58,,,,,,122.5,125,130,,130,,,,,,130
56,M,D,1,Aleksandr Romanichev,,M3,1963,Raw,55.9,,,,,,,,,,,180,190,-200,,190,190
60,M,D,1,Aleksandr Romanichev,,M3,1963,Multi-ply,58,,,,,,,,,,,200,220,,,220,220
125,M,B,1,Aleksandr Sykmenyov,,O,1978,Single-ply,112.8,,,,,,335,355,-360,,355,,,,,,355
125,M,SBD,2,Aleksandr Teterin,,M1,,Wraps,113.3,115,125,132.5,,132.5,75,80,85,,85,180,195,200,,200,417.5
90,M,SBD,1,Aleksandr Tsvetkov,,M4,,Wraps,89.6,200,212.5,221,,221,115,-120,120,,120,220,245,-251,,245,586
100,M,D,1,Aleksandr Tsvetkov,,M4,1957,Raw,91.3,,,,,,,,,,,220,247.5,252.5,,252.5,252.5
140,M,SBD,1,Aleksandr Zaytsev,,O,,Wraps,130.1,310,330,350,,350,230,250,-255,,250,300,-330,-330,,300,900
125,M,SBD,3,Aleksandrs Aleksejevs,,O,,Wraps,124.2,280,300,,,300,205,210,215,,215,330,345,355,,355,870
125,M,D,1,Aleksandrs Aleksejevs,,O,1980,Raw,124.7,,,,,,,,,,,340,-355,-355,,340,340
90,M,SBD,1,Aleksandrs Antipovs,,J,,Wraps,88.4,190,200,210,,210,155,165,170,,170,260,270,275,,275,655
90,M,D,2,Aleksandrs Arkhipovs,,J,1992,Raw,87.5,,,,,,,,,,,250,-270,280,,280,280
82.5,M,B,5,Aleksandrs Beketovs,,O,1985,Raw,80,,,,,,150,160,-167.5,,160,,,,,,160
90,M,B,1,Aleksandrs Ņikitins,,O,1980,Single-ply,90,,,,,,-230,-230,230,,230,,,,,,230
140,M,SBD,DQ,Aleksey Ermakov,,O,,Wraps,129,260,-280,-280,,260,185,-195,,,185,-270,-270,-270,,,
140,M,SBD,DQ,Aleksey Ermakov,,M1,,Wraps,129,260,-280,-280,,260,185,-195,,,185,-270,-270,-270,,,
125,M,SBD,2,Aleksey Ventsov,,O,,Multi-ply,119.2,330,350,360,,360,230,250,-262.5,,250,320,335,-347.5,,335,945
125,M,D,1,Aleksey Ventsov,,O,1981,Multi-ply,121.2,,,,,,,,,,,320,340,352.5,,352.5,352.5
110,M,B,10,Alexandar Pelovski,,O,1991,Raw,109.4,,,,,,-195,197.5,-200,,197.5,,,,,,197.5
110,M,D,1,Alexandar Pelovski,,J,1991,Single-ply,109.9,,,,,,,,,,,285,302.5,-316,,302.5,302.5
82.5,M,B,2,Alexander Papir,,M4,1945,Raw,78.9,,,,,,100,105,107.5,,107.5,,,,,,107.5
82.5,M,B,1,Alexander Papir,,M6,1945,Single-ply,80,,,,,,110,117.5,-122.5,,117.5,,,,,,117.5
82.5,M,D,1,Alexander Papir,,M6,1945,Raw,78.9,,,,,,,,,,,150,,,,150,150
82.5,M,D,1,Alexander Papir,,M6,1945,Single-ply,79.6,,,,,,,,,,,160,170,177.5,,177.5,177.5
90,M,B,1,Alexander Petrov,,M3,1960,Raw,89.1,,,,,,190,200,-205,,200,,,,,,200
110,M,D,3,Alexander Siljestromer,,O,1984,Raw,107.3,,,,,,,,,,,280,302.5,-310,,302.5,302.5
75,M,B,2,Alexandr Bark,,M3,1963,Raw,74.2,,,,,,105,110,-112.5,,110,,,,,,110
140,M,B,5,Alexey Brazhkin,,M1,1971,Raw,129.9,,,,,,170,180,200,,200,,,,,,200
140,M,B,2,Alexey Brazhkin,,M1,1971,Multi-ply,131.8,,,,,,230,250,270,,270,,,,,,270
60,F,SBD,1,Alina Sazonova,,O,,Wraps,58,90,100,110,,110,55,60,-65,,60,100,110,120,,120,290
110,M,B,2,Allan Valdemar Jokinen,,O,1981,Raw,104.2,,,,,,230,235,-242.5,,235,,,,,,235
90,M,SBD,5,Almands Mihailovs,,O,,Wraps,89,220,235,242.5,,242.5,135,150,155,,155,230,-245,245,,245,642.5
75,F,SBD,2,Anastasija Rezajeva,,J,,Wraps,69.7,70,82.5,92.5,,92.5,50,60,,,60,125,132.5,140,,140,292.5
67.5,F,D,1,Anastasija Rezajeva,,J,1991,Raw,66,,,,,,,,,,,122.5,130,135,,135,135
67.5,M,D,1,Anatoliy Bochkovskyy,,M5,1954,Raw,67.1,,,,,,,,,,,-187.5,,187.5,,187.5,187.5
125,M,B,2,Anatoliy Evgrafov,,M3,1960,Raw,116.6,,,,,,-165,165,175,,175,,,,,,175
125,M,D,1,Anatoliy Evgrafov,,M3,1960,Raw,116.6,,,,,,,,,,,245,255,265,,265,265
75,M,B,1,Anatoliy Nefedov,,M3,1963,Raw,70.2,,,,,,140,150,,,150,,,,,,150
125,M,D,3,Andis Kaspars,,O,1976,Single-ply,116.5,,,,,,,,,,,280,-300,,,280,280
75,M,SBD,2,Andre Martins Rei,,J,,Multi-ply,72.3,-225,-225,225,,225,140,152.5,160,,160,205,220,230,,230,615
67.5,M,D,1,Andre Martins Rei,,J,1993,Multi-ply,66.5,,,,,,,,,,,-200,220,225,-230,225,225
100,M,D,1,Andreas Schmidt,,M1,1971,Raw,94.4,,,,,,,,,,,210,220,237.5,,237.5,237.5
125,M,B,5,Andrejs Greņs,,O,1981,Raw,119.2,,,,,,-170,170,182.5,,182.5,,,,,,182.5
140,M,B,2,Andrejs Mūrnieks,,O,1980,Raw,134.4,,,,,,265,-270,,,265,,,,,,265
67.5,M,SBD,1,Andrey Kim,,O,,Wraps,65.7,190,200,210,,210,140,152.5,160,,160,230,245,-266,,245,615
67.5,M,B,3,Andrey Kim,,O,1986,Raw,65,,,,,,150,-155,-155,,150,,,,,,150
90,M,SBD,3,Andriy Galkevich,,O,,Wraps,89.2,235,242.5,255,,255,150,165,175,,175,230,242.5,255,,255,685
90,M,SBD,1,Andriy Galkevich,,M1,,Wraps,89.2,235,242.5,255,,255,150,165,175,,175,230,242.5,255,,255,685
90+,F,SBD,1,Ann Christin Öberg,,O,,Wraps,92.3,125,135,145,,145,102.5,112.5,,,112.5,170,185,192.5,200,192.5,450
67.5,F,SBD,2,Anna Sokolov,,O,,Wraps,65.8,100,110,-115,,110,55,60,65,,65,130,140,150,,150,325
67.5,F,D,2,Anna Sokolov,,O,1979,Raw,65.4,,,,,,,,,,,130,140,-152.5,,140,140
90+,F,B,1,Anna-Maria Rosén,,M1,1972,Raw,92.5,,,,,,115,125,130,-136,130,,,,,,130
90+,F,D,1,Anna-Maria Rosén,,M1,1972,Raw,92.5,,,,,,,,,,,200,210,221,,221,221
110,M,SBD,1,Anthony Giddings,,M1,,Multi-ply,109,-330,-330,330,,330,220,230,-250,,230,300,-320,,,300,860
75,M,B,6,Anthony Zawalij,,O,1981,Raw,72.6,,,,,,105,112.5,-117.5,,112.5,,,,,,112.5
75,M,D,2,Anthony Zawalij,,O,1981,Raw,72.6,,,,,,,,,,,202.5,-212.5,-212.5,,202.5,202.5
56,F,SBD,1,Ariela Amitay,,M3,,Multi-ply,55.3,-145,145,160,,160,105,110,114,117.5,114,145,-155,155,,155,429
56,F,B,1,Ariela Amitay,,M3,1964,Multi-ply,55.6,,,,,,105,110,115,,115,,,,,,115
125,M,SBD,1,Aris Kalva,,T2,,Wraps,118.9,180,197.5,-202.5,,197.5,120,-125,,,120,240,251,-260,,251,568.5
125,M,D,1,Aris Kalva,,T2,1997,Raw,116.7,,,,,,,,,,,240,-250,255,,255,255
67.5,M,SBD,2,Artem Sinitsyn,,T2,,Wraps,65.4,145,155,162.5,,162.5,80,-90,90,,90,150,157.5,167.5,,167.5,420
75,M,B,5,Arttu Aleksi Wahlström,,O,1986,Raw,74.3,,,,,,135,142.5,150,,150,,,,,,150
125,M,SBD,1,Artur Chrzaszcz,,O,,Single-ply,122.4,380,-410,410,,410,250,280,-290,,280,320,-330,-330,,320,1010
100,M,B,2,Arturas Virbickas,,M3,1964,Raw,97.6,,,,,,170,180,-195,,180,,,,,,180
100,M,B,2,Artūrs Mugdenko,,M1,1971,Raw,93.2,,,,,,185,-190,190,,190,,,,,,190
75,M,B,2,Arvīds Sparbergs,,M6,1945,Raw,69.6,,,,,,75,80,85,,85,,,,,,85
110,M,D,2,Atis Zembahs,,O,1988,Single-ply,110,,,,,,,,,,,300,320,-337.5,,320,320
110,M,SBD,1,Austris Šaicāns,,O,,Single-ply,109.9,300,320,340,,340,205,215,225,,225,310,325,335,,335,900
67.5,F,D,2,Baiba Ramlava,,J,1992,Raw,65.4,,,,,,,,,,,100,110,115,,115,115
56,F,SBD,1,Baiba Tone,,J,,Wraps,55.5,80,87.5,92.5,,92.5,45,50,-52.5,,50,90,100,110,,110,252.5
60,F,B,2,Baltutyte Inga,,O,1990,Raw,59.8,,,,,,60,-65,,,60,,,,,,60
82.5,M,B,1,Bayram Aliev,,O,1985,Multi-ply,82.4,,,,,,220,235,245,,245,,,,,,245
110,M,D,1,Bogdans Topcijs,,M2,1968,Raw,105.9,,,,,,,,,,,-260,-260,260,,260,260
110,M,B,1,Boris Doktorovich,,M5,1950,Raw,107.9,,,,,,100,-110,-110,,100,,,,,,100
110,M,D,1,Boris Doktorovich,,M5,1950,Raw,107.9,,,,,,,,,,,130,140,150,,150,150
75,M,B,1,Boriss Laisin,,M5,1950,Raw,69.7,,,,,,100,105,107.5,110,107.5,,,,,,107.5
75,M,D,1,Boriss Laisin,,M6,1950,Raw,69.7,,,,,,,,,,,145,152.5,155,,155,155
110,M,SBD,2,Bruno Ricardo Alves Ruela,,O,,Multi-ply,107.5,-300,300,320,,320,245,260,-275,,260,270,290,-300,,290,870
110,M,B,3,Bruno Ricardo Alves Ruela,,O,1988,Multi-ply,106.5,,,,,,240,255,270,,270,,,,,,270
67.5,F,SBD,4,Dace Suharzevska,,O,,Wraps,64.8,95,100,-105,,100,55,60,-62.5,,60,-115,120,125,,125,285
67.5,F,B,1,Dagmar Liptáková,,O,1976,Multi-ply,63.2,,,,,,125,-135,-135,,125,,,,,,125
125,M,SBD,1,Dainis Polis,,M4,,Wraps,117,200,225,-251,,225,160,175,-190,,175,245,-260,,,245,645
75,M,SBD,1,Daniel Shearly,,O,,Wraps,73.8,160,-180,-180,,160,125,135,-140,,135,225,235,-240,,235,530
100,M,SBD,1,Daniel Shepheard,,T3,,Wraps,95.4,180,182.5,200,,200,155,162.5,-170,,162.5,240,260,272.5,,272.5,635
90,M,SBD,1,Daniel Tatarka,,O,,Multi-ply,88.1,305,-320,-320,,305,205,-217.5,-217.5,,205,240,265,275,,275,785
82.5,M,B,1,Daņiils Maļavkins,,T1,1999,Raw,80.6,,,,,,112.5,117.5,120,-122.5,120,,,,,,120
125,M,B,7,Darius Janutis,,O,1986,Raw,113,,,,,,170,180,-200,,180,,,,,,180
100,M,B,2,David Gibson,,M2,1966,Raw,95.1,,,,,,-140,140,-150,,140,,,,,,140
75,M,SBD,1,David Oliveira,,J,,Multi-ply,70.7,240,-270,-270,,240,140,147.5,152.5,,152.5,225,245,-260,,245,637.5
110,M,SBD,2,David Satsielasjvili,,O,,Single-ply,108.6,-210,270,,,270,180,190,200,,200,240,-250,,,240,710
140+,M,SBD,1,Denis Bondarenko,,O,,Wraps,140.1,260,270,280,,280,200,210,212.5,,212.5,240,260,280,,280,772.5
110,M,B,4,Deniss Haritesku,,O,1989,Raw,107.5,,,,,,220,227.5,-235,,227.5,,,,,,227.5
100,M,SBD,7,Deniss Korohods,,O,,Wraps,99.3,230,240,-250,,240,170,177.5,-182.5,,177.5,250,-270,-270,,250,667.5
48,F,B,1,Diana Burlakova,,J,1992,Raw,47.9,,,,,,57.5,60,-62.5,,60,,,,,,60
125,M,B,2,Didier Michelon,,M2,1963,Raw,117,,,,,,180,-185,,,180,,,,,,180
125,M,B,DQ,Didier Michelon,,M3,1963,Multi-ply,116.6,,,,,,-322.5,-322.5,,,,,,,,,
90,M,B,1,Didier Theux,,O,1958,Multi-ply,87.7,,,,,,235,247.5,-255,,247.5,,,,,,247.5
90,M,B,1,Didier Theux,,M4,1958,Multi-ply,87.7,,,,,,235,247.5,-255,,247.5,,,,,,247.5
125,M,B,1,Dieter Berghoff,,M4,1960,Raw,120.9,,,,,,175,185,192.5,,192.5,,,,,,192.5
125,M,SBD,4,Dimitrov Hristo Muskov,,O,,Wraps,116.7,260,270,280,,280,220,230,-235,,230,320,335,350,,350,860
67.5,M,B,2,Dmitrijs Sauskins,,O,1986,Raw,64.3,,,,,,140,150,155,,155,,,,,,155
82.5,M,SBD,1,Dmitrijs Stepenko,,M2,,Wraps,80.9,180,190,,,190,135,145,,,145,200,210,,,210,545
82.5,M,SBD,1,Dmitrijs Stepenko,,M2,,Single-ply,80.9,240,250,260,,260,180,190,-200,,190,210,225,-230,,225,675
82.5,M,B,2,Dmitriy Kukharenko,,O,1969,Raw,81.1,,,,,,190,-195,-195,,190,,,,,,190
82.5,M,B,1,Dmitriy Kukharenko,,M2,1969,Raw,81.1,,,,,,190,-195,-195,,190,,,,,,190
110,M,B,7,Dmitriy Nosov,,O,1971,Raw,106.8,,,,,,200,205,207.5,,207.5,,,,,,207.5
110,M,B,1,Dmitriy Nosov,,M1,1971,Raw,106.8,,,,,,200,205,207.5,,207.5,,,,,,207.5
140,M,B,1,Dmitriy Permyakov,,M1,1975,Multi-ply,132.6,,,,,,330,345,-360,,345,,,,,,345
125,M,B,1,Dmitry Gorbachev,,M2,1970,Raw,116,,,,,,200,215,220,,220,,,,,,220
125,M,B,1,Dmitry Gorbachev,,O,1970,Multi-ply,117.6,,,,,,-310,-310,310,,310,,,,,,310
125,M,B,1,Dmitry Gorbachev,,M2,1970,Multi-ply,117.6,,,,,,-310,-310,310,,310,,,,,,310
67.5,M,B,1,Dominik Daniel Skrzyński,,O,1975,Raw,67.3,,,,,,-180,180,195,-200,195,,,,,,195
75,M,SBD,DQ,Edgars Peterlēvics,,O,,Single-ply,74.2,-245,-245,-245,,,,,,,,,,,,,
75,M,B,1,Edgars Peterlēvics,,O,1986,Single-ply,74.2,,,,,,210,217.5,-222.5,,217.5,,,,,,217.5
100,M,SBD,2,Edgars Ratnieks,,O,,Wraps,100,250,262.5,-270,,262.5,185,195,-202.5,,195,305,315,-317.5,,315,772.5
110,M,D,1,Edgars Ratnieks,,O,1988,Single-ply,100.8,,,,,,,,,,,320,-335,-335,,320,320
140,M,B,1,Edmunds Andrups,,M2,1970,Raw,125.6,,,,,,190,200,205,,205,,,,,,205
140,M,B,1,Edmunds Andrups,,M2,1970,Multi-ply,125.3,,,,,,240,250,260,,260,,,,,,260
110,M,B,5,Edmunds Freimanis,,M1,1974,Raw,101.4,,,,,,140,160,-170,,160,,,,,,160
82.5,M,B,1,Edmunds Keningsvalds,,M6,1948,Raw,76.9,,,,,,85,95,-97.5,,95,,,,,,95
100,M,SBD,1,Eduard Khanjyan,,O,,Raw,99,290,-302.5,-302.5,,290,180,190,,,190,310,325,-370,,325,805
90,M,B,1,Eduards Saveļjevs,,M1,1971,Raw,86.1,,,,,,170,182.5,190,,190,,,,,,190
75,F,SBD,2,Elina Chernina,,O,,Wraps,74.2,135,145,150,,150,77.5,82.5,87.5,,87.5,-160,160,175,,175,412.5
48,F,B,1,Elizabet Tomilov,,T1,2003,Raw,47.5,,,,,,37.5,40,42.5,,42.5,,,,,,42.5
60,M,SBD,1,Elmir Tarverdiyev,,O,,Wraps,60,170,-185,187.5,192.5,187.5,100,110,,,110,210,230,-240,,230,527.5
48,F,SBD,1,Elnara Guliyeva,,O,,Wraps,46.6,85,92.5,-100,,92.5,50,-55,55,,55,110,120,-130,,120,267.5
90,M,B,1,Emīls Alkšārs,,T3,1995,Raw,84.3,,,,,,142.5,147.5,152.5,,152.5,,,,,,152.5
75,F,B,1,Emma Ylitalo-James,,O,1969,Single-ply,74.6,,,,,,170,180,190,,190,,,,,,190
90,M,SBD,1,Eric Conway,,M3,,Wraps,88.7,145,150,155,,155,100,110,112.5,,112.5,190,205,212.5,,212.5,480
110,M,B,4,Eric Platel,,M1,1971,Raw,107.8,,,,,,180,192.5,-200,,192.5,,,,,,192.5
110,M,B,DQ,Eric Platel,,M1,1971,Multi-ply,109.4,,,,,,-260,-260,-260,,,,,,,,
140,M,B,2,Erik Susztay,,M1,1972,Raw,132.3,,,,,,-215,215,-222.5,,215,,,,,,215
75,M,SBD,1,Ēriks Silovs,,T2,,Wraps,75,200,205,210,-215,210,100,110,-112.5,,110,200,210,215,,215,535
75,M,D,1,Ēriks Silovs,,T2,1997,Raw,74.6,,,,,,,,,,,200,207.5,212.5,,212.5,212.5
67.5,M,SBD,1,Ernest Ruzin,,M8,,Wraps,61.7,120,125,127.5,,127.5,72.5,77.5,,,77.5,150,155,,,155,360
82.5,M,B,1,Ernests Višķers,,T3,1995,Raw,80.3,,,,,,142.5,155,165,,165,,,,,,165
56,F,SBD,2,Eveliina Ilona Pohjavirta,,J,,Wraps,54.3,80,90,-92.5,,90,35,40,45,,45,100,110,115,,115,250
90,M,SBD,4,Evgeniy Khomov,,O,,Wraps,88.5,190,200,-207.5,,200,170,177.5,180,,180,270,285,-292.5,,285,665
90,M,D,2,Evgeniy Khomov,,O,1982,Raw,89.5,,,,,,,,,,,275,287.5,-295,,287.5,287.5
90,M,SBD,1,Evgeniy Khudoleev,,M6,,Wraps,88.9,-180,180,190,,190,-125,-125,125,,125,200,215,230,,230,545
90,M,D,1,Evgeniy Khudoleev,,M6,1946,Raw,87.3,,,,,,,,,,,220,230,232.5,,232.5,232.5
110,M,SBD,1,Filipe Lavandeira,,O,,Multi-ply,101.6,-380,380,-405,,380,230,-245,245,,245,320,-340,-340,,320,945
100,M,B,2,Florindo Figueiredo Pinheiro,,O,1973,Raw,96.8,,,,,,235,242.5,-251,,242.5,,,,,,242.5
90,M,B,1,Frank Thomas Kutzsch,,M4,1956,Raw,88.3,,,,,,147.5,155,160,,160,,,,,,160
90,M,D,1,Frank Thomas Kutzsch,,M4,1956,Raw,88.3,,,,,,,,,,,215,235,-248,,235,235
82.5,M,B,1,Gabriel Kováč,,J,1995,Multi-ply,80.3,,,,,,250,260,270,,270,,,,,,270
100,M,SBD,1,Gabriele Calista,,O,,Single-ply,93.5,285,292.5,,,292.5,180,190,-200,,190,300,315,331,,331,813.5
82.5,M,B,3,Gatis Biezais,,O,1975,Raw,81.4,,,,,,177.5,-180,180,,180,,,,,,180
125,M,D,2,Gatis Roze,,O,1990,Single-ply,120.3,,,,,,,,,,,330,-340,340,,340,340
110,M,B,4,Gennady Obermeister,,O,1970,Multi-ply,109,,,,,,-260,260,-280,,260,,,,,,260
110,M,B,2,Gennady Obermeister,,M1,1970,Multi-ply,109,,,,,,-260,260,-280,,260,,,,,,260
90,M,D,1,Georgii Taranukhin,,M2,1968,Raw,89.2,,,,,,,,,,,245,260,-267.5,,260,260
75,M,B,1,Georgijs Soļerovs,,M1,1970,Raw,69.4,,,,,,95,112.5,-115,,112.5,,,,,,112.5
100,M,SBD,8,Georgiy Yegazaren,,O,,Wraps,99.2,220,232.5,242.5,,242.5,150,160,165,,165,240,-260,,,240,647.5
100,M,SBD,2,Georgiy Yegazaren,,O,,Single-ply,99.9,220,250,-270,,250,145,152.5,157.5,,157.5,220,240,-255,,240,647.5
100,M,D,3,Georgiy Yegazaren,,O,1984,Raw,97,,,,,,,,,,,240,260,272.5,,272.5,272.5
125,M,B,1,Göran Hans Rosen,,M3,1965,Raw,116.5,,,,,,200,-210,210,,210,,,,,,210
125,M,D,2,Göran Hans Rosen,,M3,1965,Raw,116.5,,,,,,,,,,,260,-272.5,-272.5,,260,260
82.5,M,SBD,1,Grigori Rubin,,M8,,Wraps,75.3,105,110,115,,115,87.5,92.5,95,,95,145,152.5,161,,161,371
82.5,M,B,1,Grigori Rubin,,M8,1936,Raw,75.4,,,,,,87.5,92.5,95,,95,,,,,,95
82.5,M,B,1,Grigori Rubin,,M8,1936,Multi-ply,75.4,,,,,,112.5,-117.5,-117.5,,112.5,,,,,,112.5
82.5,M,D,1,Grigori Rubin,,M8,1936,Raw,75.4,,,,,,,,,,,140,150,155,,155,155
82.5,M,D,1,Grigori Rubin,,M8,1936,Single-ply,75.4,,,,,,,,,,,162.5,167.5,172.5,,172.5,172.5
90,M,SBD,1,Gunduz Mamadov,,O,,Wraps,88.3,280,300,-315,,300,180,190,-200,,190,-280,280,-305,,280,770
56,F,SBD,1,Gunel Talybova,,O,,Wraps,55.7,147.5,150,152.5,155,152.5,90,92.5,-95,,92.5,175,-185,,,175,420
140+,M,B,1,Guntars Kusiņš,,M1,1971,Raw,153.7,,,,,,190,205,-210,,205,,,,,,205
100,M,D,1,Hafiz Verdiyev,,O,1990,Raw,96.6,,,,,,,,,,,-315,315,-332.5,,315,315
75,M,B,1,Hans-Jürgen Kaule,,M5,1954,Single-ply,74.3,,,,,,160,-165,165,,165,,,,,,165
110,M,B,DQ,Hans-Ulrich Vetter,,M5,1952,Multi-ply,106,,,,,,-180,,,,,,,,,,
110,M,B,1,Hans-Ulrich Vetter,,M5,1952,Single-ply,106.4,,,,,,182.5,192.5,200,,200,,,,,,200
100,M,B,4,Helmut Silberbauer,,M3,1964,Raw,91.2,,,,,,140,145,-150,,145,,,,,,145
100,M,B,1,Hovhannes Yazichyan,,M1,1971,Raw,95.4,,,,,,205,210,215,,215,,,,,,215
110,M,B,1,Igor Lebedev,,M3,1962,Raw,101.4,,,,,,190,200,-210.5,,200,,,,,,200
100,M,B,4,Igor Priemyshev,,O,1982,Raw,98.8,,,,,,200,207.5,-212.5,,207.5,,,,,,207.5
110,M,SBD,1,Igor Zarubin,,M1,,Wraps,108.9,190,200,210,,210,150,160,170,,170,200,215,225,,225,605
110,M,SBD,2,Igor Zaytsev,,M1,,Wraps,110,192.5,-200,-200,,192.5,-130,130,-140,,130,222.5,227.5,-232.5,,227.5,550
110,M,B,4,Igors Optimistovs,,M2,1967,Raw,102.9,,,,,,162.5,167.5,-172.5,,167.5,,,,,,167.5
110,M,B,2,Ikars Gabrāns,,M2,1968,Raw,109,,,,,,-175,175,-182,,175,,,,,,175
75,M,SBD,DQ,Ilya Kokorev,,M1,,Multi-ply,74.5,-300,-300,-300,,,,,,,,,,,,,
67.5,F,B,2,Ina Trama,,O,1988,Raw,61.9,,,,,,62.5,65,67.5,,67.5,,,,,,67.5
67.5,F,B,1,Ina Tretjaka,,O,1985,Raw,67,,,,,,100,105,-107.5,,105,,,,,,105
52,F,B,1,Inge Kaule,,M5,1952,Single-ply,50,,,,,,52.5,55,-57.5,,55,,,,,,55
67.5,M,SBD,1,Intars Baumanis,,T2,,Wraps,67.4,190,205,215,,215,120,125,-130,,125,205,-220,220,,220,560
110,M,B,1,Intars Sauskājs,,J,1994,Raw,105.6,,,,,,-160,160,170,,170,,,,,,170
44,F,SBD,1,Irina Pomerantsev,,M2,,Wraps,43.2,70,75,80,,80,60,62.5,65,,65,90,102.5,107.5,,107.5,252.5
44,F,B,1,Irina Pomerantsev,,M2,1970,Raw,42.8,,,,,,60,62.5,65,,65,,,,,,65
44,F,D,1,Irina Pomerantsev,,M2,1970,Raw,42.8,,,,,,,,,,,95,100,105,,105,105
100,M,B,DQ,Ismayil Quliyev,,O,1978,Single-ply,97,,,,,,-212.5,-212.5,-212.5,,,,,,,,
82.5,M,SBD,1,Ivan Arshinov,,J,,Wraps,80.1,235,240,252.5,,252.5,180,190,-197.5,,190,255,270,285,,285,727.5
110,M,B,9,Ivan Solntsev,,O,1974,Raw,101.3,,,,,,195,202.5,-205,,202.5,,,,,,202.5
110,M,B,2,Ivan Solntsev,,M1,1974,Raw,101.3,,,,,,195,202.5,-205,,202.5,,,,,,202.5
110,M,B,2,Ivan Solntsev,,M1,1974,Single-ply,101.5,,,,,,212.5,225,235,,235,,,,,,235
140+,M,D,2,Ivans Bistrovs,,O,1987,Raw,153.6,,,,,,,,,,,320,-340,-340,,320,320
125,M,D,2,Ivars Cīrulis,,O,1979,Multi-ply,113.7,,,,,,,,,,,340,350,-360,,350,350
90,M,SBD,7,Jack Gibson,,O,,Wraps,88.1,205,-215,-215,,205,155,160,-167.5,,160,220,230,-250,,230,595
90,M,B,4,Jānis Zvaigznonis,,J,1993,Raw,85.3,,,,,,155,165,,,165,,,,,,165
90,M,D,3,Janne Rissanen,,O,1985,Raw,88.7,,,,,,,,,,,280,-300,-302.5,,280,280
75,F,SBD,1,Jelena Dmitrijevic,,O,,Wraps,72.5,150,160,175,,175,80,87.5,-92.5,,87.5,160,172.5,-177.5,,172.5,435
140,M,B,3,Jerzy Drewniak Zbigniew,,M1,1973,Raw,134.7,,,,,,190,200,205,,205,,,,,,205
140+,M,B,1,Jerzy Maciej Kot,,M2,1968,Raw,145.1,,,,,,160,170,-175,,170,,,,,,170
110,M,D,1,Johannes Hermundsen,,J,1992,Raw,106,,,,,,,,,,,250,260,270,,270,270
100,M,D,1,Jose Fontes Teixeira,,M1,1970,Single-ply,98.7,,,,,,,,,,,280,287.5,-295,,287.5,287.5
100,M,SBD,1,Jose Teixeira Fuentes,,M1,,Wraps,97.6,200,215,225,,225,125,135,145,,145,260,275,-280,,275,645
82.5,M,B,6,Jurijs Bosovs,,O,1984,Raw,80.9,,,,,,130,140,147.5,,147.5,,,,,,147.5
140,M,SBD,1,Justins Petinens,,T3,,Wraps,133.9,-250,250,-260,,250,160,170,-180,,170,290,-300,300,,300,720
140,M,D,1,Justins Petinens,,T3,1996,Raw,132,,,,,,,,,,,-290,290,300,305,300,300
110,M,B,2,Kalle Ylitalo-James,Finland,O,1983,Multi-ply,109.7,,,,,,250,262.5,272.5,,272.5,,,,,,272.5
82.5,M,B,1,Kamil Agasafar Gafarov,,O,1984,Raw,81.7,,,,,,192.5,200,210,,210,,,,,,210
100,M,SBD,1,Kamran AliZada,,M3,,Wraps,97.2,140,155,,,155,125,132.5,-137.5,,132.5,200,210,215,,215,502.5
100,M,B,5,Kamran AliZada,,M3,1964,Raw,97,,,,,,125,-135,135,,135,,,,,,135
100,M,D,2,Kamran AliZada,,M3,1964,Raw,97,,,,,,,,,,,200,-210,,,200,200
75,M,SBD,1,Karen Kasabjans,,M2,,Wraps,74.2,100,110,-120,,110,95,-100,-100,,95,125,130,135,,135,340
125,M,SBD,1,Kaspars Didzis,,M1,,Multi-ply,114,330,350,-375,,350,-210,210,220,,220,270,290,-300,,290,860
110,M,B,1,Kaspars Sniedze,,O,1987,Raw,106.2,,,,,,225,235,242.5,,242.5,,,,,,242.5
82.5,M,B,1,Kiril Pagelski,,T2,1997,Raw,75.9,,,,,,110,-120,-120,,110,,,,,,110
110,M,D,1,Kirill Afanasjev,,O,1982,Raw,107.9,,,,,,,,,,,300,320,330,,330,330
90,M,B,3,Klaus Renfors,,M1,1973,Raw,88.5,,,,,,150,155,-160,,155,,,,,,155
140+,M,D,1,Konstantīn Konstantīnovs,,O,1978,Raw,140.2,,,,,,,,,,,370,400,405,,405,405
90,M,B,2,Konstantin Topychkanov,,M1,1972,Raw,90,,,,,,165,170,-172.5,,170,,,,,,170
110,M,B,6,Konstantīns Soboļevs,,O,1990,Raw,107.8,,,,,,200,210,-215,,210,,,,,,210
110,M,D,2,Kristaps Somošs,,O,1989,Raw,103.4,,,,,,,,,,,300,320,-340,,320,320
67.5,F,SBD,3,Kristine Alksne,,O,,Wraps,60.2,90,102.5,105,,105,55,62.5,65,,65,110,120,130,,130,300
90+,F,B,1,Kristīne Gecēviča,,J,1994,Raw,100.1,,,,,,100,107.5,-110,,107.5,,,,,,107.5
90+,F,D,1,Kristīne Gecēviča,,J,1994,Raw,100.1,,,,,,,,,,,160,170,180,-185,180,180
67.5,F,SBD,1,Kseniya Mogurova,,O,,Wraps,67.5,127.5,-137.5,-137.5,,127.5,65,70,-72.5,,70,175,185,192.5,,192.5,390
125,M,B,4,Lars Mikael Ostlund,,O,1983,Raw,110.3,,,,,,200,-210,,,200,,,,,,200
100,M,D,2,Lars Stöwesandt,,O,1979,Raw,97.9,,,,,,,,,,,250,262.5,275,,275,275
140,M,B,2,László Vass,,M3,1964,Raw,138.8,,,,,,165,172.5,177.5,,177.5,,,,,,177.5
60,M,SBD,1,Lauris Kalašņikovs,,T2,,Wraps,59.6,100,110,120,,120,70,75,-80,,75,140,155,162.5,,162.5,357.5
82.5,M,B,1,Leonid Averbakh,,M4,1959,Raw,80.9,,,,,,105,110,117.5,,117.5,,,,,,117.5
56,F,B,2,Lielne Lamberte,,O,1986,Raw,53.9,,,,,,45,-47.5,-47.5,,45,,,,,,45
90,M,B,3,Luis Filipe Simoes,,O,1981,Raw,87.8,,,,,,180,190,,,190,,,,,,190
125,M,B,DQ,Lukasz Toczylowski,,O,1985,Raw,120.6,,,,,,-210,-210,-215,,,,,,,,
90,M,SBD,8,Luke James Ashwood,,O,,Wraps,86.1,165,175,185,,185,130,145,-150,,145,215,227.5,-240,,227.5,557.5
110,M,B,3,Maksims Gordejevs,,O,1984,Raw,104.8,,,,,,225,235,-242.5,,235,,,,,,235
110,M,B,2,Maksims Selickis,,O,1980,Single-ply,100.8,,,,,,272.5,282.5,290,,290,,,,,,290
82.5,M,B,1,Maksims Suščevskihs,,J,1994,Raw,78.8,,,,,,160,165,170,,170,,,,,,170
110,M,B,3,Maksims Udalovs,,M1,1974,Raw,102,,,,,,190,197.5,200,,200,,,,,,200
90,M,D,1,Manuel Grbac,,J,1991,Raw,88.8,,,,,,,,,,,270,282.5,-292.5,,282.5,282.5
140,M,B,4,Marc Oliver Kopp,,M1,1972,Raw,126.7,,,,,,185,200,202.5,,202.5,,,,,,202.5
60,M,B,1,Marek Herák,,T3,1995,Multi-ply,60,,,,,,165,175,-185,,175,,,,,,175
52,F,SBD,1,Marija Buzovska,,O,,Wraps,51.1,60,65,-70,,65,35,-37.5,-37.5,,35,70,80,87.5,,87.5,187.5
125,M,B,1,Mariks Daugavets,,M1,1971,Raw,122.7,,,,,,200,207.5,210,,210,,,,,,210
48,F,B,1,Marina Zharova,,O,1984,Raw,48,,,,,,55,62.5,-65,,62.5,,,,,,62.5
56,F,B,1,Mariya Yultsova,,O,1982,Raw,55.6,,,,,,62.5,67.5,-70,,67.5,,,,,,67.5
100,M,B,1,Marko Lempinen,,M2,1966,Multi-ply,96.6,,,,,,-225,-225,225,,225,,,,,,225
140+,M,B,1,Marko Traks,,O,1989,Multi-ply,159.6,,,,,,300,-320,,,300,,,,,,300
90,M,B,2,Martin Randall,,M2,1965,Raw,88.2,,,,,,125,130,-135,,130,,,,,,130
100,M,B,3,Mārtiņš Būčiņš,,M1,1974,Raw,95.8,,,,,,160,-170,,,160,,,,,,160
125,M,B,2,Mārtiņš Ozoliņš,,J,1992,Raw,112.4,,,,,,170,180,-190,,180,,,,,,180
90,M,B,5,Mathias Steiner,,O,1988,Raw,88.5,,,,,,165,170,175,,175,,,,,,175
100,M,SBD,4,Matias Suominen Ville,,O,,Wraps,98.3,225,235,-240,,235,160,-167.5,167.5,,167.5,275,287.5,-292.5,,287.5,690
67.5,M,B,4,Michael Phipps,,O,1979,Raw,65.2,,,,,,92.5,100,-105,,100,,,,,,100
67.5,M,D,1,Michael Phipps,,O,1979,Raw,65.2,,,,,,,,,,,150,165,-177.5,,165,165
60,M,B,1,Mihails Rapoports,,T2,1999,Raw,59.2,,,,,,80,87.5,90,,90,,,,,,90
100,M,B,1,Mikhail Aleksakov,,M5,1954,Raw,97.8,,,,,,110,115,120,,120,,,,,,120
100,M,D,1,Mikhail Aleksakov,,M5,1954,Raw,97.8,,,,,,,,,,,160,165,170,,170,170
140,M,B,1,Mikhail Nikolaev,,M3,1961,Raw,129.4,,,,,,200,212.5,-217.5,,212.5,,,,,,212.5
90,M,B,1,Miroslav Adamove,,T3,1997,Multi-ply,87.9,,,,,,240,260,-270,,260,,,,,,260
90,M,B,1,Miroslav Čaba,,J,1993,Multi-ply,86.3,,,,,,220,-240,-240,,220,,,,,,220
100,M,B,1,Mirosław Orłowski,,M7,1943,Raw,97.4,,,,,,130,135,140,,140,,,,,,140
67.5,M,SBD,2,Mushfig Aliyev,,O,,Wraps,67.5,200,210,215,,215,145,-150,-150,,145,200,-230,-230,,200,560
60,F,B,1,Nadezhda Vlasova,,O,1982,Raw,59.8,,,,,,100,102.5,-105,,102.5,,,,,,102.5
67.5,F,D,1,Nadine Pedraza,,T2,1998,Raw,61.6,,,,,,,,,,,95,105,112.5,,112.5,112.5
100,M,B,3,Namiq Nuruyev,,O,1986,Multi-ply,97.6,,,,,,-255,255,-282.5,,255,,,,,,255
75,F,SBD,1,Naomi Sheppard,,J,,Wraps,69.8,110,122.5,130,,130,65,-70,-70,,65,120,130,135,,135,330
,M,SBD,1,Nasir Aliyev,,O,,Multi-ply,99.6,-290,-290,300,,300,180,200,-215,,200,-260,260,-280,,260,760
110,M,D,1,Nasir Aliyev,,O,1990,Multi-ply,101.1,,,,,,,,,,,280,292.5,,,292.5,292.5
75,M,B,4,Nerius Bimbiris,,O,1985,Raw,74.2,,,,,,160,-165,-170,,160,,,,,,160
100,M,D,DQ,Niclas Friberg,,M1,1974,Multi-ply,98.6,,,,,,,,,,,-301,-301,-301,,,
125,M,SBD,1,Nikolai Fesaniuk,,O,,Wraps,122.6,330,355,362.5,,362.5,-200,212.5,217.5,,217.5,340,-365,-365,,340,920
110,M,B,1,Nikolay Alyshev,,O,1985,Multi-ply,108.2,,,,,,270,287.5,-300,,287.5,,,,,,287.5
90,M,B,2,Nikolay Sarafanov,,O,1983,Raw,89.4,,,,,,190,200,-207.5,,200,,,,,,200
110,M,B,8,Normunds Kačānovs,,O,1979,Raw,106.9,,,,,,190,205,-212.5,,205,,,,,,205
100,M,B,1,Normunds Sproģis,,M3,1965,Raw,97.7,,,,,,195,-205,-207.5,,195,,,,,,195
100,M,B,1,Oleg Bazilevich,,O,1982,Raw,96.8,,,,,,235,245,-256,,245,,,,,,245
100,M,B,1,Oļegs Illarionovs,,M2,1965,Single-ply,96.8,,,,,,235,240,-245,,240,,,,,,240
52,F,D,1,Olga Mikhaylova,,O,1971,Raw,51.8,,,,,,,,,,,155,160,162.5,,162.5,162.5
110,M,SBD,1,Orkhan Vagif Ahmadzade,,O,,Wraps,103.8,250,-260,,,250,170,190,-205,,190,260,,,,260,700
110,M,D,DQ,Orkhan Vagif Ahmadzade,,O,1988,Multi-ply,103.8,,,,,,,,,,,-290,-290,,,,
75,F,SBD,DQ,Patricia Wetton,,M3,,Wraps,74.2,-90,-90,-90,,,,,,,,,,,,,
90,M,B,3,Paulius Morkvėnas,,J,1992,Raw,87.9,,,,,,170,180,185,,185,,,,,,185
100,M,SBD,1,Paulo Santos #1,,O,,Multi-ply,97.2,300,325,340,,340,205,215,225,,225,305,327.5,335,,335,900
100,M,D,1,Paulo Santos #1,,O,1988,Multi-ply,96.2,,,,,,,,,,,280,305,325,,325,325
82.5,M,SBD,1,Paulo Vilas Boas,,O,,Multi-ply,79.5,-290,290,315,,315,150,170,-180,,170,250,270,-285,,270,755
75,M,D,1,Pavel Eliseev,,O,1986,Raw,73.2,,,,,,,,,,,220,230,-240,,230,230
125,M,B,1,Pavel Redkin,,O,1985,Raw,122.5,,,,,,230,240,-245,,240,,,,,,240
100,M,SBD,5,Pavel Vysochin,,O,,Wraps,99.5,215,225,230,,230,170,180,185,,185,245,260,272.5,,272.5,687.5
100,M,B,6,Pavels Gaimovič,,O,1990,Raw,98.3,,,,,,180,-190,190,,190,,,,,,190
90,M,B,2,Pāvels Kijānovs,,J,1991,Raw,89,,,,,,185,192.5,-197.5,,192.5,,,,,,192.5
140,M,B,3,Per Holm,,M3,1964,Raw,133.4,,,,,,142.5,155,-162.5,,155,,,,,,155
140,M,B,1,Peter Diethalm,,M1,1974,Raw,132.1,,,,,,207.5,215,220,,220,,,,,,220
140,M,B,3,Peter Hallberg,,O,1987,Multi-ply,135.9,,,,,,290,-300,300,,300,,,,,,300
140,M,B,2,Peter Funtík,,O,1978,Multi-ply,130.4,,,,,,305,-320,-335,,305,,,,,,305
140+,M,B,1,Péter Mihály,,M4,1958,Multi-ply,159.3,,,,,,230,,,,230,,,,,,230
110,M,SBD,1,Peter Sakala,,T3,,Multi-ply,108.1,290,-312.5,-312.5,,290,180,195,-200,,195,220,-240,-240,,220,705
140,M,B,1,Peteris Isājevs,,O,1984,Raw,133.1,,,,,,270,280,290,,290,,,,,,290
100,M,B,6,Petri Kalevi Mäkinen,,M3,1963,Raw,90.1,,,,,,110,125,-127.5,,125,,,,,,125
100,M,D,3,Petri Kalevi Mäkinen,,M3,1963,Raw,90.1,,,,,,,,,,,140,150,160,,160,160
125,M,B,1,Raimo Aulis Sipiläinen,,M6,1949,Raw,114.6,,,,,,155,160,162.5,,162.5,,,,,,162.5
90,M,SBD,DQ,Ramil Ahmadov,,O,,Multi-ply,88.2,-310,-310,-310,,,,,,,,,,,,,
82.5,M,D,1,Ramil Ahmadov,,O,1988,Single-ply,82.5,,,,,,,,,,,250,272.5,280,,280,280
75,M,B,2,Ramin Rzayev,,O,1980,Raw,75,,,,,,182.5,-192.5,-192.5,,182.5,,,,,,182.5
75,M,B,2,Ramin Rzayev,,O,1980,Single-ply,74.9,,,,,,212.5,-220,-220,,212.5,,,,,,212.5
82.5,M,B,4,Reinis Freijs,,O,1986,Raw,80.8,,,,,,165,170,-177.5,,170,,,,,,170
125,M,B,1,Reinis Kindzulis,,J,1992,Raw,114.9,,,,,,240,-250,-250,,240,,,,,,240
90,M,SBD,6,Ricardo Monteiro,,O,,Wraps,89.2,195,205,-215,,205,-135,135,140,,140,260,275,-280,,275,620
90,M,D,4,Ricardo Monteiro,,O,1987,Raw,89.3,,,,,,,,,,,262.5,272.5,-282.5,,272.5,272.5
75,M,SBD,DQ,Rihards Nejs,,T3,,Wraps,72,180,190,-200,,190,-125,-125,-125,,,,,,,,
140+,M,B,1,Rikard Erlandsson,,O,1977,Raw,163,,,,,,230,250,-270,,250,,,,,,250
90,M,SBD,DQ,Roman Durnov,,O,,Single-ply,86.6,260,285,302.5,,302.5,-192.5,-195,-195,,,,,,,,
75,M,B,1,Roman Eremashvili,,O,1981,Raw,72.4,,,,,,200,210,220,,220,,,,,,220
75,M,B,1,Roman Pelykh,,O,1985,Multi-ply,74.9,,,,,,-230,230,235,,235,,,,,,235
90,M,B,4,Ruben Oliveira,,O,1981,Raw,88.8,,,,,,170,180,,,180,,,,,,180
90,M,D,6,Ruben Oliveira,,O,1981,Raw,88.8,,,,,,,,,,,235,-245,250,,250,250
140,M,SBD,1,Rufat Agaev,,O,,Multi-ply,128.1,450,-475,-475,-475,450,260,275,-290,,275,340,-365,,,340,1065
75,M,D,1,Rustam Musaev,,O,1978,Multi-ply,74.8,,,,,,,,,,,-255,255,-270,,255,255
110,M,B,1,Sami Huhtala,,M1,1974,Multi-ply,110,,,,,,280,-292.5,-300,,280,,,,,,280
110,M,B,1,Sami Huhtala,,M1,1974,Single-ply,110,,,,,,250,-260,-270,,250,,,,,,250
110,M,SBD,1,Sandis Ķiploks,,J,,Wraps,109.4,-280,280,-300,,280,185,195,-200,,195,300,-325,-325,,300,775
75,F,B,1,Sandra Bileiše,,M3,1963,Raw,74.3,,,,,,85,87.5,90,,90,,,,,,90
125,M,SBD,1,Sandro Jose Eusebio,,O,,Multi-ply,124.7,400,-430,,,400,245,-260,,,245,310,340,-370,,340,985
67.5,F,D,1,Sara Abbasova,,O,1983,Raw,65.4,,,,,,,,,,,140,152.5,155,,155,155
100,M,SBD,2,Scott Chafer,,M1,,Wraps,95,170,180,-185,,180,107.5,-112.5,-115,,107.5,190,200,-205,,200,487.5
75,M,SBD,1,Scott Govier,,J,,Wraps,73.5,160,180,190,,190,100,-115,-115,,100,180,200,210,,210,500
125,M,B,2,Sergei Rudikov,,M1,1973,Raw,113.8,,,,,,180,190,200,,200,,,,,,200
125,M,D,2,Sergei Rudikov,,M1,1973,Raw,115.1,,,,,,,,,,,200,220,250,,250,250
75,M,B,2,Sergejs Isčenko,,J,1992,Raw,71.2,,,,,,-125,125,-132.5,,125,,,,,,125
90,M,B,1,Sergejs Mahsumovs,,M2,1970,Raw,89.2,,,,,,160,-170,-172.5,,160,,,,,,160
110,M,B,3,Sergejs Vinogradovs,,M2,1965,Raw,100.6,,,,,,160,165,172.5,,172.5,,,,,,172.5
100,M,B,2,Sergejs Vinogradovs,,M2,1965,Single-ply,98.2,,,,,,180,190,-200,,190,,,,,,190
100,M,B,3,Sergey Didovyk,,O,1978,Raw,99.7,,,,,,205,212.5,,,212.5,,,,,,212.5
100,M,B,1,Sergey Didovyk,,O,1978,Multi-ply,99.7,,,,,,280,-292.5,-292.5,,280,,,,,,280
100,M,D,4,Sergey Didovyk,,O,1978,Raw,99.7,,,,,,,,,,,205,212.5,-215,,212.5,212.5
75,M,B,1,Sergey Nikiforov,,M6,1963,Raw,75,,,,,,115,122.5,125,,125,,,,,,125
100,M,B,DQ,Sergey Tesaruk,,O,1984,Single-ply,95.5,,,,,,-210,-215,-215,,,,,,,,
140+,M,SBD,1,Sergey Yakovlev,,M1,,Wraps,159.8,260,275,-285,,275,182.5,192.5,202.5,,202.5,290,320,335,,335,812.5
125,M,SBD,6,Shakhin Tofig Eyvazov,,O,,Wraps,122.4,-270,270,280,,280,-190,190,-200,,190,310,,,,310,780
125,M,SBD,5,Simon Norcup,,O,,Wraps,114.7,280,295,-305,,295,190,195,200,,200,250,300,315,,315,810
125,M,SBD,1,Simon Norcup,,M2,,Wraps,114.7,280,295,-305,,295,190,195,200,,200,250,300,315,,315,810
82.5,M,SBD,2,Stanislav Simeonov,,O,,Wraps,81.2,210,222.5,230,,230,145,155,162.5,,162.5,240,-260,-275,,240,632.5
100,M,B,1,Stanislaw Kozenko,,M4,1957,Single-ply,97.7,,,,,,170,-185,-190,,170,,,,,,170
100,M,SBD,1,Stefan Sochaňski,,M6,,Wraps,90.3,170,182.5,,,182.5,102.5,110,,,110,192.5,-220,220,,220,512.5
90,M,SBD,1,Stefan Sochaňski,,M6,,Single-ply,89,225,242.5,-253,,242.5,122.5,130,-135,,130,230,255,,,255,627.5
100,M,D,1,Stefan Sochaňski,,M6,1948,Single-ply,90.1,,,,,,,,,,,-222.5,222.5,245,,245,245
140,M,B,3,Sten Haugas,,O,1990,Raw,133.8,,,,,,200,-210,-210,,200,,,,,,200
140,M,D,1,Sten Haugas,,O,1990,Raw,134,,,,,,,,,,,260,-280,280,,280,280
100,M,B,2,Steve Gameiro Barros,,O,1978,Multi-ply,98.7,,,,,,275,-290,-290,,275,,,,,,275
90,M,SBD,1,Steve Plunkett,,M1,,Multi-ply,89.3,275,-300,300,,300,190,,,,190,220,247.5,-262.5,,247.5,737.5
75,F,B,1,Svetlana Sinacheva,,O,1966,Raw,75,,,,,,107.5,110,-112,,110,,,,,,110
140,M,B,1,Tapio Laine,,M5,1952,Single-ply,132.4,,,,,,245,253,,,253,,,,,,253
82.5,F,SBD,1,Tatyana Merezhko,,O,,Wraps,82.2,202.5,212.5,220,,220,95,-100,-100,,95,215,227.5,-232.5,,227.5,542.5
140,M,SBD,2,Thomas Benjamin Humphries,,T3,,Wraps,136.1,180,195,210,,210,-125,135,142.5,,142.5,255,270,-275,,270,622.5
100,M,SBD,3,Tom Sheppard,,J,,Wraps,95.4,-180,-190,190,,190,-130,130,140,,140,210,225,235,,235,565
125,M,B,2,Timo Juhani Majuri,,M2,1967,Raw,118,,,,,,210,-220,220,,220,,,,,,220
125,M,B,2,Timo Juhani Majuri,,M2,1967,Multi-ply,120,,,,,,-310,310,-331,,310,,,,,,310
125,M,B,1,Timo Juhani Majuri,,M2,1967,Single-ply,119.5,,,,,,270,300,,,300,,,,,,300
110,M,B,5,Todor Kapashikov,,O,1984,Raw,108.5,,,,,,215,220,-230,,220,,,,,,220
110,M,B,1,Todor Kapashikov,,O,1984,Single-ply,109.7,,,,,,272.5,282.5,292.5,,292.5,,,,,,292.5
125,M,D,2,Tofig Eyvazov Shakhin,,O,1982,Raw,122.5,,,,,,,,,,,310,-322.5,322.5,,322.5,322.5
67.5,M,SBD,1,Tomáš Siska,,T1,,Multi-ply,65.3,-130,130,137.5,,137.5,55,-60,-60,,55,100,112.5,120,,120,312.5
90,M,SBD,1,Tomass Rihards Chiapas,,T1,,Multi-ply,89.6,-200,205,,,205,100,110,120,,120,50,100,107.5,,107.5,432.5
90,M,D,1,Tomass Rihards Chiapas,,T1,2000,Raw,88.9,,,,,,,,,,,180,190,200,,200,200
90,M,D,1,Tomass Rihards Chiapas,,T1,2000,Multi-ply,89.4,,,,,,,,,,,190,200,-205,,200,200
56,M,SBD,1,Tomass Stanislavskis,,T1,,Wraps,55.9,100,112.5,120,122.5,120,60,72.5,75,,75,115,130,137.5,140,137.5,332.5
56,M,B,1,Tomass Stanislavskis,,T1,2001,Raw,55.2,,,,,,60,65,70,72.5,70,,,,,,70
125,M,B,3,Uģis Millers,,O,1985,Raw,112.2,,,,,,200,212.5,217.5,,217.5,,,,,,217.5
110,M,B,1,Uģis Vācietis,,M2,1967,Raw,107.6,,,,,,185,195,-200,,195,,,,,,195
82.5,M,SBD,1,Vadims Grabars,,M5,,Wraps,82.3,150,170,185,,185,90,102.5,-105,,102.5,235,-245,245,,245,532.5
82.5,M,SBD,1,Vadims Grabars,,M5,,Single-ply,82.5,200,215,-225,,215,90,125,-132.5,,125,230,240,-250,,240,580
82.5,M,D,1,Vadims Grabars,,M5,1951,Raw,82.4,,,,,,,,,,,215,235,-250,,235,235
100,M,SBD,2,Vadims Kondratjevs,,J,,Wraps,94.5,220,230,-235,,230,170,177.5,-182.5,,177.5,240,255,-265,,255,662.5
100,M,SBD,6,Vadims Nikitins,,O,,Wraps,96.9,225,245,-250,,245,165,175,180,,180,245,257.5,-265,,257.5,682.5
90,M,B,2,Valeri Marvejev,,M3,1960,Raw,89.3,,,,,,130,135,-137.5,,135,,,,,,135
90,M,B,1,Valērijs Ņegajevs,,M6,1949,Raw,88.6,,,,,,135,140,-142.5,,140,,,,,,140
90,M,B,1,Valērijs Ņegajevs,,M6,1949,Single-ply,88.2,,,,,,150,-160,-160,,150,,,,,,150
110,M,B,2,Valeriy Akentyev,,M4,1958,Raw,106,,,,,,155,162.5,,,162.5,,,,,,162.5
100,M,B,1,Valeriy Akentyev,,M4,1958,Multi-ply,100,,,,,,235,250,-260,,250,,,,,,250
100,M,SBD,3,Valeriy Kuznetsov,,O,,Wraps,97.6,-260,260,-270,,260,180,190,200,,200,260,280,-290,,280,740
100,M,B,5,Valeriy Kuznetsov,,O,1983,Raw,98.2,,,,,,180,190,-200,,190,,,,,,190
75,M,B,1,Valery Belkin,,M8,1940,Raw,74.3,,,,,,85,-90,-90,,85,,,,,,85
75,M,B,1,Valery Belkin,,M8,1940,Single-ply,74.6,,,,,,-100,100,105,,105,,,,,,105
,M,SBD,1,Valery Tomilov,,M3,,Multi-ply,99,312.5,325,,,325,220,,,,220,270,290,-300,,290,835
100,M,B,3,Valery Tomilov,,M3,1965,Raw,98,,,,,,150,160,170,,170,,,,,,170
100,M,B,1,Valery Tomilov,,M3,1965,Multi-ply,98,,,,,,225,235,,,235,,,,,,235
100,M,B,1,Valery Tomilov,,M3,1965,Single-ply,98.5,,,,,,225,235,,,235,,,,,,235
100,M,D,1,Valery Tomilov,,M3,1965,Raw,98,,,,,,,,,,,220,240,260,,260,260
100,M,D,2,Valery Tomilov,,O,1965,Multi-ply,98,,,,,,,,,,,270,290,-300,,290,290
100,M,D,1,Valery Tomilov,,M3,1965,Multi-ply,98,,,,,,,,,,,270,290,-300,,290,290
82.5,M,SBD,1,Valikhan Ten,,O,,Wraps,81.1,220,230,240,,240,150,160,165,,165,240,250,260,,260,665
82.5,M,D,1,Valikhan Ten,,O,1979,Raw,80.9,,,,,,,,,,,250,,,,250,250
82.5,M,D,2,Valikhan Ten,,O,1979,Single-ply,82,,,,,,,,,,,230,260,-272.5,,260,260
100,M,SBD,1,Vasilijs Drobovs,,M4,,Wraps,99.4,175,190,-200,,190,145,155,-157.5,,155,200,220,230,,230,575
90,M,B,2,Viesturs Eidemanis,,O,1979,Multi-ply,88.8,,,,,,230,240,-250,,240,,,,,,240
125,M,B,1,Viktor Fursov,,M1,1974,Multi-ply,121,,,,,,300,-310,-315,,300,,,,,,300
140,M,B,1,Viktor Naydenov,,O,1987,Multi-ply,128.1,,,,,,400,415,425,,425,,,,,,425
56,F,B,1,Viktoriya Yultsova,,T1,2002,Raw,52.7,,,,,,67.5,72.5,75,77.5,75,,,,,,75
52,M,B,1,Viktors Tarasovs,,T1,2004,Raw,35.7,,,,,,45,50,52.5,,52.5,,,,,,52.5
110,M,SBD,1,Vincas Varza,,M4,,Single-ply,104.7,260,270,280,,280,190,195,200,,200,250,260,,,260,740
140,M,B,1,Virginius Kairevicus,,M4,1960,Raw,131.6,,,,,,140,150,,,150,,,,,,150
110,M,B,1,Vitaliy Ponomarev,,M4,1957,Raw,103.2,,,,,,195,205,207.5,,207.5,,,,,,207.5
110,M,B,1,Vitaliy Ponomarev,,M4,1957,Multi-ply,104.4,,,,,,-230,230,,,230,,,,,,230
110,M,B,1,Vitaliy Ponomarev,,M4,1957,Single-ply,102.2,,,,,,230,240,-245,,240,,,,,,240
90,M,B,1,Vjačeslavs Letlans,,O,1987,Raw,85.8,,,,,,210,215,220,,220,,,,,,220
125,M,SBD,2,Vladimir Golubev,,O,,Wraps,120.4,300,320,,,320,220,230,235,,235,310,325,-335,,325,880
125,M,B,2,Vladimir Golubev,,O,1986,Raw,118.7,,,,,,222.5,232.5,-240,,232.5,,,,,,232.5
125,M,D,3,Vladimir Golubev,,O,1986,Raw,118.7,,,,,,,,,,,320,-340,-340,,320,320
125,M,D,1,Vladimir Golubev,,O,1986,Single-ply,121.5,,,,,,,,,,,300,322.5,342.5,,342.5,342.5
90,M,D,1,Vladimir Hristov,,O,1983,Raw,89.6,,,,,,,,,,,290,302.5,-316,,302.5,302.5
90,M,D,1,Vladimir Zhabin,,O,1980,Multi-ply,89.9,,,,,,,,,,,320,335,345,350,345,345
100,M,B,1,Vladimirs Bogdanovs,,M2,1966,Raw,95.8,,,,,,140,145,-152.5,,145,,,,,,145
90,M,B,1,Vladislav Ilyuschits,,J,1992,Raw,87.8,,,,,,180,-192.5,192.5,,192.5,,,,,,192.5
125,M,B,6,Vladislavs Sehs,,O,1978,Raw,110.1,,,,,,180,-187.5,-187.5,,180,,,,,,180
75,M,SBD,1,Vladlen Astaptsev,,M3,,Wraps,75,120,130,135,,135,100,105,-110,,105,175,185,190,,190,430
75,M,B,3,Vladlen Astaptsev,,M3,1965,Raw,74,,,,,,97.5,102.5,107.5,,107.5,,,,,,107.5
75,M,D,1,Vladlen Astaptsev,,M3,1965,Raw,74,,,,,,,,,,,175,185,192.5,,192.5,192.5
125,M,D,1,Voldemārs Šērs,,M4,1960,Raw,111.9,,,,,,,,,,,180,-187.5,,,180,180
90,M,B,1,Volodymyr Starchenko,,M1,1975,Multi-ply,89.4,,,,,,200,210,-220,,210,,,,,,210
100,M,SBD,1,Vusal Aghaparov,,J,,Wraps,96.2,250,-270,-270,,250,190,-200,,,190,270,-285,-285,,270,710
67.5,F,D,1,Yuliya Pilipchatina,,O,1984,Multi-ply,67.5,,,,,,,,,,,150,160,170,,170,170
125,M,SBD,1,Yuriy Zakharov,,M1,,Wraps,123.7,260,285,303,,303,190,200,205,,205,280,300,307.5,,307.5,815
125,M,D,1,Yuriy Zakharov,,M1,1972,Raw,124.8,,,,,,,,,,,250,275,-300,,275,275
56,F,SBD,1,Žanna Korosteļova,,M2,,Wraps,54.5,80,85,87.5,,87.5,60,65,-70,,65,110,120,-125,,120,272.5
56,F,B,1,Žanna Korosteļova,,M2,1966,Raw,55.3,,,,,,60,65,67.5,,67.5,,,,,,67.5
82.5,F,B,1,Zdenka Hudíková,,O,1980,Multi-ply,81.4,,,,,,120,-130,130,,130,,,,,,130
