Name,WeightClassKg,BodyweightKg,Division,Sex,Event,Squat1Kg,Squat2Kg,Squat3Kg,Best3SquatKg,Bench1Kg,Bench3Kg,Best3BenchKg,Bench4Kg,Deadlift1Kg,Deadlift2Kg,Deadlift3Kg,Best3DeadliftKg,Deadlift4Kg,TotalKg,Age,Equipment,Place
Bonnie Aerts,56,,Open,F,B,,,,,,,62.5,65,,,,,,62.5,,Single-ply,1
T. Kalfos,75,,Open,F,B,,,,,,,52.5,,,,,,,52.5,,Single-ply,1
C. Westin,75,,Open,F,B,,,,,,,,,,,,,,,,Single-ply,DQ
Griselda Gonzalez,90+,,Open,F,B,,,,,,,115,,,,,,,115,19,Raw,1
William Garcia,56,,Open,M,B,,,,,,,135,,,,,,,135,,Single-ply,1
S. Bloomer,60,,Open,M,B,,,,,,,120,,,,,,,120,,Single-ply,2
B. Yager,60,,Open,M,B,,,,,,,135,,,,,,,135,,Single-ply,1
M. Jacobo,67.5,,Open,M,B,,,,,,,95,,,,,,,95,,Single-ply,1
A. Gaukel,75,,Open,M,B,,,,,,,,,,,,,,,,Single-ply,DQ
J. Cummins,82.5,,Open,M,B,,,,,,,172.5,,,,,,,172.5,,Single-ply,1
G. Gonzalez,82.5,,Open,M,B,,,,,,,115,,,,,,,115,,Single-ply,2
M. Riso,82.5,,Open,M,B,,,,,,,100,,,,,,,100,,Single-ply,3
Thomas Sims,90,,Open,M,B,,,,,,,207.5,215,,,,,,207.5,,Single-ply,1
S. Dedrick,90,,Open,M,B,,,,,,,192.5,,,,,,,192.5,,Single-ply,2
I. Miller,90,,Open,M,B,,,,,,,,,,,,,,,,Single-ply,DQ
S. Dedrick,90,,Open,M,B,,,,,,,192.5,,,,,,,192.5,,Single-ply,3
C. Young,90,,Open,M,B,,,,,,,115,,,,,,,115,,Single-ply,5
D. Cannataro,90,,Open,M,B,,,,,,,165,,,,,,,165,,Single-ply,4
J. Hunter,100,,Open,M,B,,,,,,,197.5,,,,,,,197.5,,Single-ply,1
T. Robinson,100,,Open,M,B,,,,,,,155,,,,,,,155,,Single-ply,2
Juan Laija,110,,Open,M,B,,,,,,,260,,,,,,,260,,Single-ply,1
E. Argumedo,110,,Open,M,B,,,,,,,192.5,,,,,,,192.5,,Single-ply,2
M. Lutz,125,,Open,M,B,,,,,,,260,,,,,,,260,,Single-ply,1
Alan Aerts,125,,Open,M,B,,,,,,,215,,,,,,,215,,Single-ply,2
J. Keeley,125,,Open,M,B,,,,,,,150,,,,,,,150,,Single-ply,3
Mark Bell,140,,Open,M,B,,,,,,,,,,,,,,,,Single-ply,DQ
R. Lopez,140+,,Open,M,B,,,,,,,292.5,,,,,,,292.5,,Single-ply,1
J. Kurland,140+,,Open,M,B,,,,,,,142.5,,,,,,,142.5,,Single-ply,2
Bonnie Aerts,56,,Open,F,BD,,,,,,,62.5,65,,,,112.5,,175,,Single-ply,1
K. Geoffrey,56,,Open,F,BD,,,,,,,35,,,,,87.5,,122.5,,Single-ply,2
G. Puckett,60,,Open,F,BD,,,,,,,62.5,,,,,117.5,120,180,,Single-ply,1
C. Keating,60,,Open,F,BD,,,,,,,42.5,,,,,112.5,,155,,Single-ply,2
E. Kearney,60,,Open,F,BD,,,,,,,40,,,,,95,,135,,Single-ply,3
T. Kalfos,75,,Open,F,BD,,,,,,,52.5,,,,,92.5,,145,,Single-ply,1
F. Boza,52,,Open,M,BD,,,,,,,65,67.5,,,,82.5,,147.5,,Single-ply,1
M. Jacobo,67.5,,Open,M,BD,,,,,,,95,,,,,147.5,,242.5,,Single-ply,1
J. Stanley,75,,Open,M,BD,,,,,,,112.5,,,,,225,,337.5,,Single-ply,1
S. Morabito,75,,Open,M,BD,,,,,,,80,,,,,130,,210,,Single-ply,2
G. Gonzalez,82.5,,Open,M,BD,,,,,,,115,,,,,180,,295,,Single-ply,1
C. Tremblay,82.5,,Open,M,BD,,,,,,,122.5,,,,,160,,282.5,,Single-ply,2
M. Riso,82.5,,Open,M,BD,,,,,,,100,,,,,140,,240,,Single-ply,3
Travis Grevon,90,,Open,M,BD,,,,,,,195,,,,,270,,465,,Single-ply,1
D. Cannatario,90,,Open,M,BD,,,,,,,165,,,,,155,,320,,Single-ply,2
Jerry Tremblay Jr,100,,Open,M,BD,,,,,,,177.5,,,,,282.5,,460,,Single-ply,1
J. Blanco,100,,Open,M,BD,,,,,,,160,,,,,217.5,,377.5,,Single-ply,2
Alan Aerts,125,,Open,M,BD,,,,,,,215,,,,,250,,465,,Single-ply,1
A. Baumgarten,140,,Open,M,BD,,,,,,,195,,,,,227.5,,422.5,,Single-ply,1
J. Kurland,140,,Open,M,BD,,,,,,,142.5,,,,,222.5,,365,,Single-ply,2
Bonnie Aerts,56,,Open,F,SBD,,,,90,,,62.5,,,,,112.5,,265,,Single-ply,1
K. Geoffrey,56,,Open,F,SBD,,,,42.5,,,35,,,,,87.5,,165,,Single-ply,2
Becky Rich,60,,Open,F,SBD,,,,130,,,90,,,,,145,,365,,Wraps,1
D. Puckett,60,,Open,F,SBD,,,,77.5,,,62.5,,,,,117.5,120,257.5,,Single-ply,2
C. Keating,60,,Open,F,SBD,,,,72.5,,,42.5,,,,,112.5,,227.5,,Single-ply,3
E. Kearney,60,,Open,F,SBD,,,,55,,,40,,,,,95,,190,,Single-ply,4
G. Blackwell,75,,Open,F,SBD,,,,165,,,82.5,,,,,145,,392.5,,Single-ply,1
T. Kalfos,75,,Open,F,SBD,,,,80,,,52.5,,,,,92.5,,225,,Single-ply,2
C. Westin,75,,Open,F,SBD,,,,185,,,,,,,,,,,,Single-ply,DQ
N. Stern,82.5,,Open,F,SBD,,,,,,,,,,,,,,,,Single-ply,DQ
Janet Loveall,90,87.54,Open,F,SBD,,,227.5,227.5,145,,145,,,,210,210,,582.5,,Single-ply,1
R. Cove,75,,Open,M,SBD,,,,187.5,,,135,,,,,200,,522.5,,Single-ply,1
J. Puckett,75,,Open,M,SBD,,,,127.5,,,70,,,,,152.5,,350,,Single-ply,3
J. Stanley,75,,Open,M,SBD,,,,157.5,,,112.5,,,,,220,,490,,Single-ply,2
B. Pacheco,82.5,,Open,M,SBD,,,,232.5,,,180,,,,,225,,637.5,,Single-ply,1
C. Tremblay,82.5,,Open,M,SBD,,,,155,,,122.5,,,,,160,,437.5,,Single-ply,2
M. Riso,82.5,,Open,M,SBD,,,,152.5,,,100,,,,,175,,427.5,,Single-ply,4
G. Gonzalez,82.5,,Open,M,SBD,,,,130,,,120,,,,,180,,430,,Single-ply,3
Z. Trowbridge,82.5,,Open,M,SBD,,,,120,,,97.5,,,,,160,,377.5,,Single-ply,5
A. Bidanian,82.5,,Open,M,SBD,,,,137.5,,,70,,,,,125,,332.5,,Single-ply,6
G. Buffington,90,,Open,M,SBD,,,,282.5,,,220,,,,,260,,762.5,,Single-ply,1
M. Vizcarra,90,,Open,M,SBD,,,,190,,,157.5,,,,,215,,562.5,,Single-ply,3
Greg Lewis,90,,Open,M,SBD,,,,217.5,,,187.5,190,,,,227.5,,632.5,19,Single-ply,2
M. Vizcarra,90,,Open,M,SBD,,,,190,,,157.5,,,,,215,,562.5,,Single-ply,4
Travis Grevon,90,,Open,M,SBD,,,,,,,,,,,,,,,,Single-ply,DQ
Bradley King,100,,Open,M,SBD,,,,325,,,187.5,,,,,290,,802.5,,Single-ply,1
M. Musto,100,,Open,M,SBD,,,,280,,,202.5,,,,,292.5,,775,,Single-ply,2
Jerry Tremblay Jr,100,,Open,M,SBD,,,,252.5,,,177.5,,,,,282.5,,712.5,,Single-ply,3
J. Blanco,100,,Open,M,SBD,,,,235,,,160,,,,,217.5,,612.5,,Single-ply,4
J. Huggins,100,,Open,M,SBD,,,,175,,,145,,,,,167.5,,487.5,,Single-ply,5
M. Wild,110,,Open,M,SBD,,,,292.5,,,227.5,,,,,310,,830,,Single-ply,1
H. Gomez,110,,Open,M,SBD,,,,295,,,192.5,,,,,307.5,,795,,Single-ply,2
D. Vargas,110,,Open,M,SBD,,,,277.5,,,187.5,,,,,235,,700,,Single-ply,3
C. West,110,,Open,M,SBD,,,,137.5,,,115,,,,,170,,422.5,,Single-ply,4
B. Inderhees,125,,Open,M,SBD,,,,230,,,202.5,,,,,230,,662.5,,Single-ply,1
Alan Aerts,125,,Open,M,SBD,,,,160,,,215,,,,,250,,625,,Single-ply,2
B. Molina,125,,Open,M,SBD,,,,215,,,175,,,,,222.5,,612.5,,Single-ply,3
B. Newman,125,,Open,M,SBD,,,,312.5,,,,,,,,,,,,Single-ply,DQ
Brad Cikana,140,,Open,M,SBD,,,,250,,,307.5,,,,,260,,817.5,,Single-ply,1
Baumgarten,140,,Open,M,SBD,,,,,,,,,,,,,,,,Single-ply,DQ
Scott Cartwright,140+,,Open,M,SBD,432.5,455,465,465,,320,320,,305,335,-350,335,,1120,,Single-ply,1
M. Rich,140+,,Open,M,SBD,,,,227.5,,,165,,,,,205,,597.5,,Single-ply,2
J. Kurland,140+,,Open,M,SBD,,,,157.5,,,142.5,,,,,222.5,,522.5,,Single-ply,3
