Name,Division,Equipment,Team,Sex,BodyweightKg,WeightClassKg,Place,Squat1Kg,Squat2Kg,Squat3Kg,Best3SquatKg,Bench1Kg,Bench2Kg,Bench3Kg,Best3BenchKg,Deadlift1Kg,Deadlift2Kg,Deadlift3Kg,Best3DeadliftKg,TotalKg,Event
Rika Kleinelsen,Juniors,Raw,Body Aktiv Oberhausen,F,76.85,84,1,85,95,102.5,102.5,52.5,57.5,60,60,95,,,95,257.5,SBD
Susanne Küttler,Masters 1,Raw,Kölner AC 1882,F,71.3,72,1,120,127.5,132.5,132.5,70,-72.5,-72.5,70,120,130,142.5,142.5,345,SBD
Marlies Winkel,Masters 2,Raw,TV Röhlinghausen,F,60.9,63,1,82.5,87.5,92.5,92.5,67.5,70,72.5,72.5,127.5,135,140,140,305,SBD
Julia Christin Jonann,Open,Raw,KSV Essen 1888,F,46.8,47,1,65,72.5,80,80,40,47.5,-52.5,47.5,70,80,85,85,212.5,SBD
Anabell Pfeiffer,Open,Raw,Kölner AC 1882,F,56.45,57,1,82.5,90,-95,90,52.5,-57.5,57.5,57.5,-105,105,110,110,257.5,SBD
Bianca Rottschy,Open,Raw,Body Aktiv Oberhausen,F,81,84,1,105,110,115,115,52.5,57.5,60,60,105,115,130,130,305,SBD
Milena Schäfer,Open,Raw,KSO Silberrücken,F,108,84+,1,-125,125,-135,125,60,-65,-65,60,125,135,-145,135,320,SBD
Florian Ghanizada,Juniors,Raw,KSV Bochum,M,82.1,83,1,140,150,160,160,120,127.5,135,135,160,175,185,185,480,SBD
Pascal Jöris,Juniors,Raw,TAV Germania D'dorf,M,81.9,83,2,140,147.5,152.5,152.5,90,97.5,-102.5,97.5,180,190,200,200,450,SBD
Jannis Wiederhold,Juniors,Raw,KSV Lippe,M,78.9,83,3,110,-115,-120,110,120,-130,-130,120,190,200,210,210,440,SBD
Daniel Ochs,Juniors,Raw,KSV Bochum,M,78.7,83,4,110,120,127.5,127.5,112.5,120,-127.5,120,150,160,165,165,412.5,SBD
Friedrich von Hennig,Juniors,Raw,Kölner AC 1882,M,89.4,93,1,-195,200,-222.5,200,120,125,-130,125,285,-295,-295,285,610,SBD
Denis Lenz,Juniors,Raw,KSV Essen 1888,M,116.9,120,1,172.5,182.5,190,190,127.5,135,140,140,185,200,210,210,540,SBD
Martin Verhoff,Masters 2,Raw,KSV Bochum,M,96.1,105,1,140,155,165,165,115,120,-125,120,190,200,210,210,495,SBD
Thomas Berger,Masters 2,Raw,Body Aktiv Oberhausen,M,116.7,120,1,160,170,,170,135,140,145,145,-160,160,185,185,500,SBD
Markus Scherer,Open,Raw,KSV Essen 88,M,65.4,66,1,155,170,180,180,112.5,120,-125,120,180,200,210,210,510,SBD
Sergej Helmel,Open,Raw,SV Westerholt,M,68.6,74,1,130,140,150,150,90,100,105,105,150,162.5,170,170,425,SBD
Onur Fakiroglu,Open,Raw,KSV Lippe,M,72.4,74,1,90,102.5,-115,102.5,70,82.5,92.5,92.5,100,115,,115,310,SBD
Andre Orlowski,Open,Raw,KSV Essen1888,M,80.65,83,1,-160,180,190,190,120,130,-135,130,210,230,250,250,570,SBD
Willi Mertz,Open,Raw,KSV Lippe,M,80.75,83,2,175,185,195,195,135,145,-152.5,145,190,210,230,230,570,SBD
Payam Ghalehdar,Open,Raw,KSV Essen1888,M,79.9,83,3,120,130,-137.5,130,70,77.5,-82.5,77.5,125,135,150,150,357.5,SBD
Ken Gildner,Open,Raw,TAV Germania D'dorf,M,86.85,93,1,160,170,175,175,120,130,-132.5,130,-215,225,232.5,232.5,537.5,SBD
Jürgen Pfohl,Open,Raw,Kölner AC 1882,M,88.8,93,2,-165,165,-172.5,165,130,-140,-140,130,210,215,-220,215,510,SBD
David Littau,Open,Raw,KSV Fitnesskreis Witten,M,88.95,93,3,140,150,160,160,122.5,127.5,132.5,132.5,180,190,,190,482.5,SBD
Benjamin Braamt,Open,Raw,KSV Fitnesskreis Witten,M,85.65,93,4,150,160,170,170,90,97.5,102.5,102.5,150,165,170,170,442.5,SBD
Matthias Bekavac,Open,Raw,Kölner AC 1882,M,104.55,105,1,200,235,240,240,165,175,-185,175,250,285,290,290,705,SBD
Rustam Pitov,Open,Raw,Kölner AC 1882,M,100.65,105,2,205,215,222.5,222.5,160,170,180,180,235,245,255,255,657.5,SBD
Timon Rahmann,Open,Raw,KSV Essen 1888,M,101.55,105,3,180,190,200,200,140,145,147.5,147.5,210,-220,-220,210,557.5,SBD
Sven Meyer,Open,Raw,TV Röhlinghausen,M,103.8,105,4,185,202.5,210,210,90,97.5,-102.5,97.5,-190,200,207.5,207.5,515,SBD
Andreas Dohrn,Open,Raw,KSO Silberrücken,M,94.25,105,5,150,160,162.5,162.5,115,120,-125,120,190,200,-205,200,482.5,SBD
Igor Nemtsov,Open,Raw,Body Aktiv Oberhausen,M,118.5,120,1,255,-270,270,270,172.5,180,182.5,182.5,250,265,270,270,722.5,SBD
Thorsten van den Berg,Open,Raw,KSV Essen 1888,M,118.2,120,2,230,240,247.5,247.5,140,152.5,157.5,157.5,260,280,-295,280,685,SBD
Gerit Krüger,Open,Raw,KSV Essen 1888,M,107.4,120,3,200,210,220,220,130,140,-145,140,240,250,-260,250,610,SBD
Patrick Ohleff,Open,Raw,KSV Essen 1888,M,123.1,120+,1,-220,225,230,230,170,180,185,185,255,-275,-280,255,670,SBD
Moritz Johnen,Youth A,Raw,KSV Essen 1888,M,81.9,83,1,-150,157.5,170,170,115,125,130,130,150,162.5,172.5,172.5,472.5,SBD
Dustin Beyer,Youth A,Raw,KSV Essen 1888,M,80.35,83,2,110,125,135,135,95,-100,-102.5,95,145,160,170,170,400,SBD
Sindi Viragos,Open,Single-ply,AC Siegen,F,53,57,1,90,-100,-105,90,50,-60,-60,50,120,125,130,130,270,SBD
Claudia Kochs,Open,Single-ply,AC Siegen,F,55.5,57,2,55,60,-65,60,40,42.5,45,45,70,80,85,85,190,SBD
Bettina Heinzen,Open,Single-ply,KSV Bochum,F,62.7,63,1,120,130,140,140,75,80,-85,80,130,145,-155,145,365,SBD
Jan Rosenkranz,Juniors,Single-ply,AC Siegen,M,82.4,83,1,175,190,,190,122.5,-130,130,130,197.5,210,-220,210,530,SBD
Giancarlo Mavrici,Juniors,Single-ply,KSV Bochum,M,90.8,93,1,-250,-260,265,265,175,180,185,185,285,-300,-300,285,735,SBD
Andreas Welk,Masters 1,Single-ply,SV Westerholt,M,81.6,83,1,230,240,-250,240,150,160,165,165,230,240,-245,240,645,SBD
Ali Diae Sid,Masters 1,Single-ply,Body Aktiv Oberhausen,M,81.2,83,2,165,175,-185,175,120,130,135,135,-180,180,200,200,510,SBD
Olaf Brandl,Masters 1,Single-ply,AC Siegen,M,91.7,93,1,-200,-200,200,200,210,220,-230,220,210,230,-250,230,650,SBD
Anton Elzer,Masters 1,Single-ply,SV Westerholt,M,123.7,120+,1,-280,280,-300,280,205,212.5,-217.5,212.5,260,-275,,260,752.5,SBD
Michael Jäger,Masters 2,Single-ply,Powerlifting Duisburg,M,135.85,120+,2,260,275,-290,275,225,240,-265,240,280,305,315,315,830,SBD
Ignatij Jablonowskij,Open,Single-ply,SV Westerholt,M,74,74,1,250,-270,270,270,160,170,180,180,235,250,260,260,710,SBD
Jochen Wischnewski,Open,Single-ply,SV Westerholt,M,90.3,93,1,-225,225,240,240,142.5,152.5,157.5,157.5,180,195,202.5,202.5,600,SBD
Paskal Fleissner,Open,Single-ply,AC Siegen,M,95.85,105,1,200,225,-230,225,-150,150,155,155,240,260,-275,260,640,SBD
Malte Fleissner,Open,Single-ply,AC Siegen,M,109,120,1,-280,-280,280,280,170,-190,,170,300,320,332.5,332.5,782.5,SBD
Andreas Schlichenmaier,Open,Single-ply,AC Siegen,M,111.25,120,2,200,-230,250,250,120,140,-160,140,240,260,280,280,670,SBD
Daniel Schneider,Open,Single-ply,AC Siegen,M,111.5,120,3,180,-200,-210,180,-140,140,155,155,240,250,-262.5,250,585,SBD
