Division,WeightClassKg,Place,Name,Team,BodyweightKg,Best3SquatKg,Best3BenchKg,Best3DeadliftKg,TotalKg,Equipment,Event,Sex
Boys,51.71,1,Carl Lindley,Brownsboro,49.8,113.4,68.04,111.13,292.57,Single-ply,SBD,M
Boys,51.71,2,Osvaldo Palacias,Palestine,51.26,97.52,61.23,102.06,260.82,Single-ply,SBD,M
Boys,51.71,3,Matthew Thompson,Palestine,42.91,95.25,43.09,74.84,213.19,Single-ply,SBD,M
Boys,55.79,1,Johney Phelps,Palestine Westwood,54.52,167.83,86.18,151.95,405.97,Single-ply,SBD,M
Boys,55.79,2,José Castillo,Grapeland,53.98,120.2,65.77,133.81,319.78,Single-ply,SBD,M
Boys,55.79,3,Charlie Ivey,Malakoff,53.34,102.06,61.23,115.67,278.96,Single-ply,SBD,M
Boys,55.79,4,Bailey Kurtz,Bullard,54.43,102.06,61.23,113.4,276.69,Single-ply,SBD,M
Boys,59.87,1,Bryce Ivey,Malakoff,57.88,117.93,61.23,142.88,322.05,Single-ply,SBD,M
Boys,59.87,DQ,Jonathan Hernandez,Malakoff,57.52,133.81,,,,Single-ply,SBD,M
Boys,74.84,1,Ja'Vontay Williams,Nacogdoches,67.22,222.26,92.99,222.26,537.51,Single-ply,SBD,M
Boys,67.13,2,Devin Eggins,Fairfield,64.32,183.7,102.06,181.44,467.2,Single-ply,SBD,M
Boys,67.13,3,Jalen Burns,Palestine Westwood,64.77,190.51,70.31,199.58,460.4,Single-ply,SBD,M
Boys,67.13,4,Leo Rosales,Rusk,61.69,174.63,99.79,176.9,451.32,Single-ply,SBD,M
Boys,74.84,5,Nate Bell,Elkhart,67.31,163.29,90.72,158.76,412.77,Single-ply,SBD,M
Boys,67.13,6,Kaleb Leonard,Grapeland,66.5,147.42,81.65,154.22,383.29,Single-ply,SBD,M
Boys,67.13,7,Bryce Stephens,Brownsboro,62.96,142.88,83.91,151.95,378.75,Single-ply,SBD,M
Boys,67.13,8,Richard Torrelli,Bullard,65.68,142.88,61.23,170.1,374.21,Single-ply,SBD,M
Boys,67.13,9,Austin Lewis,Troup,64.95,142.88,74.84,154.22,371.95,Single-ply,SBD,M
Boys,67.13,10,Noah Mireles,Fairfield,65.05,158.76,72.57,136.08,367.41,Single-ply,SBD,M
Boys,67.13,11,Cameron Larson,Brownsboro,63.68,136.08,72.57,145.15,353.8,Single-ply,SBD,M
Boys,67.13,12,David McAlpine,Buffalo,61.42,129.27,74.84,138.35,342.46,Single-ply,SBD,M
Boys,67.13,13,Ulisis Ramirez,Fairfield,60.51,145.15,58.97,136.08,340.19,Single-ply,SBD,M
Boys,67.13,14,Lane Smith,Troup,61.14,127.01,63.5,136.08,326.59,Single-ply,SBD,M
Boys,67.13,15,Ulices Guerrero,Buffalo,64.41,127.01,79.38,111.13,317.51,Single-ply,SBD,M
Boys,67.13,16,Dillon Beshears,Buffalo,60.42,113.4,68.04,115.67,297.1,Single-ply,SBD,M
Boys,67.13,DQ,Rene Martinez,Palestine,63.59,65.77,,,,Single-ply,SBD,M
Boys,67.13,DQ,Zach Morrow #3,Palestine Westwood,62.96,158.76,,,,Single-ply,SBD,M
Boys,67.13,DQ,Jose Rodriguez,Fairfield,61.87,138.35,63.5,,,Single-ply,SBD,M
Boys,74.84,1,Chris Box,Elkhart,72.85,226.8,131.54,197.31,555.65,Single-ply,SBD,M
Boys,74.84,2,Alex Thlang,Elkhart,71.49,176.9,115.67,185.97,478.54,Single-ply,SBD,M
Boys,74.84,3,Pierce Adams,Nacogdoches,71.4,199.58,90.72,183.7,474,Single-ply,SBD,M
Boys,74.84,4,Brett Martin,Troup,71.67,176.9,97.52,199.58,474,Single-ply,SBD,M
Boys,74.84,5,Dylan Grim,Malakoff,73.03,174.63,115.67,183.7,474,Single-ply,SBD,M
Boys,74.84,6,Pj Lewis,Grapeland,70.4,165.56,86.18,190.51,442.25,Single-ply,SBD,M
Boys,74.84,7,Dj Hicks,Palestine Westwood,67.59,165.56,86.18,181.44,433.18,Single-ply,SBD,M
Boys,74.84,8,Chason Churchman,Palestine Westwood,68.04,181.44,83.91,167.83,433.18,Single-ply,SBD,M
Boys,74.84,9,Poochie Weaver,Palestine,69.13,158.76,111.13,158.76,428.64,Single-ply,SBD,M
Boys,74.84,10,Michael Jones,Elkhart,70.22,158.76,90.72,174.63,424.11,Single-ply,SBD,M
Boys,74.84,11,Nick Mooneyham,Fairfield,69.4,158.76,88.45,170.1,417.3,Single-ply,SBD,M
Boys,74.84,12,Cameron Riess,Grapeland,73.66,183.7,74.84,142.88,401.43,Single-ply,SBD,M
Boys,74.84,13,Luke LaCroix,Brownsboro,71.58,151.95,81.65,165.56,399.16,Single-ply,SBD,M
Boys,74.84,14,Samuel Cervantes,Buffalo,71.58,136.08,79.38,174.63,390.09,Single-ply,SBD,M
Boys,74.84,15,Cameron Varner,Buffalo,69.13,170.1,70.31,147.42,387.82,Single-ply,SBD,M
Boys,82.1,16,Ashton Henry,Grapeland,74.93,111.13,65.77,156.49,333.39,Single-ply,SBD,M
Boys,74.84,17,Keelan Felts,Brownsboro,73.03,117.93,65.77,142.88,326.59,Single-ply,SBD,M
Boys,74.84,18,Jake Barker,Cushing,71.67,117.93,72.57,106.59,297.1,Single-ply,SBD,M
Boys,74.84,19,Josh Provost,Cushing,68.86,108.86,65.77,106.59,281.23,Single-ply,SBD,M
Boys,74.84,DQ,Taylor Jackson,Cushing,70.31,120.2,,,,Single-ply,SBD,M
Boys,74.84,DQ,Zach Cooke,New London West Rusk,72.67,149.69,,,,Single-ply,SBD,M
Boys,74.84,DQ,Brant Hamilton,Malakoff,68.22,161.03,86.18,,,Single-ply,SBD,M
Boys,82.1,1,Garrett Flanagan,Elkhart,79.65,215.46,129.27,226.8,571.53,Single-ply,SBD,M
Boys,82.1,2,Rowdy Upchurch,Elkhart,76.75,190.51,127.01,199.58,517.1,Single-ply,SBD,M
Boys,82.1,3,Justice Taylor,Brownsboro,77.56,195.04,115.67,181.44,492.15,Single-ply,SBD,M
Boys,82.1,4,Orlando Gonzales,Palestine Westwood,81.28,192.78,102.06,181.44,476.27,Single-ply,SBD,M
Boys,82.1,5,Chris Jump,Malakoff,80.1,170.1,111.13,181.44,462.66,Single-ply,SBD,M
Boys,89.81,6,Josh Driver,New London West Rusk,82.19,170.1,102.06,190.51,462.66,Single-ply,SBD,M
Boys,82.1,7,Nate Wright,Brownsboro,79.11,163.29,95.25,172.37,430.91,Single-ply,SBD,M
Boys,82.1,8,Donovan Yeley,Bullard,77.38,181.44,90.72,149.69,421.84,Single-ply,SBD,M
Boys,82.1,9,Josh Thompson,Nacogdoches,75.48,142.88,95.25,147.42,385.55,Single-ply,SBD,M
Boys,82.1,10,Ramiro Martinez,Troup,76.11,145.15,92.99,140.61,378.75,Single-ply,SBD,M
Boys,82.1,11,William Wheat,Palestine,76.48,131.54,68.04,149.69,349.27,Single-ply,SBD,M
Boys,82.1,12,Nomar Villegas,Palestine,81.92,127.01,79.38,136.08,342.46,Single-ply,SBD,M
Boys,82.1,13,Chris Phillips,Troup,79.2,136.08,56.7,124.74,317.51,Single-ply,SBD,M
Boys,89.81,1,Kyle Alexander #2,Bullard,82.46,204.12,111.13,188.24,503.49,Single-ply,SBD,M
Boys,99.79,2,Gavin DeFore,Elkhart,89.99,172.37,111.13,183.7,467.2,Single-ply,SBD,M
Boys,89.81,3,Vaughn Liedtke,New London West Rusk,87.91,176.9,104.33,174.63,455.86,Single-ply,SBD,M
Boys,89.81,4,Thomas Brooks,Bullard,83.82,172.37,106.59,154.22,433.18,Single-ply,SBD,M
Boys,89.81,5,Dustin Ackley,Grapeland,82.64,156.49,83.91,181.44,421.84,Single-ply,SBD,M
Boys,89.81,6,Austin Israel,Brownsboro,87.91,165.56,97.52,142.88,405.97,Single-ply,SBD,M
Boys,89.81,7,Dakota Barrell,Rusk,83.55,145.15,83.91,145.15,374.21,Single-ply,SBD,M
Boys,89.81,8,Spencer Grisham,Malakoff,86,138.35,72.57,142.88,353.8,Single-ply,SBD,M
Boys,89.81,9,Travis Pepin,Rusk,88.72,136.08,68.04,136.08,340.19,Single-ply,SBD,M
Boys,99.79,1,Anthony Howard,New London West Rusk,91.9,229.06,142.88,258.55,630.49,Single-ply,SBD,M
Boys,99.79,2,Caleb Hallford,Bullard,95.89,226.8,149.69,201.85,578.33,Single-ply,SBD,M
Boys,109.77,3,Tyler Wilbanks,Rusk,99.88,254.01,129.27,195.04,578.33,Single-ply,SBD,M
Boys,99.79,4,Cole Beddingfield,Fairfield,97.61,229.06,142.88,204.12,576.06,Single-ply,SBD,M
Boys,99.79,5,Andre Agan,Elkhart,90.26,213.19,140.61,217.72,571.53,Single-ply,SBD,M
Boys,99.79,6,Ty Swindle,Palestine,99.16,192.78,120.2,215.46,528.44,Single-ply,SBD,M
Boys,99.79,7,Nick Wright #2,Brownsboro,95.35,201.85,124.74,199.58,526.17,Single-ply,SBD,M
Boys,99.79,8,Andrew Brooks,Bullard,93.08,183.7,131.54,176.9,492.15,Single-ply,SBD,M
Boys,99.79,9,TJ Jones,Elkhart,95.44,190.51,97.52,195.04,483.08,Single-ply,SBD,M
Boys,99.79,10,Aaron Pfleeger,Fairfield,95.98,195.04,102.06,185.97,483.08,Single-ply,SBD,M
Boys,99.79,11,Payton Lowrie,Malakoff,96.98,185.97,117.93,176.9,480.81,Single-ply,SBD,M
Boys,99.79,12,Jax Donohoo,Fairfield,94.62,190.51,92.99,188.24,471.74,Single-ply,SBD,M
Boys,99.79,13,Bradon Osteen,New London West Rusk,92.99,176.9,97.52,174.63,449.06,Single-ply,SBD,M
Boys,99.79,14,Tucker Davis,Fairfield,90.26,183.7,97.52,149.69,430.91,Single-ply,SBD,M
Boys,99.79,15,Seth Folsom,Buffalo,99.79,163.29,95.25,163.29,421.84,Single-ply,SBD,M
Boys,99.79,16,Will Fridell,Rusk,99.52,156.49,104.33,158.76,419.57,Single-ply,SBD,M
Boys,99.79,17,Chris Fletcher,Rusk,95.8,142.88,83.91,161.03,387.82,Single-ply,SBD,M
Boys,99.79,18,Aaron Smith,Bullard,94.71,149.69,86.18,147.42,383.29,Single-ply,SBD,M
Boys,99.79,19,Jace Rogers,Rusk,90.72,124.74,83.91,154.22,362.87,Single-ply,SBD,M
Boys,99.79,20,Alejandro Vega,Palestine,97.16,136.08,83.91,136.08,356.07,Single-ply,SBD,M
Boys,99.79,21,Garrett Beamer,Rusk,96.71,113.4,68.04,142.88,324.32,Single-ply,SBD,M
Boys,109.77,1,Reece Clark,Troup,104.24,242.67,108.86,195.04,546.58,Single-ply,SBD,M
Boys,109.77,2,Nelson Ochoa,Malakoff,109.68,208.65,127.01,190.51,526.17,Single-ply,SBD,M
Boys,109.77,3,Will Dehart,Elkhart,103.06,210.92,115.67,181.44,508.02,Single-ply,SBD,M
Boys,109.77,4,Mitchell Graham,Bullard,109.5,183.7,131.54,188.24,503.49,Single-ply,SBD,M
Boys,109.77,5,Zach Sanders,Malakoff,104.05,204.12,104.33,192.78,501.22,Single-ply,SBD,M
Boys,109.77,6,Jayce Harris,Cayuga,105.23,197.31,113.4,181.44,492.15,Single-ply,SBD,M
Boys,109.77,7,Joe Wright,New London West Rusk,101.06,181.44,113.4,188.24,483.08,Single-ply,SBD,M
Boys,109.77,8,Jeremy Wood,Fairfield,105.78,190.51,115.67,165.56,471.74,Single-ply,SBD,M
Boys,109.77,9,Cole Brewton,Nacogdoches,100.97,185.97,104.33,158.76,449.06,Single-ply,SBD,M
Boys,109.77,10,Clint Guyton,Buffalo,106.59,165.56,113.4,165.56,444.52,Single-ply,SBD,M
Boys,109.77,11,Cole Schick,Fairfield,107.59,181.44,92.99,142.88,417.3,Single-ply,SBD,M
Boys,109.77,12,Gabriel Gonzalez,Palestine Westwood,105.69,165.56,83.91,158.76,408.23,Single-ply,SBD,M
Boys,109.77,13,Keevon Jackson,Palestine Westwood,109.5,149.69,74.84,129.27,353.8,Single-ply,SBD,M
Boys,109.77,DQ,Matthew Davidson,New London West Rusk,100.33,201.85,,,,Single-ply,SBD,M
Boys,124.74,1,Julio Hiracheto,Cushing,116.39,222.26,156.49,229.06,607.81,Single-ply,SBD,M
Boys,124.74,2,Josh Tillis,Palestine,117.57,219.99,183.7,204.12,607.81,Single-ply,SBD,M
Boys,124.74,3,Dorian Schutt,Bullard,118.12,229.06,129.27,226.8,585.13,Single-ply,SBD,M
Boys,124.74,4,Joey Maltos,Buffalo,110.59,219.99,133.81,206.38,560.19,Single-ply,SBD,M
Boys,124.74,5,JW McFarland,Bullard,117.3,233.6,131.54,195.04,560.19,Single-ply,SBD,M
Boys,124.74,6,Joel Barbosa,Cayuga,114.85,190.51,108.86,185.97,485.34,Single-ply,SBD,M
Boys,124.74,7,Brandon McIe,Brownsboro,113.85,183.7,99.79,199.58,483.08,Single-ply,SBD,M
Boys,124.74,8,Kerry Rivera,Nacogdoches,111.58,188.24,104.33,181.44,474,Single-ply,SBD,M
Boys,124.74,9,Wes Carney,Palestine Westwood,114.94,165.56,113.4,185.97,464.93,Single-ply,SBD,M
Boys,124.74,10,Zach Banks,Rusk,110.95,181.44,90.72,174.63,446.79,Single-ply,SBD,M
Boys,124.74,11,Benito Rivas,Buffalo,114.58,151.95,88.45,181.44,421.84,Single-ply,SBD,M
Boys,124.74,12,Juan Mercado,Nacogdoches,115.48,158.76,97.52,136.08,392.36,Single-ply,SBD,M
Boys,124.74,13,James Hardy,Troup,115.39,142.88,90.72,142.88,376.48,Single-ply,SBD,M
Boys,124.74,14,Brandon Casted,Troup,114.21,133.81,74.84,133.81,342.46,Single-ply,SBD,M
Boys,124.74,15,Dante Gatson,Nacogdoches,120.2,120.2,77.11,136.08,333.39,Single-ply,SBD,M
Boys,124.74,16,Adam Patterson,Rusk,113.76,102.06,63.5,136.08,301.64,Single-ply,SBD,M
Boys,124.74+,1,Pat Cross,Palestine,127.64,294.84,151.95,242.67,689.46,Single-ply,SBD,M
Boys,124.74+,2,Taylor McBride,Cushing,141.34,285.76,147.42,226.8,659.98,Single-ply,SBD,M
Boys,124.74+,3,Bryce Hoffman,Rusk,127.46,272.16,147.42,219.99,639.57,Single-ply,SBD,M
Boys,124.74+,4,Corey Brister,New London West Rusk,126.37,244.94,138.35,233.6,616.89,Single-ply,SBD,M
Boys,124.74+,5,Colton Barker,Malakoff,126.82,195.04,124.74,199.58,519.36,Single-ply,SBD,M
Boys,124.74+,6,Jesus Garcia-Castillo,Palestine,138.16,163.29,99.79,183.7,446.79,Single-ply,SBD,M
Boys,124.74+,7,John Campbell,Bullard,125.37,185.97,90.72,165.56,442.25,Single-ply,SBD,M
Boys,124.74+,8,Jaylon White,Troup,199.58,165.56,111.13,158.76,435.45,Single-ply,SBD,M
Boys,124.74+,9,H. Allen,Cushing,133.45,165.56,97.52,124.74,387.82,Single-ply,SBD,M
Boys,124.74+,DQ,Colton Moody,Cayuga,161.03,140.61,,,,Single-ply,SBD,M
Boys,124.74+,DQ,Matt Carr,Bullard,149.69,136.08,,,,Single-ply,SBD,M
Boys,124.74+,DQ,Connor Shotner,Troup,149.96,,,,,Single-ply,SBD,M
