Division,WeightClassKg,Place,Name,Team,BodyweightKg,Best3SquatKg,Best3BenchKg,Best3DeadliftKg,TotalKg,Equipment,Event,Sex
Girls,44.23,1,Rhema Orta,Port Lavaca Calhoun,44,106.59,49.9,106.59,263.08,Single-ply,SBD,F
Girls,44.23,2,Stephanie Vega Zapater,San Antonio Southside,44,86.18,36.29,83.91,206.38,Single-ply,SBD,F
Girls,44.23,3,Jaylin Haughie,Center Point,42.86,74.84,38.56,72.57,185.97,Single-ply,SBD,F
Girls,47.85,1,McKayla Cortez,Port Lavaca Calhoun,46.99,133.81,77.11,133.81,344.73,Single-ply,SBD,F
Girls,47.85,2,Madison Maldonado,Port Lavaca Calhoun,47.17,117.93,54.43,106.59,278.96,Single-ply,SBD,F
Girls,47.85,3,Brianna Aguinaga,San Antonio Southside,47.63,88.45,52.16,90.72,231.33,Single-ply,SBD,F
Girls,47.85,4,Mariza Contreras,San Antonio Kennedy,47.85,74.84,34.02,83.91,192.78,Single-ply,SBD,F
Girls,47.85,5,Alexandra Avalos,San Antonio Southside,47.63,65.77,29.48,61.23,156.49,Single-ply,SBD,F
Girls,51.94,1,Danielle Bacon,Port Lavaca Calhoun,49.9,151.95,74.84,154.22,381.02,Single-ply,SBD,F
Girls,51.94,2,Liszette Rosado-Ortiz,San Antonio Brooks Academy,50.8,136.08,83.91,120.2,340.19,Single-ply,SBD,F
Girls,51.94,3,Sylvia Gil,San Antonio Kennedy,51.53,124.74,61.23,124.74,310.71,Single-ply,SBD,F
Girls,51.94,4,Jackie Flores,San Antonio Southside,51.71,77.11,45.36,95.25,217.72,Single-ply,SBD,F
Girls,51.94,5,Adrianna Carlos,Center Point,49.44,79.38,38.56,83.91,201.85,Single-ply,SBD,F
Girls,51.94,6,Lisa Fernandez,Center Point,51.26,72.57,31.75,83.91,188.24,Single-ply,SBD,F
Girls,51.94,7,Nimue Amaya,Pearsall,50.35,65.77,38.56,68.04,172.37,Single-ply,SBD,F
Girls,56.02,1,Skyleigh Sears,Port Lavaca Calhoun,53.98,131.54,65.77,142.88,340.19,Single-ply,SBD,F
Girls,56.02,2,Marissa Olvera,Center Point,53.8,99.79,52.16,108.86,260.82,Single-ply,SBD,F
Girls,56.02,3,Josephine Silva,Port Lavaca Calhoun,55.79,92.99,54.43,113.4,260.82,Single-ply,SBD,F
Girls,56.02,4,Jessandra Gamble,San Antonio Memorial,55.34,106.59,43.09,108.86,258.55,Single-ply,SBD,F
Girls,56.02,5,Bryanna Brett,San Antonio East Central,53.3,86.18,56.7,108.86,251.74,Single-ply,SBD,F
Girls,56.02,6,Whitdney Williams,Center Point,52.62,90.72,49.9,102.06,242.67,Single-ply,SBD,F
Girls,56.02,7,Javmin Estrada,San Antonio Brooks Academy,55.34,79.38,40.82,117.93,238.14,Single-ply,SBD,F
Girls,56.02,8,Jahnvi Bhakta,San Antonio Brooks Academy,54.16,79.38,49.9,102.06,231.33,Single-ply,SBD,F
Girls,56.02,9,Abby Rodriguez,San Antonio Southside,55.79,90.72,38.56,90.72,219.99,Single-ply,SBD,F
Girls,56.02,10,Brela Thompson,Marion,55.79,81.65,40.82,90.72,213.19,Single-ply,SBD,F
Girls,56.02,11,Cielo Rodriguez,Pearsall,53.98,70.31,29.48,79.38,179.17,Single-ply,SBD,F
Girls,56.02,12,Breanna Valdez,Marion,53.07,56.7,29.48,61.23,147.42,Single-ply,SBD,F
Girls,56.02,13,Makenzie Gregg,Marion,55.79,54.43,,,54.43,Single-ply,S,F
Girls,56.02,DQ,Demi Douglas,San Antonio Memorial,54.88,,,,,Single-ply,SBD,F
Girls,60.1,1,Genesis Villarreal,Port Lavaca Calhoun,57.61,124.74,65.77,136.08,326.59,Single-ply,SBD,F
Girls,60.1,2,Cristina Lazos,San Antonio East Central,59.42,90.72,52.16,106.59,249.48,Single-ply,SBD,F
Girls,60.1,3,Caitlyn Krueger,Marion,57.88,72.57,43.09,97.52,213.19,Single-ply,SBD,F
Girls,60.1,4,Mackenzie Daily,Center Point,58.74,81.65,38.56,88.45,208.65,Single-ply,SBD,F
Girls,60.1,5,Ashley Laubach,Marion,59.87,68.04,34.02,,102.06,Single-ply,SB,F
Girls,60.1,6,Alexandra Petrie,Marion,59.87,54.43,27.22,,81.65,Single-ply,SB,F
Girls,67.36,1,Nallely Gutierrez,San Antonio Brooks Academy,63.96,151.95,97.52,151.95,401.43,Single-ply,SBD,F
Girls,67.36,2,Erica Garcia,Port Lavaca Calhoun,67.13,140.61,65.77,145.15,351.53,Single-ply,SBD,F
Girls,67.36,3,Lauren Lara,San Antonio Brooks Academy,64.41,104.33,61.23,124.74,290.3,Single-ply,SBD,F
Girls,67.36,4,Yassmin Munoz,Center Point,63.05,102.06,54.43,104.33,260.82,Single-ply,SBD,F
Girls,67.36,5,Elidia Gonzales,Center Point,62.82,83.91,54.43,111.13,249.48,Single-ply,SBD,F
Girls,67.36,6,Alyssa Esteves,San Antonio East Central,66.9,90.72,38.56,113.4,242.67,Single-ply,SBD,F
Girls,67.36,7,Melanie Delgado,San Antonio Brooks Academy,61.23,79.38,38.56,106.59,224.53,Single-ply,SBD,F
Girls,67.36,8,Alizandra Berrelez,Pearsall,64.41,81.65,38.56,72.57,192.78,Single-ply,SBD,F
Girls,67.36,9,Elizabeth Brit,Marion,61.23,68.04,36.29,79.38,183.7,Single-ply,SBD,F
Girls,75.07,1,Hannah Spencer,Port Lavaca Calhoun,71.21,147.42,72.57,136.08,356.07,Single-ply,SBD,F
Girls,75.07,2,Ariella Zuniga,San Antonio East Central,73.94,136.08,65.77,136.08,337.93,Single-ply,SBD,F
Girls,75.07,3,Adrianna Landry,San Antonio Brooks Academy,68.49,97.52,61.23,106.59,265.35,Single-ply,SBD,F
Girls,75.07,4,Katlyn Beard,Center Point,68.04,79.38,43.09,83.91,206.38,Single-ply,SBD,F
Girls,75.07,5,Alyssa Gutierrez,Marion,69.85,81.65,38.56,83.91,204.12,Single-ply,SBD,F
Girls,75.07,6,Victoria Garcia,Pearsall,73.03,72.57,38.56,86.18,197.31,Single-ply,SBD,F
Girls,75.07,7,Alondra Morales,San Antonio Memorial,74.84,102.06,40.82,,142.88,Single-ply,SB,F
Girls,75.07,8,Lisa Vigil,San Antonio Memorial,74.39,74.84,,,74.84,Single-ply,S,F
Girls,75.07,DQ,Kassandra Luna,San Antonio Memorial,73.94,,,,,Single-ply,SBD,F
Girls,75.07,DQ,Leah Alaniz,San Antonio East Central,70.31,,,,,Single-ply,SBD,F
Girls,82.33,1,Piper Bush,Center Point,78.93,147.42,81.65,142.88,371.95,Single-ply,SBD,F
Girls,82.33,2,Loren Chavez,San Antonio Brooks Academy,75.75,129.27,83.91,122.47,335.66,Single-ply,SBD,F
Girls,82.33,3,Mackenzie Tozer,Center Point,79.83,102.06,56.7,113.4,272.16,Single-ply,SBD,F
Girls,82.33,4,Sally Telles,Pearsall,78.02,104.33,45.36,104.33,254.01,Single-ply,SBD,F
Girls,82.33,5,Rosa Lara,San Antonio Southside,82.1,90.72,40.82,95.25,226.8,Single-ply,SBD,F
Girls,90.04,1,Yazmine Garcia,Pearsall,84.82,138.35,58.97,136.08,333.39,Single-ply,SBD,F
Girls,90.04,2,Alyssa Alva,Pearsall,83.46,133.81,56.7,136.08,326.59,Single-ply,SBD,F
Girls,90.04,3,Haylynn Garza,Marion,82.83,124.74,54.43,133.81,312.98,Single-ply,SBD,F
Girls,90.04,4,DeAnna Wood,San Antonio Brooks Academy,89.81,102.06,77.11,106.59,285.76,Single-ply,SBD,F
Girls,90.04,5,Emily Casillas,Center Point,89.81,90.72,52.16,108.86,251.74,Single-ply,SBD,F
Girls,90.04,6,Jenna Brady,San Antonio Memorial,88.9,81.65,36.29,104.33,222.26,Single-ply,SBD,F
Girls,90.04,7,Madisen Bauwens,Marion,83.91,68.04,43.09,86.18,197.31,Single-ply,SBD,F
Girls,90.04,DQ,Aurora Medrano,San Antonio Memorial,83.01,,,,,Single-ply,SBD,F
Girls,100.02,1,Halie Guajardo,Port Lavaca Calhoun,93.89,138.35,58.97,140.61,337.93,Single-ply,SBD,F
Girls,100.02,2,Fatima Herrera,San Antonio Southside,93.35,111.13,74.84,129.27,315.25,Single-ply,SBD,F
Girls,100.02,3,Brianna Trevino,San Antonio East Central,99.79,117.93,54.43,108.86,281.23,Single-ply,SBD,F
Girls,117.71,1,Samantha Heimer,San Antonio Brooks Academy,101.83,181.44,111.13,151.95,444.52,Single-ply,SBD,F
Girls,117.71,2,Aria Metcalf,San Antonio East Central,117.71,124.74,65.77,136.08,326.59,Single-ply,SBD,F
Girls,117.71+,1,Sophia Arredondo,San Antonio Brooks Academy,124.74,77.11,52.16,113.4,242.67,Single-ply,SBD,F
