Name,BirthYear,WeightClassKg,BodyweightKg,Country,Best3SquatKg,Best3BenchKg,Best3DeadliftKg,TotalKg,Sex,Division,Event,Equipment,Place
Phil Stringer,,52,51.3,UK,205,125,175,505,M,Open,SBD,Single-ply,1
Kari Ylijoki,,52,51.8,Finland,205,122.5,150,477.5,M,Open,SBD,Single-ply,2
Narendra Bhairo,,56,55.8,UK,225,120,200,545,M,Open,SBD,Single-ply,1
Alwi Eriksson,,56,55.9,Sweden,180,127.5,207.5,515,M,Open,SBD,Single-ply,2
Kari Ojalehto,,56,55.6,Finland,192.5,115,205,512.5,M,Open,SBD,Single-ply,3
Lars Flyborg,1951,56,55.8,Sweden,185,112.5,200,497.5,M,Open,SBD,Single-ply,4
Gerard Tromp,1959,56,55.9,Netherlands,190,107.5,185,482.5,M,Open,SBD,Single-ply,5
Göran Henrysson,,60,59.9,Sweden,232.5,130,220,582.5,M,Open,SBD,Single-ply,1
David Mannering,,60,59.8,UK,210,130,232.5,572.5,M,Open,SBD,Single-ply,2
Eddie van Wemmel,,60,58.9,Belgium,210,95,230,535,M,Open,SBD,Single-ply,3
Arne Rygh,,60,59.8,Norway,190,115,200,505,M,Open,SBD,Single-ply,4
Lucien DeFaria,1942,60,59.4,France,,,,,M,Open,SBD,Single-ply,DQ
Eddy Pengelly,1949,67.5,67.2,UK,265,150,272.5,687.5,M,Open,SBD,Single-ply,1
Veijo Karvinen,,67.5,66.8,Finland,235,160,260,655,M,Open,SBD,Single-ply,2
Luigi Pedrazzi,,67.5,67.4,Switzerland,240,125,275,640,M,Open,SBD,Single-ply,3
Bjørn Andreas Holmsen,1943,67.5,67,Norway,217.5,112.5,252.5,582.5,M,Open,SBD,Single-ply,4
Ddidier Gosselin,,67.5,66.9,France,222.5,132.5,225,580,M,Open,SBD,Single-ply,5
Wilfried Dörner,1952,67.5,67.4,Germany,210,132.5,230,572.5,M,Open,SBD,Single-ply,6
Kári Elíson,,67.5,67.2,Iceland,222.5,,,,M,Open,SBD,Single-ply,DQ
Steve Alexander,,75,74.8,UK,277.5,180,302.5,760,M,Open,SBD,Single-ply,1
Jarmo Virtanen,1963,75,74.3,Finland,280,160,280,720,M,Open,SBD,Single-ply,2
M. Martina,,75,74.6,Netherlands,270,162.5,280,712.5,M,Open,SBD,Single-ply,3
Claudio Ardini,,75,74,Italy,240,175,290,705,M,Open,SBD,Single-ply,4
Knuth Johansen,,75,74.9,Norway,280,160,255,695,M,Open,SBD,Single-ply,5
Eddie Wan,,75,74.7,Belgium,255,137.5,250,642.5,M,Open,SBD,Single-ply,6
Guerino Smeriglio,,75,74.7,Switzerland,252.5,122.5,257.5,632.5,M,Open,SBD,Single-ply,7
Michel Hillier,,75,74.5,France,245,140,240,625,M,Open,SBD,Single-ply,8
Tormond Andersen,,75,74.4,Norway,,,,,M,Open,SBD,Single-ply,DQ
Lars Backlund,,82.5,82.4,Sweden,285,207.5,300,792.5,M,Open,SBD,Single-ply,1
Mike Duffy,,82.5,82.1,UK,292.5,205,292.5,790,M,Open,SBD,Single-ply,2
Janus Schneider,,82.5,82.2,Netherlands,260,185,250,695,M,Open,SBD,Single-ply,3
Christian Buchs,,82.5,82.4,France,265,180,250,695,M,Open,SBD,Single-ply,4
Romeo Specchia,,82.5,82.2,Switzerland,250,172.5,260,682.5,M,Open,SBD,Single-ply,5
Albert Mombert,1947,82.5,82.1,Belgium,235,155,255,645,M,Open,SBD,Single-ply,6
Henry Baron,,82.5,81.8,France,240,150,252.5,642.5,M,Open,SBD,Single-ply,7
Floreano Domenici,,82.5,82.5,Italy,,,,,M,Open,SBD,Single-ply,DQ
Kenneth Mattsson,1954,90,89.6,Sweden,330,225,335,890,M,Open,SBD,Single-ply,1
Dave Caldwell,,90,89.5,UK,325,200,295,820,M,Open,SBD,Single-ply,2
Bill West,,90,88.7,UK,315,180,320,815,M,Open,SBD,Single-ply,3
Tapio Hepokangas,,90,89.8,Finland,290,175,340,805,M,Open,SBD,Single-ply,4
L Palmros,,90,89.9,Finland,290,180,335,805,M,Open,SBD,Single-ply,5
Johnny Persson,1955,90,90,Sweden,290,215,300,805,M,Open,SBD,Single-ply,6
Hugo de Grauwe,1954,90,88.9,Belgium,300,177.5,300,777.5,M,Open,SBD,Single-ply,7
Kjell Johansen,,90,88.9,Norway,270,170,280,720,M,Open,SBD,Single-ply,8
Vasco Bernasconi,,90,88.5,Switzerland,265,155,280,700,M,Open,SBD,Single-ply,9
Tony Stevens,,100,99.7,UK,350,215,340,905,M,Open,SBD,Single-ply,1
Eric Johanssen,,100,98.7,Norway,320,215,347.5,882.5,M,Open,SBD,Single-ply,2
Rauno Rinne,1952,100,99.7,Finland,320,227.5,332.5,880,M,Open,SBD,Single-ply,3
Miecis Szafranski,,100,98.7,Germany,325,177.5,285,787.5,M,Open,SBD,Single-ply,4
Andre Pollet,,100,99.3,France,275,195,275,745,M,Open,SBD,Single-ply,5
Rick Priester,,100,99.4,Netherlands,290,167.5,280,737.5,M,Open,SBD,Single-ply,6
Anders T. Solheim,1950,100,98.3,Norway,280,135,270,685,M,Open,SBD,Single-ply,7
Sami Kivi,,110,108.7,Finland,345,222.5,355,922.5,M,Open,SBD,Single-ply,1
Conny Nilsson,1955,110,108.7,Sweden,360,200,325,885,M,Open,SBD,Single-ply,2
Hannu Saarelainen,1944,110,109.3,Finland,327.5,225,320,872.5,M,Open,SBD,Single-ply,3
Roger Eriksen,,110,109.2,Norway,330,185,312.5,827.5,M,Open,SBD,Single-ply,4
Raider Steen,,110,109.9,Norway,315,215,295,825,M,Open,SBD,Single-ply,5
Luciano Amadei,,110,109.3,Germany,315,200,295,810,M,Open,SBD,Single-ply,6
Michael Brügger,1962,110,108.7,Germany,280,210,300,790,M,Open,SBD,Single-ply,7
Reinhard Mayerhofer,,110,109.4,Austria,300,160,300,760,M,Open,SBD,Single-ply,8
G Admiraal,,110,110,Netherlands,270,180,300,750,M,Open,SBD,Single-ply,9
Jón Páll Sigmarsson,,125,123.4,Finland,357.5,227.5,340,925,M,Open,SBD,Single-ply,1
Ab Wolders,,125,123.2,Netherlands,350,210,340,900,M,Open,SBD,Single-ply,2
Leif Nordmark,,125,124,Sweden,355,225,310,890,M,Open,SBD,Single-ply,3
Piet Vrasdonk,,125,124.3,Netherlands,325,202.5,352.5,880,M,Open,SBD,Single-ply,4
Ari Nevenpää,,125,122.4,Finland,285,235,345,865,M,Open,SBD,Single-ply,5
Fritz Seese,,125,124.6,Germany,330,190,305,825,M,Open,SBD,Single-ply,6
Hans-Otto Wöhrle,,125,124.7,Germany,305,205,290,800,M,Open,SBD,Single-ply,7
Henry Berg,,125,123.8,Norway,275,200,280,755,M,Open,SBD,Single-ply,8
Jan Kværnstuen,,125,124.4,Norway,265,180,265,710,M,Open,SBD,Single-ply,9
Andy Kerr,1947,125+,136.8,UK,357.5,247.5,377.5,982.5,M,Open,SBD,Single-ply,1
Kees DeVreugd,,125+,142.2,Netherlands,355,215,340,910,M,Open,SBD,Single-ply,2
Rudolf Küster,1955,125+,128.7,Germany,317.5,185,350,852.5,M,Open,SBD,Single-ply,3
Jean-Pier Brulois,1957,125+,134.3,France,330,197.5,302.5,830,M,Open,SBD,Single-ply,4
J Kantola,,125+,131.2,Finland,,,,,M,Open,SBD,Single-ply,DQ
