Division,Name,WeightClassKg,Sex,BirthYear,BodyweightKg,Country,Squat1Kg,Squat2Kg,Squat3Kg,Squat4Kg,Best3SquatKg,Bench1Kg,Bench2Kg,Bench3Kg,Bench4Kg,Best3BenchKg,Deadlift1Kg,Deadlift2Kg,Deadlift3Kg,Deadlift4Kg,Best3DeadliftKg,TotalKg,Event,Equipment,Place
Sub-Juniors,Sandra Paglierice,44,F,1987,44,Argentina,80,85,90,,90,35,40,-42.5,,40,75,82.5,-92.5,,82.5,212.5,SBD,Single-ply,1
Sub-Juniors,Rocio Gomez,44,F,1988,36.9,Argentina,45,-52.5,52.5,,52.5,30,35,-37.5,,35,60,65,-70,,65,152.5,SBD,Single-ply,2
Masters 1,Gabriela Montenegro,44,F,1964,41.9,Peru,30,40,-42.5,,40,-25,-25,-25,,,,,,,,,SBD,Single-ply,DQ
Sub-Juniors,Caroline Fagundes,48,F,1989,47.6,Brazil,70,85,-100,,85,50,60,-62.5,,60,80,95,102.5,,102.5,247.5,SBD,Single-ply,1
Sub-Juniors,Andreina Galarza,48,F,1990,47.6,Ecuador,-90,90,-95,,90,-37.5,37.5,-40,,37.5,80,85,90,,90,217.5,SBD,Single-ply,1
Juniors,Carmen Bueno,48,F,1985,48,Ecuador,135,-145,145,-150.5,145,70,-78,-78,,70,135,145,150,,150,365,SBD,Single-ply,1
Juniors,María Cruz,48,F,1986,46.1,Brazil,95,-105,105,,105,42.5,47.5,-50,,47.5,115,125,130,,130,282.5,SBD,Single-ply,1
Juniors,Karina Estremadoyro,48,F,1986,47.9,Peru,50,-65,-70,,50,-35,35,-45,,35,60,80,-90,,80,165,SBD,Single-ply,2
Sub-Juniors,Marìa Alcìvar,52,F,1989,51.3,Ecuador,-90,90,-95,,90,42.5,-45,-45,,42.5,90,100,107.5,,107.5,240,SBD,Single-ply,1
Juniors,Amada Constante,52,F,1983,49.8,Ecuador,125,135,-142.5,,135,40,-50,-50,,40,115,-120,120,,120,295,SBD,Single-ply,1
Juniors,Patricia Barbosa,52,F,1984,49.5,Brazil,95,-105,-105,,95,40,-45,-45,,40,100,105,115,,115,250,SBD,Single-ply,1
Open,Alejandra Argañaraz,52,F,1973,52,Argentina,-107.5,-112.5,112.5,,112.5,-55,-55,55,,55,100,107.5,112.5,,112.5,280,SBD,Single-ply,1
Open,Maria Esther Quispe,52,F,1970,51.9,Peru,-90,90,-102.5,,90,-30,30,-37.5,,30,90,100,110,,110,230,SBD,Single-ply,2
Sub-Juniors,Betsù Rodrìguez,52,F,1990,52,Ecuador,85,90,-95,,90,55,60,65,,65,100,110,-117.5,,110,265,SBD,Single-ply,1
Masters 1,Jacqueline Pianezzi,52,F,1961,51,Peru,75,90,-100,,90,30,-35,-35,,30,85,95,-112.5,,95,215,SBD,Single-ply,2
Sub-Juniors,Elizabeth Buenaño,56,F,,55.8,Ecuador,65,-70,70,,70,32.5,37.5,-42.5,,37.5,90,-100,-102.5,,90,197.5,SBD,Single-ply,1
Juniors,Sabrina Ponce de Leon,56,F,1984,54.3,Argentina,105,112.5,117.5,,117.5,50,55,57.5,,57.5,100,110,120,,120,295,SBD,Single-ply,1
Juniors,Cristina Chamorro,56,F,1984,55.5,Ecuador,95,-100,102.5,,102.5,52.5,57.5,-60,,57.5,97.5,102.5,-105,,102.5,262.5,SBD,Single-ply,2
Open,Rosa Castro,56,F,1980,54.9,Ecuador,160,-167.5,-170,,160,-80,80,-90,,80,150,160,,,160,400,SBD,Single-ply,1
Open,Brenda Maldonado,56,F,1979,55.2,Argentina,120,132.5,142.5,,142.5,62.5,-70,-70,,62.5,125,132.5,140,,140,345,SBD,Single-ply,2
Open,Rosana Chrestia,56,F,1971,53.8,Argentina,120,130,135,,135,65,-70,-72.5,,65,130,137.5,145,,145,345,SBD,Single-ply,1
Masters 2,Carmen Arocha,56,F,1952,55.1,Argentina,70,85,100,,100,45,50,55,,55,100,115,125,,125,280,SBD,Single-ply,1
Juniors,Andrea Garaycoa,60,F,1986,59.3,Ecuador,100,115,-125,,115,47.5,-55,-55,,47.5,100,-110,110,,110,272.5,SBD,Single-ply,1
Open,Mirian Gonzalez,60,F,1967,58.7,Colombia,160,-170,170,,170,75,-80,82.5,,82.5,170,-180,180,,180,432.5,SBD,Single-ply,1
Open,Elizabeth Azurmendi,60,F,1975,58.8,Argentina,142.5,155,160,,160,65,72.5,77.5,,77.5,152.5,162.5,170,,170,407.5,SBD,Single-ply,2
Open,Katiuska Gomez,60,F,1979,58,Ecuador,140,145,-150,,145,80,87.5,-90,,87.5,152.5,157.5,-167.5,,157.5,390,SBD,Single-ply,3
Masters 1,Andrea Molina,60,F,,60,Argentina,102.5,112.5,-122.5,,112.5,70,75,77.5,,77.5,135,145,-150,,145,335,SBD,Single-ply,1
Masters 1,Scarlett Moreira,60,F,1963,58,Ecuador,-120,-120,120,,120,45,50,-52.5,,50,120,127.5,130,,130,300,SBD,Single-ply,2
Masters 2,Elvira Montenegro,60,F,1947,59.6,Argentina,85,95,-100,,95,42.5,47.5,-50,,47.5,100,110.5,112.5,,112.5,255,SBD,Single-ply,1
Sub-Juniors,Flavia Cornec,67.5,F,1988,60.1,Argentina,90,-105,105,,105,70,80,-85,,80,95,-112.5,112.5,,112.5,297.5,SBD,Single-ply,1
Juniors,Anabel Cornec,67.5,F,1986,65.9,Argentina,90,-115,115,,115,45,50,-55,,50,115,127.5,135,,135,300,SBD,Single-ply,1
Open,Judimeire A. de Lago,67.5,F,1967,61.9,Brazil,90,-105,107.5,,107.5,45,50,-60,,50,115,127.5,-132.5,,127.5,285,SBD,Single-ply,1
Masters 1,Irene Frangi,67.5,F,1964,65.9,Argentina,200,-210,,,200,100,107.5,113,,113,180,190,-200,,190,502.5,SBD,Single-ply,1
Masters 1,Rosana Carvalho,67.5,F,1965,65.9,Brazil,100,110,-120,,110,50,55,60,,60,100,110,-120,,110,280,SBD,Single-ply,1
Juniors,Silvia Haro,75,F,1983,69.1,Ecuador,85,90,-95,,90,40,45,-50,,45,105,115,122.5,,122.5,257.5,SBD,Single-ply,1
Sub-Juniors,Miguel Tomala,52,M,,51,Ecuador,130,140,-147.5,,140,80,90,97.5,,97.5,150,160,-165,,160,397.5,SBD,Single-ply,1
Sub-Juniors,Walter Gómez,52,M,,50.8,Ecuador,-125,-125,125,,125,75,82.5,-85,,82.5,-150,150,160,-165,160,367.5,SBD,Single-ply,1
Sub-Juniors,Gabriel Curuchet,52,M,,52,Argentina,80,90,-100,,90,45,50,52.5,,52.5,100,110,-120,,110,252.5,SBD,Single-ply,2
Sub-Juniors,Daniel Quimi,56,M,,54.4,Ecuador,150,160,-165,,160,100,-105,105,,105,160,-165,-165,,160,425,SBD,Single-ply,1
Sub-Juniors,Martin Romero,56,M,1987,54,Argentina,90,97.5,-105,,97.5,80,92.5,-100,,92.5,130,142.5,150,,150,340,SBD,Single-ply,1
Juniors,Fernando Soria,56,M,,55.9,Ecuador,135,-140,142.5,,142.5,85,-90,,,85,180,185,-190,,185,412.5,SBD,Single-ply,1
Juniors,Ramon Serrano,56,M,1985,55.4,Brazil,95,105,-122.5,,105,60,67.5,-75,,67.5,135,-150,150,,150,322.5,SBD,Single-ply,2
Masters 1,Gregorio Villao,56,M,,55.1,Ecuador,145,147.5,152.5,,152.5,105,110,-112.5,,110,150,165,175,,175,437.5,SBD,Single-ply,1
Open,Fabio Benelli,56,M,,55.7,Brazil,-140,140,-150,,140,80,90,-95,,90,140,150,-152.5,,150,380,SBD,Single-ply,1
Sub-Juniors,Paul Diron,60,M,,59.4,Uruguay,150,165,-180,,165,100,110,-115.5,,110,150,170,-190,,170,445,SBD,Single-ply,1
Sub-Juniors,Dario Flores,60,M,,58.2,Argentina,110,120,127.5,,127.5,65,70,75,,75,145,155,-165,,155,357.5,SBD,Single-ply,2
Sub-Juniors,Abel Yery,60,M,1988,56.3,Argentina,90,100,115,,115,60,70,-75,,70,120,-140,-140,,120,305,SBD,Single-ply,3
Juniors,Christian Quiroga,60,M,,59.1,Argentina,160,170,185,,185,120,-125,125,,125,160,170,-180,,170,480,SBD,Single-ply,1
Juniors,Julio Livia Quiñones,60,M,1984,60,Peru,150,-160,-160,,150,90,105,,,105,150,-170,,,150,405,SBD,Single-ply,2
Juniors,Edilanio Souza,60,M,1983,59.4,Brazil,130,-140,-140,,130,70,75,80,,80,140,150,-155,,150,360,SBD,Single-ply,3
Open,Leandro Maccari,60,M,1979,59.1,Brazil,195,205,215,,215,120,-125,125,,125,195,205,-220,,205,545,SBD,Single-ply,1
Masters 1,Gustavo Somma,60,M,1963,58.5,Argentina,110,122.5,-140,,122.5,65,70,,,70,160,175,190,,190,382.5,SBD,Single-ply,1
Masters 2,Carlos Rodriguez,60,M,1954,58.4,Argentina,65,70,77.5,,77.5,65,72.5,-82.5,,72.5,125,-135,-135,,125,275,SBD,Single-ply,1
Sub-Juniors,Omar Oros,67.5,M,1987,64.4,Argentina,165,-175,-185,,165,120,125,-133,,125,165,180,190,195,190,480,SBD,Single-ply,1
Sub-Juniors,Hugo Salhuana M,67.5,M,1990,66.3,Peru,200,220,-222.5,,220,-120,-120,-120,,,-200,,200,,200,,SBD,Single-ply,DQ
Juniors,Carlos Cevallos,67.5,M,1983,66.5,Ecuador,250,260.5,-265,,260.5,147.5,-155,-155,,147.5,210,222.5,-225,,222.5,630.5,SBD,Single-ply,1
Juniors,Diego Luchtenberg,67.5,M,1982,66.8,Brazil,-155,155,-165,,155,115,125,-130,,125,195,210,222.5,,222.5,502.5,SBD,Single-ply,1
Juniors,M.Enrique Guevara,67.5,M,1985,64.5,Peru,-155,155,157.5,,157.5,90,105,-110,,105,145,160,175,,175,437.5,SBD,Single-ply,2
Open,Eric Oishi,67.5,M,1979,66.7,Brazil,235,252.5,-257.5,,252.5,155,165,170,,170,240,255,-268,,255,677.5,SBD,Single-ply,1
Open,Juan C Castro,67.5,M,1970,65.5,Colombia,-225,230,-240,,230,160,-167.5,,,160,200,215,225,,225,615,SBD,Single-ply,2
Open,Ricardo Pascual,67.5,M,1973,63.9,Argentina,155,-160,165,,165,145,-150,-150,,145,200,212.5,215,,215,525,SBD,Single-ply,3
Open,Jacob Carrasco G,67.5,M,1967,67.1,Peru,-140,-240,-240,,,140,150,160,,160,240,-250,-250,,240,,SBD,Single-ply,DQ
Open,Marcelo Delgado,67.5,M,1981,65.9,Ecuador,-230,-230,-230,,,130,160,-190,,160,210,,,,210,,SBD,Single-ply,DQ
Masters 1,José Inguanti,67.5,M,1963,67.5,Argentina,200,215,-225,,215,170,175,-180,,175,202.5,-217.5,,,202.5,592.5,SBD,Single-ply,1
Masters 1,Carlos Palombo,67.5,M,1956,65.9,Uruguay,150,-160,170,,170,100,105,,,105,180,195,-205,,195,470,SBD,Single-ply,2
Masters 2,Jorge Zapata,67.5,M,1948,67.3,Argentina,-140,140,155,,155,65,75,80,,80,175,185,190,,190,425,SBD,Single-ply,1
Masters 2,Raul Lancelote,67.5,M,1954,63.7,Argentina,80,90,105,,105,65,72.5,-82.5,,72.5,130,142.5,157.5,,157.5,335,SBD,Single-ply,2
Sub-Juniors,Cesar Peñafiel,75,M,1987,73.9,Ecuador,-185,185,-200,,185,115,-122.5,122.5,,122.5,-205,-205,-205,,,,SBD,Single-ply,DQ
Juniors,José Castillo,75,M,1986,74.3,Ecuador,230,-245,-245,,230,-147.5,147.5,-152.5,,147.5,225,235,245,,245,622.5,SBD,Single-ply,1
Juniors,Marcelo Da Silva,75,M,1984,73.7,Brazil,-200,-200,200,,200,150,165,-175,,165,200,217.5,-225,,217.5,582.5,SBD,Single-ply,1
Juniors,Javier Fanego,75,M,1985,73.7,Argentina,160,170,175,,175,115,120,,,120,180,187.5,192.5,,192.5,487.5,SBD,Single-ply,2
Juniors,Enrique Villanueva,75,M,1983,71.9,Argentina,-240,-240,-257.5,,,160,,,,160,,,,,,,SBD,Single-ply,DQ
Open,Jorge Telechea,75,M,1965,74.8,Argentina,260,275,-285,,275,-190,190,-200.5,,190,210,225,-235,,225,690,SBD,Single-ply,1
Open,Juan Soto,75,M,1981,68.4,Uruguay,155,165,-180,,165,135,140,-145,,140,190,210,220,,220,525,SBD,Single-ply,2
Open,Ivan Olivera,75,M,1978,68.8,Uruguay,160,170,-210,,170,65,-77.5,-80,,65,150,175,-195,,175,410,SBD,Single-ply,3
Open,Miguel Choy M,75,M,1980,73.9,Peru,-190,190,-205,,190,-130,-130,-130,,,,,,,,,SBD,Single-ply,DQ
Masters 1,Hugo Agostino,75,M,1964,75,Argentina,210,220,-227.5,,220,127.5,135,140,,140,230,240,250,,250,610,SBD,Single-ply,1
Masters 1,Jorge Calatayud C,75,M,1956,70,Peru,110,130,140,,140,65,-80,80,,80,130,150,175,,175,395,SBD,Single-ply,2
Masters 2,Juan Pereyra,75,M,,74,Argentina,180,200,-210,,200,115,125,130,,130,180,190,-200,,190,520,SBD,Single-ply,1
Masters 3,Jose Mata,75,M,1941,73.5,Argentina,-145,145,152.5,,152.5,105,115,-122.5,,115,160,180,190,,190,457.5,SBD,Single-ply,1
Masters 3,Mario Rodriguez #1,75,M,1937,74.4,Argentina,105,-120,125,,125,110,125,135,,135,120,150,170,,170,430,SBD,Single-ply,2
Juniors,Facuando Romero,82.5,M,1985,79.8,Argentina,235,242.5,-247.5,,242.5,137.5,145,-147.5,,145,222.5,232.5,240,,240,627.5,SBD,Single-ply,1
Juniors,Mario Navarro,82.5,M,1985,76.5,Uruguay,100,120,130,,130,100,-120,-130,,100,150,210,220,,220,450,SBD,Single-ply,2
Open,Luciano Duarte,82.5,M,1975,80.9,Brazil,295,302.5,-310,,302.5,-185,185,-195,,185,262.5,270,277.5,,277.5,765,SBD,Single-ply,1
Open,Marcos Sanchéz,82.5,M,1972,81.4,Ecuador,280,-300,300,,300,180,190,-195,,190,260,267.5,275,,275,765,SBD,Single-ply,2
Open,Mauricio Marroquin,82.5,M,1975,81.2,Argentina,245,255,260,,260,185,-195,-195,,185,240,255,260,,260,705,SBD,Single-ply,3
Open,Javier Riveros,82.5,M,1974,81.4,Argentina,245,257.5,-270,,257.5,142.5,150,-152.5,,150,235,245,-250,,245,652.5,SBD,Single-ply,4
Open,Luis Benvenuto,82.5,M,1980,80.6,Peru,220,230,-240,,230,150,160,-170,,160,230,245,-255,,245,635,SBD,Single-ply,5
Masters 1,César Chavez C,82.5,M,1964,80.5,Peru,210,-230,230,,230,-140,140,150,,150,230,250,260,,260,640,SBD,Single-ply,1
Masters 1,Aparecido da Silva,82.5,M,1959,81.1,Brazil,200,215,230,,230,157.5,-162.5,-165,,157.5,205,222.5,225,,225,612.5,SBD,Single-ply,2
Masters 1,Victor Martinez,82.5,M,1963,75.2,Colombia,215,225,230,,230,165,-175.5,175.5,-180,175.5,185,200,205,,205,610.5,SBD,Single-ply,3
Masters 2,Oscar Hernandez,82.5,M,1946,75.3,Argentina,170,180,190,,190,85,90,-95,,90,200,220,230,,230,510,SBD,Single-ply,1
Masters 2,Samuel Barbosa,82.5,M,1955,81.2,Brazil,117.5,122.5,127.5,,127.5,90,105,112.5,,112.5,145,-180,-180,,145,385,SBD,Single-ply,2
Masters 3,Horacio Zoilo,82.5,M,1941,81.3,Argentina,130,140,150,,150,125,132.5,137.5,,137.5,170,182.5,192.5,200,192.5,480,SBD,Single-ply,1
Masters 3,César Berrocal C,82.5,M,1937,75.1,Peru,110,120,125,,125,-95,95,102.5,,102.5,120,140,,,140,367.5,SBD,Single-ply,2
Sub-Juniors,Marcelo Aquino,90,M,1988,85.9,Argentina,180,200,208,210,208,120,132.5,137.5,,137.5,200.5,215,230,237.5,230,575,SBD,Single-ply,1
Sub-Juniors,Gustavo Leandro Leiva,90,M,1987,89.4,Argentina,-185,-185,185,,185,100,-107.5,,,100,165,,,,165,450,SBD,Single-ply,2
Juniors,Fernando Villalba,90,M,1982,86.9,Argentina,-270,270,282.5,-300,282.5,-155,-155,155,,155,265,-280,-290,,265,702.5,SBD,Single-ply,1
Open,Juan C. Touma,90,M,1976,88.9,Ecuador,-280,280,290,,290,-185,190,200,,200,270,280,290,,290,780,SBD,Single-ply,1
Open,Agustin Reibel,90,M,1976,88.9,Argentina,250,-270,270,,270,190,205.5,210,,210,270,-285,-302.5,,270,750,SBD,Single-ply,2
Open,Marcos Martinez,90,M,1975,87,Argentina,250,-265,-265,,250,155,165,170,,170,245,250,-260,,250,670,SBD,Single-ply,3
Open,Guillermo Lorenzo,90,M,1977,88.5,Uruguay,-170,170,190,,190,100,-115,-120,,100,240,-255,-255,,240,530,SBD,Single-ply,4
Open,Cesar Laguna E,90,M,1967,82.9,Peru,170,190,-195,,190,130,-135,-135,,130,180,200,-205,,200,520,SBD,Single-ply,5
Masters 1,Leonardo Cuartas,90,M,1965,84.2,Uruguay,220,-230,235,,235,-135,135,140,,140,225,235,240,,240,615,SBD,Single-ply,1
Masters 1,Eduardo Peloso,90,M,1956,89,Argentina,-220,220,232.5,,232.5,-135,135,150,,150,212.5,-220,-240,,212.5,595,SBD,Single-ply,2
Masters 2,Júlio Chavez,90,M,1952,89,Argentina,190,200,-215,,200,80,90,97.5,,97.5,235,250,-260,,250,547.5,SBD,Single-ply,1
Masters 3,Olício dos Santos Filho,90,M,1944,89.5,Brazil,200,220,232.5,,232.5,145,155,160,,160,285,300,,,300,692.5,SBD,Single-ply,1
Masters 3,Carlos Manzanel,90,M,1942,82.6,Argentina,80,90,100,,100,95,105,110,,110,100,130,140,,140,350,SBD,Single-ply,1
Sub-Juniors,David Torres Palad,100,M,1990,93,Peru,100,110,120,,120,40,-50,-50,,40,120,160,,,160,320,SBD,Single-ply,1
Sub-Juniors,Manuel Grimaldo,100,M,1987,90.5,Peru,190,200.5,-210,,200.5,-120,-120,-120,,,-190,-190,190,,190,,SBD,Single-ply,DQ
Juniors,Alejandro Issa,100,M,1982,96.5,Argentina,235,250,-265,,250,180,190,-200,,190,280,-300.5,-300.5,,280,720,SBD,Single-ply,1
Juniors,Enrique Franco,100,M,1982,98.2,Ecuador,-225,225,240,,240,120,150,-155,,150,220,-235,235,,235,625,SBD,Single-ply,2
Open,Mauro Spinardi,100,M,1980,98.3,Argentina,300,310,315,,315,185,192.5,195,,195,290,302.5,307.5,313,307.5,817.5,SBD,Single-ply,1
Open,Carlos Prieto,100,M,1969,98.1,Ecuador,290,-310,-310,,290,175,185,-192.5,,185,260,275,277.5,,277.5,752.5,SBD,Single-ply,2
Masters 1,Tabajara Oliveira,100,M,1965,99.4,Brazil,280,290,300,,300,180,190,-198,,190,250,-260,-267.5,,250,740,SBD,Single-ply,1
Masters 1,Sergio Cousau,100,M,1964,92.7,Argentina,180,187.5,192.5,,192.5,142.5,147.5,152.5,,152.5,185,205,215,,215,560,SBD,Single-ply,2
Masters 2,Hernan Bedacarratz,100,M,1954,91,Argentina,170,180,-200,,180,-115,115,-125,,115,180,190,197.5,,197.5,492.5,SBD,Single-ply,1
Masters 2,José Fernández,100,M,1947,93,Argentina,180,190,200,,200,90,100,-105,,100,170,180,192.5,,192.5,492.5,SBD,Single-ply,2
Masters 2,Victor Davezak,100,M,1954,91.4,Uruguay,120,-150,-160,,120,110,-115,115,,115,130,150,180,,180,415,SBD,Single-ply,3
Masters 3,Luis Comelli,100,M,1942,90.4,Argentina,180,200,207.5,,207.5,110,-125,-125,,110,190,205,212.5,,212.5,530,SBD,Single-ply,1
Sub-Juniors,Nicolas Brotto,110,M,1987,109.5,Argentina,-230,230,245,,245,-115,115,120,,120,230,245,255,,255,620,SBD,Single-ply,1
Sub-Juniors,Gonzalo Viana,110,M,1988,104.8,Uruguay,180,-200,-200,,180,110,115,-120,,115,200,-210,-210,,200,495,SBD,Single-ply,2
Juniors,Jose Ruiz,110,M,1982,100.1,Colombia,220,235,245,,245,165,172.5,180,,180,250,275,-285,,275,700,SBD,Single-ply,1
Juniors,Leonardo Negri,110,M,1984,102.3,Brazil,215,-225,-230,,215,215,-217.5,-225,,215,220,235,-272.5,,235,665,SBD,Single-ply,2
Juniors,Diego Samuelle,110,M,1982,100.7,Uruguay,220,235,237.5,,237.5,135,150,155,,155,260,-280,-282.5,,260,652.5,SBD,Single-ply,3
Juniors,Jonathan Banegas,110,M,1983,103.4,Ecuador,220,230,-240,,230,145,155,-162.5,,155,-200,200,-215,,200,585,SBD,Single-ply,4
Juniors,José Coelho,110,M,1985,103.5,Brazil,200,210,220,,220,-205,-205,-205,,,,,,,,,SBD,Single-ply,DQ
Open,Leonardo Cavaglia,110,M,1976,109.6,Argentina,300,315,-320,,315,190,200,-210,,200,270,-290,290,,290,805,SBD,Single-ply,1
Open,Francisco Telles,110,M,1968,107.7,Brazil,-280,-285,285,,285,165,175,185,,185,260,270,-315,,270,740,SBD,Single-ply,2
Open,Claudemiro Batista,110,M,1970,109,Brazil,280,-310,-310,,280,145,-155,-165,,145,275,292.5,-322.5,,292.5,717.5,SBD,Single-ply,3
Open,Walter Morales,110,M,1972,101.7,Argentina,240,255,-262.5,,255,180,-185,,,180,260,275,-282.5,,275,710,SBD,Single-ply,4
Masters 1,Eduardo Rodriguez,110,M,1962,106.3,Uruguay,200,220,-230,,220,140,150,160,,160,200,220,230,,230,610,SBD,Single-ply,1
Masters 2,Julio Lezama,110,M,1949,107,Uruguay,180,200,,,200,150,157.5,-162.5,,157.5,240,-260,,,240,597.5,SBD,Single-ply,1
Masters 2,Juan Pelozo,110,M,1954,108.8,Argentina,130,140,-150,,140,120,127.5,-132.5,,127.5,140,150,160,,160,427.5,SBD,Single-ply,1
Sub-Juniors,Ignasio Caetano,125,M,1987,120.7,Uruguay,-200,-200,-200,,,155,-165,-175,,155,225,240,-250,,240,,SBD,Single-ply,DQ
Open,Walter San Miguel,125,M,1971,124.9,Argentina,260,280,-290,,280,230,-240,245.5,-250,245.5,260,270,-272.5,,270,795,SBD,Single-ply,1
Open,Pablo Morales,125,M,1978,117.7,Uruguay,300,-320,-330,,300,165,175,-180,,175,290,310,315,,315,790,SBD,Single-ply,2
Open,Lima W. Da Silva,125,M,,110.1,Brazil,280,300,310,,310,190,-200,-200,,190,270,-280,-295,,270,770,SBD,Single-ply,3
Open,Carlos Mora,125,M,1980,111.6,Ecuador,-290,-290,-290,,,,,,,,,,,,,,SBD,Single-ply,DQ
Masters 1,Julio Conrado,125,M,1965,123,Brazil,-290,300,320,,320,160,175,185,,185,240,-267.5,-267.5,,240,745,SBD,Single-ply,1
Masters 2,Norberto Carrizo,125,M,1948,111.7,Argentina,200,215,,,215,100,110,120,,120,200,215,,,215,550,SBD,Single-ply,1
Masters 2,Sergio Devich,125,M,1950,117.6,Argentina,160,175,-185,,175,120,-130,-130,,120,140,160,,,160,455,SBD,Single-ply,2
Juniors,Miguel Reascos,125+,M,1986,138.9,Ecuador,-200,200,-240,,200,100,115,122.5,,122.5,200,240,250,,250,572.5,SBD,Single-ply,1
Open,Eumenes Leite,125+,M,1972,139,Brazil,290,320,-340,,320,210,,,,210,180,210,230,,230,760,SBD,Single-ply,1
Open,Jorge Barrezueta,125+,M,1975,165,Ecuador,250,-275,-275,,250,140,-160,-165,,140,140,270,280,,280,670,SBD,Single-ply,2
Masters 2,Oscar Soria,125+,M,1948,151,Argentina,180,210,,,210,150,165,175,,175,180,210,235,,235,620,SBD,Single-ply,1
