Place,Name,State,Division,WeightClassKg,BodyweightKg,Age,Best3BenchKg,TotalKg,Sex,Equipment,Event
1,Caitlyn Mason,NY,Juniors 16-17,52,50.8,16,37.5,37.5,F,Raw,B
1,Niki M Rodo,NY,Open,90,85.18,29,55,55,F,Raw,B
1,Colleen Lauzonis,NY,Open,67.5,64.77,38,62.5,62.5,F,Raw,B
2,Suzanne Jeffers,NY,Open,67.5,66.32,37,60,60,F,Raw,B
1,Sandra L Vanuden,NY,Masters,67.5,67.13,54,47.5,47.5,F,Raw,B
1,Susan Prisco,NY,Masters,82.5,75.3,44,50,50,F,Raw,B
1,Angelique Schweikowsky,NY,Masters,90+,116.85,43,57.5,57.5,F,Raw,B
1,Mary P Walek,NY,Masters,90+,106.41,63,45,45,F,Raw,B
1,Preston Harris,NY,Juniors 13-15,60,59.24,14,50,50,M,Raw,B
1,Vinny Caci,NY,Juniors 20-23,67.5,65.5,22,125,125,M,Raw,B
1,Dillon Mangan,NY,Juniors 16-17,75,72.85,17,92.5,92.5,M,Raw,B
1,Noah Rocklein,NY,Juniors 13-15,82.5,75.57,15,85,85,M,Raw,B
2,Donovan Cornelius,NY,Juniors 13-15,82.5,78.65,13,63,63,M,Raw,B
3,Quinn Stevenson,NY,Juniors 13-15,82.5,79.2,13,57.5,57.5,M,Raw,B
1,Benjamin Carella,NY,Juniors 18-19,82.5,81.56,19,122.5,122.5,M,Raw,B
1,Dave Lyons,NY,Juniors 20-23,82.5,79.83,22,122.5,122.5,M,Raw,B
1,Jeremy Allen,NY,Juniors 16-17,90,85.91,17,70,70,M,Raw,B
1,Nathan E Hammer,NY,Juniors 20-23,90,86.09,22,125,125,M,Raw,B
1,Jake Allen,NY,Juniors 16-17,100,96.62,17,72.5,72.5,M,Raw,B
1,Blake Schweikowsky,NY,Juniors 13-15,110,107.32,14,57.5,57.5,M,Raw,B
1,Nicholas Donald Paolini,NY,Juniors 16-17,125,118.84,17,152.5,152.5,M,Raw,B
1,Christopher Spereno,NY,Open,67.5,65.23,25,132.5,132.5,M,Raw,B
1,Steve Decker,NY,Open,82.5,79.65,29,137.5,137.5,M,Raw,B
1,Jim Phraner,NY,Open,125,112.22,30,235,235,M,Raw,B
1,John Marshall,NY,Masters,75,72.85,75,85,85,M,Raw,B
1,Ernest Carter,NY,Masters,82.5,79.92,40,167.5,167.5,M,Raw,B
1,Robert Stone,NY,Masters,90,89.81,71,45,45,M,Raw,B
1,Edward Carter,NY,Masters,100,94.44,40,190,190,M,Raw,B
1,Robert W Schurr Jr,NY,Masters,100,98.43,49,150.5,150.5,M,Raw,B
1,Phil Buchiero,NY,Masters,100,96.62,57,132.5,132.5,M,Raw,B
1,Paul Bencal,NY,Masters,110,107.05,66,125,125,M,Raw,B
1,Robert Ballentine,NY,Masters,125,110.4,58,120,120,M,Raw,B
1,Jeff Linton,NY,Masters,140,127.46,51,200,200,M,Raw,B
1,Thomas J Stevenson,NY,Masters,140,133.08,49,195,195,M,Raw,B
1,David Spry,NY,Masters,140+,140.7,49,195,195,M,Raw,B
DQ,Rae-Ann Miller,NY,Open,90,89.09,39,-197.5,,F,Single-ply,B
1,Jim Phraner,NY,Open,125,112.22,30,345,345,M,Single-ply,B
1,Jeff Linton,NY,Masters,140,127.46,51,257.5,257.5,M,Single-ply,B
1,Christoper M Steves,NY,Juniors 16-17,140,131.81,16,160,160,M,Multi-ply,B
1,Dennis Brochey,NY,Masters,75,72.76,63,132.5,132.5,M,Raw,B
