Division,WeightClassKg,Place,Name,Team,BodyweightKg,Best3SquatKg,Best3BenchKg,Best3DeadliftKg,TotalKg,Equipment,Event,Sex
Boys,51.71,1,Johney Phelps,Palestine Westwood,50.98,163.29,83.91,142.88,390.09,Single-ply,SBD,M
Boys,51.71,2,Corbin Craver,Mount Vernon,50.89,136.08,74.84,151.95,362.87,Single-ply,SBD,M
Boys,55.79,3,Rj Reynolds,Commerce,51.94,124.74,77.11,154.22,356.07,Single-ply,SBD,M
Boys,51.71,4,Cody Henrico,Queen City,51.62,127.01,68.04,149.69,344.73,Single-ply,SBD,M
Boys,51.71,5,Jesse Peacock,Diana New Diana,50.44,117.93,79.38,117.93,315.25,Single-ply,SBD,M
Boys,51.71,6,Misael Guzman,Mount Vernon,51.26,117.93,58.97,113.4,290.3,Single-ply,SBD,M
Boys,51.71,7,Brodie Cantu,Dawson,51.35,102.06,61.23,127.01,290.3,Single-ply,SBD,M
Boys,55.79,8,Martin Angeles,Cumby,51.94,97.52,68.04,124.74,290.3,Single-ply,SBD,M
Boys,51.71,9,Billy Dy,Ore City,50.35,113.4,56.7,111.13,281.23,Single-ply,SBD,M
Boys,51.71,10,Billy Hall,Laird Hill Leveretts Chapel,51.53,95.25,68.04,117.93,281.23,Single-ply,SBD,M
Boys,55.79,1,Aaron Johnson,Jefferson,53.52,163.29,90.72,165.56,419.57,Single-ply,SBD,M
Boys,55.79,2,Jacori Denmark,Hughes Springs,55.43,138.35,81.65,158.76,378.75,Single-ply,SBD,M
Boys,55.79,3,Tylor Chandler,Scurry-Rosser,54.98,127.01,63.5,172.37,362.87,Single-ply,SBD,M
Boys,55.79,4,Dane Gallagher,Lone Oak,55.79,140.61,68.04,147.42,356.07,Single-ply,SBD,M
Boys,55.79,5,Daniel Pafford,Cushing,54.79,142.88,65.77,142.88,351.53,Single-ply,SBD,M
Boys,55.79,6,Jesus Perez,Kemp,53.75,124.74,88.45,117.93,331.12,Single-ply,SBD,M
Boys,55.79,7,Brayden Lopez,Commerce,54.61,108.86,61.23,124.74,294.84,Single-ply,SBD,M
Boys,55.79,DQ,Will Miller,Dawson,55.7,,,,,Single-ply,SBD,M
Boys,55.79,DQ,Brian Pafford,Cushing,54.34,142.88,,,,Single-ply,SBD,M
Boys,55.79,DQ,Ryan Fincher,Queen City,54.52,149.69,72.57,,,Single-ply,SBD,M
Boys,59.87,1,Dylan Gibson,Maud,59.19,195.04,77.11,176.9,449.06,Single-ply,SBD,M
Boys,59.87,2,Jaquay Brown,Milford,59.65,170.1,86.18,192.78,449.06,Single-ply,SBD,M
Boys,67.13,3,Junebug Johnson,Waskom,60.06,165.56,104.33,176.9,446.79,Single-ply,SBD,M
Boys,59.87,4,Austin Dennie,Kemp,57.52,158.76,111.13,167.83,437.72,Single-ply,SBD,M
Boys,67.13,5,Dalton Kassaw,Elkhart,60.1,181.44,81.65,167.83,430.91,Single-ply,SBD,M
Boys,59.87,6,Jimmy Kimbrell,Kemp,59.19,170.1,83.91,149.69,403.7,Single-ply,SBD,M
Boys,59.87,7,Jacob McLean,Scurry-Rosser,59.15,156.49,83.91,158.76,399.16,Single-ply,SBD,M
Boys,59.87,8,Gage Baughman,Winnsboro,59.51,156.49,97.52,136.08,390.09,Single-ply,SBD,M
Boys,67.13,9,Dalton Long,Dawson,60.1,142.88,86.18,154.22,383.29,Single-ply,SBD,M
Boys,59.87,DQ,Ezra Zepeda,Red Oak Life,59.51,170.1,,,,Single-ply,SBD,M
Boys,67.13,1,Cody DeFore,Elkhart,64.5,238.14,131.54,233.6,603.28,Single-ply,SBD,M
Boys,67.13,2,Olice Rogers,Kemp,67.04,226.8,136.08,219.99,582.87,Single-ply,SBD,M
Boys,67.13,3,Jared Arey,Teague,65.32,231.33,106.59,206.38,544.31,Single-ply,SBD,M
Boys,67.13,4,Josh Boone,Winnsboro,65.54,226.8,122.47,195.04,544.31,Single-ply,SBD,M
Boys,67.13,5,Jb Peltier,Commerce,65.54,210.92,117.93,192.78,521.63,Single-ply,SBD,M
Boys,74.84,6,Wesley McCrary,Wolfe City,67.22,181.44,117.93,181.44,480.81,Single-ply,SBD,M
Boys,67.13,7,Jalen Burns,Palestine Westwood,66.22,188.24,83.91,206.38,478.54,Single-ply,SBD,M
Boys,67.13,8,Daniel Camarillo,Blooming Grove,65.05,158.76,108.86,181.44,449.06,Single-ply,SBD,M
Boys,67.13,DQ,Humberto Chavez,Frankston,66.77,201.85,102.06,,,Single-ply,SBD,M
Boys,67.13,DQ,Justin Johnson,Mount Enterprise,65.09,,,,,Single-ply,SBD,M
Boys,74.84,1,Coy Jorden,Teague,73.48,263.08,149.69,242.67,655.44,Single-ply,SBD,M
Boys,74.84,2,Chris Box,Elkhart,71.89,213.19,136.08,197.31,546.58,Single-ply,SBD,M
Boys,74.84,3,Garrett Flanagan,Elkhart,72.76,206.38,115.67,210.92,532.97,Single-ply,SBD,M
Boys,74.84,4,Jarrett Morgan,Queen City,73.84,204.12,117.93,208.65,530.7,Single-ply,SBD,M
Boys,74.84,5,Maurice Ramirez,Winnsboro,72.8,213.19,133.81,181.44,528.44,Single-ply,SBD,M
Boys,74.84,6,Chamar Wiley-Harris,Crockett,71.44,206.38,106.59,206.38,519.36,Single-ply,SBD,M
Boys,74.84,7,Brody Price,Jefferson,74.75,185.97,138.35,195.04,519.36,Single-ply,SBD,M
Boys,74.84,8,Jeremy Moses,Winnsboro,70.4,188.24,113.4,201.85,503.49,Single-ply,SBD,M
Boys,74.84,9,Riley Smith,Elkhart,69.76,197.31,111.13,188.24,496.68,Single-ply,SBD,M
Boys,74.84,10,Devin Shaw,Lone Oak,73.39,188.24,111.13,190.51,489.88,Single-ply,SBD,M
Boys,82.1,1,Zack Gray,Elkhart,79.61,244.94,131.54,222.26,598.74,Single-ply,SBD,M
Boys,82.1,2,Tavion Hall,Kerens,79.38,206.38,131.54,247.21,585.13,Single-ply,SBD,M
Boys,82.1,3,Chris Atchley,Rice,79.11,226.8,136.08,219.99,582.87,Single-ply,SBD,M
Boys,82.1,4,Jimmy Rodgers,Laird Hill Leveretts Chapel,79.61,185.97,142.88,219.99,548.85,Single-ply,SBD,M
Boys,82.1,5,Eli Gammage,Lone Oak,80.29,204.12,127.01,217.72,548.85,Single-ply,SBD,M
Boys,89.81,6,Kameron Younger,Daingerfield,82.33,226.8,122.47,199.58,548.85,Single-ply,SBD,M
Boys,82.1,7,Andre Agan,Elkhart,80.2,204.12,111.13,201.85,517.1,Single-ply,SBD,M
Boys,82.1,8,Jacob Deaguero,White Oak,77.47,183.7,124.74,197.31,505.76,Single-ply,SBD,M
Boys,82.1,DQ,Haiden Zarate,Centerville,78.38,201.85,124.74,,,Single-ply,SBD,M
Boys,82.1,DQ,Nick Folse,Cumby,79.47,197.31,,,,Single-ply,SBD,M
Boys,89.81,1,Isaiah Martinez,Commerce,87.72,283.5,161.03,238.14,682.66,Single-ply,SBD,M
Boys,89.81,2,Felipe Amaro,Laird Hill Leveretts Chapel,88.09,265.35,136.08,204.12,605.55,Single-ply,SBD,M
Boys,89.81,3,Louis Collins,Oakwood,87.54,217.72,154.22,213.19,585.13,Single-ply,SBD,M
Boys,89.81,4,Colton Brown,Shelbyville,85.5,238.14,117.93,217.72,573.79,Single-ply,SBD,M
Boys,89.81,5,Mark Overman,Laird Hill Leveretts Chapel,85.82,217.72,140.61,208.65,566.99,Single-ply,SBD,M
Boys,89.81,6,Cody Anderson,Cumby,88.09,244.94,102.06,208.65,555.65,Single-ply,SBD,M
Boys,89.81,7,Darrion Dockins,Clarksville,88.22,226.8,111.13,213.19,551.11,Single-ply,SBD,M
Boys,89.81,8,Keanu Fathal,Corsicana Mildred,83.91,215.46,124.74,204.12,544.31,Single-ply,SBD,M
Boys,89.81,9,Grant Stansberry,Gladewater Sabine,88.9,204.12,117.93,195.04,517.1,Single-ply,SBD,M
Boys,89.81,10,Erick Torres,Palmer,88.68,197.31,136.08,181.44,514.83,Single-ply,SBD,M
Boys,99.79,1,Bryan Winburn,Winnsboro,98.34,242.67,147.42,231.33,621.42,Single-ply,SBD,M
Boys,99.79,2,George Anthony,New London West Rusk,96.71,219.99,138.35,249.48,607.81,Single-ply,SBD,M
Boys,99.79,3,Adam Mason,Joaquin,97.89,238.14,133.81,222.26,594.21,Single-ply,SBD,M
Boys,99.79,4,Tyson Gearner,Winnsboro,96.39,217.72,142.88,215.46,576.06,Single-ply,SBD,M
Boys,99.79,5,Zack McGuire,Ore City,94.26,215.46,142.88,215.46,573.79,Single-ply,SBD,M
Boys,99.79,6,Parker Hartcraft,Queen City,99.52,235.87,113.4,195.04,544.31,Single-ply,SBD,M
Boys,99.79,7,Tyran Wilson,Commerce,93.67,208.65,127.01,204.12,539.77,Single-ply,SBD,M
Boys,99.79,8,David Mauldin,Commerce,94.98,170.1,136.08,222.26,528.44,Single-ply,SBD,M
Boys,99.79,DQ,Tylor Libby,Cumby,98.43,208.65,131.54,,,Single-ply,SBD,M
Boys,99.79,DQ,Blake Westbrook,Detroit,96.39,,,,,Single-ply,SBD,M
Boys,99.79,DQ,Tim Carr,Maud,97.16,215.46,106.59,,,Single-ply,SBD,M
Boys,109.77,1,Leal Sample,Scurry-Rosser,106.96,249.48,167.83,251.74,669.05,Single-ply,SBD,M
Boys,109.77,2,Kal Metcalf,Shelbyville,104.05,294.84,140.61,231.33,666.78,Single-ply,SBD,M
Boys,109.77,3,Gary Alexander,Maud,108.64,272.16,117.93,263.08,653.17,Single-ply,SBD,M
Boys,109.77,4,Anthony Sciara,Hooks,107.86,251.74,154.22,226.8,632.76,Single-ply,SBD,M
Boys,109.77,5,Chris Bloyd,Big Sandy Harmony,102.51,238.14,142.88,208.65,589.67,Single-ply,SBD,M
Boys,109.77,6,Tracy Hightower,Red Oak Life,106.59,254.01,120.2,206.38,580.6,Single-ply,SBD,M
Boys,109.77,7,Austin Cruz,Cushing,108.23,219.99,133.81,217.72,571.53,Single-ply,SBD,M
Boys,109.77,8,Brad Lafoy,Teague,103.24,231.33,108.86,226.8,566.99,Single-ply,SBD,M
Boys,109.77,9,Nelson Ochoa,Malakoff,109.32,224.53,131.54,210.92,566.99,Single-ply,SBD,M
Boys,109.77,10,Brandon Gann,Gladewater Sabine,101.38,215.46,129.27,215.46,560.19,Single-ply,SBD,M
Boys,109.77,DQ,Colton Defur,Hawkins,102.69,260.82,138.35,,,Single-ply,SBD,M
Boys,124.74,1,Ryan Mitchell,Teague,117.48,306.17,161.03,269.89,737.09,Single-ply,SBD,M
Boys,124.74,2,Matthew Busby,Lone Oak,123.47,294.84,192.78,249.48,737.09,Single-ply,SBD,M
Boys,124.74,3,Trey Harris,Hemphill,117.84,247.21,145.15,249.48,641.83,Single-ply,SBD,M
Boys,124.74,4,Aquavion Evans,Mount Vernon,112.04,260.82,129.27,226.8,616.89,Single-ply,SBD,M
Boys,124.74,5,Jermaine Emmers,Clarksville,123.01,226.8,136.08,254.01,616.89,Single-ply,SBD,M
Boys,124.74,6,Noah Palmertree,Hughes Springs,120.29,244.94,138.35,231.33,614.62,Single-ply,SBD,M
Boys,124.74,7,Landon Simmons,Jefferson,110.68,249.48,136.08,226.8,612.35,Single-ply,SBD,M
Boys,124.74,8,Corey Brister,New London West Rusk,121.93,229.06,142.88,226.8,598.74,Single-ply,SBD,M
Boys,124.74,9,Daniel Logan,Big Sandy Harmony,120.29,238.14,117.93,226.8,582.87,Single-ply,SBD,M
Boys,124.74+,1,Shakeim Woodberry,Clarksville,131.09,283.5,183.7,249.48,716.68,Single-ply,SBD,M
Boys,124.74+,2,Trey Villareal,Diana New Diana,144.24,249.48,158.76,267.62,675.85,Single-ply,SBD,M
Boys,124.74+,3,Zack McFarland,Elkhart,128.09,299.37,149.69,219.99,669.05,Single-ply,SBD,M
Boys,124.74+,4,Thomas Acol,Malakoff,149.46,265.35,136.08,240.4,641.83,Single-ply,SBD,M
Boys,124.74+,5,Lane Allen,Detroit,133.27,272.16,136.08,222.26,630.49,Single-ply,SBD,M
Boys,124.74+,6,Matt Brown #8,Maud,150.32,249.48,142.88,238.14,630.49,Single-ply,SBD,M
Boys,124.74+,7,Hunter Coleman,Elysian Fields,140.25,244.94,165.56,204.12,614.62,Single-ply,SBD,M
Boys,124.74+,8,Taylor McBride,Cushing,132.36,260.82,136.08,208.65,605.55,Single-ply,SBD,M
Boys,124.74+,9,Keithon Walker,Daingerfield,133.13,272.16,120.2,204.12,596.47,Single-ply,SBD,M
Boys,124.74+,DQ,Cordrae Brown,Joaquin,134.49,294.84,142.88,,,Single-ply,SBD,M
