Name,Tested,Age,Division,BodyweightKg,WeightClassKg,Event,Equipment,Squat1Kg,Squat2Kg,Squat3Kg,Best3SquatKg,Bench1Kg,Bench2Kg,Bench3Kg,Best3BenchKg,Deadlift1Kg,Deadlift2Kg,Deadlift3Kg,Best3DeadliftKg,TotalKg,Place,Sex
Ed Fitzpatrick,No,60,M-M,110.6,125,B,Multi-ply,,,,,-212.5,212.5,222.5,222.5,,,,,222.5,1,M
Ed Fitzpatrick,Yes,60,M-M,110.6,125,B,Multi-ply,,,,,-212.5,212.5,222.5,222.5,,,,,222.5,1,M
Brian Schwab,No,34,M-O,75,75,B,Multi-ply,,,,,257.5,-275,-275,257.5,,,,,257.5,1,M
Vincent Lysobey,Yes,37,M-O,81.5,82.5,B,Multi-ply,,,,,197.5,215,-227.5,215,,,,,215,1,M
Mike Westerdal,No,33,M-O,109.8,110,B,Multi-ply,,,,,262.5,282.5,-297.5,282.5,,,,,282.5,1,M
Timothy James,Yes,30,M-O,104.2,110,B,Multi-ply,,,,,230,-242.5,-242.5,230,,,,,230,2,M
Christopher Holloway,No,29,M-O,103.5,110,B,Multi-ply,,,,,205,-230,-230,205,,,,,205,3,M
Michael Allocco,Yes,30,M-O,123.1,125,B,Multi-ply,,,,,292.5,322.5,-330,322.5,,,,,322.5,1,M
Kieran Kidder,No,40,M-O,160,140+,B,Multi-ply,,,,,272.5,-287.5,-287.5,272.5,,,,,272.5,1,M
Terry Bishoff,No,49,F-O,60,60,SBD,Multi-ply,-125,-130,130,130,65,-72.5,-72.5,65,125,142.5,147.5,147.5,342.5,1,F
Dean Whitney,No,64,M-M,67,67.5,SBD,Multi-ply,-195,195,-215,195,102.5,107.5,-110,107.5,200,215,-227.5,215,517.5,1,M
Vince D'Onofrio,No,54,M-M,83.8,90,SBD,Multi-ply,237.5,-252.5,252.5,252.5,152.5,-167.5,-167.5,152.5,225,237.5,-240,237.5,642.5,2,M
Bruce Garnett Sr,Yes,45,M-M,96.4,100,SBD,Multi-ply,-227.5,227.5,-252.5,227.5,197.5,205,-215,205,185,-205,-220,185,617.5,3,M
Brian Schwab,No,34,M-O,75,75,SBD,Multi-ply,347.5,367.5,-375,367.5,257.5,-275,-275,257.5,260,282.5,-287.5,282.5,907.5,1,M
Kalin Chester,Yes,24,M-O,81.6,82.5,SBD,Multi-ply,-282.5,287.5,-317.5,287.5,250,265,272.5,272.5,215,227.5,-232.5,227.5,787.5,1,M
Devin Cognolatti,Yes,35,M-O,85,90,SBD,Multi-ply,315,-330,-332.5,315,237.5,250,-262.5,250,247.5,262.5,-272.5,262.5,827.5,1,M
CJ Clearwater,Yes,29,M-O,89,90,SBD,Multi-ply,237.5,255,272.5,272.5,-190,190,-192.5,190,250,272.5,280,280,742.5,2,M
Greg Godwin,Yes,51,M-O,89.2,90,SBD,Multi-ply,-292.5,292.5,-307.5,292.5,-192.5,192.5,-202.5,192.5,-247.5,247.5,-260,247.5,732.5,3,M
Ronnie Paras,Yes,46,M-O,89.8,90,SBD,Multi-ply,-350,-350,-367.5,,-247.5,247.5,260,260,237.5,247.5,255,255,,DQ,M
Orlando Garcia,No,24,M-O,99.6,100,SBD,Multi-ply,250,-272.5,272.5,272.5,217.5,232.5,255,255,260,287.5,-302.5,287.5,815,1,M
Clint Smith,No,28,M-O,105.6,110,SBD,Multi-ply,387.5,395,-405,395,342.5,-347.5,-350,342.5,-325,325,-335,325,1062.5,1,M
Randall Burnette,No,27,M-O,106.6,110,SBD,Multi-ply,-307.5,307.5,315,315,240,-250,250,250,285,295,-300,295,860,2,M
Mike Westerdal,No,33,M-O,109.8,110,SBD,Multi-ply,262.5,282.5,290,290,262.5,282.5,-297.5,282.5,250,272.5,-292.5,272.5,845,3,M
Brian Carroll,No,27,M-O,120.8,125,SBD,Multi-ply,457.5,-475,-475,457.5,340,-360,-360,340,340,-365,-365,340,1137.5,1,M
Charles Fay,No,28,M-O,125,125,SBD,Multi-ply,-442.5,442.5,465,465,285,295,-305,295,320,-337.5,-337.5,320,1080,2,M
Shane Hammock,No,21,M-O,120.8,125,SBD,Multi-ply,425,435,-455,435,-290,290,302.5,302.5,337.5,-345,-347.5,337.5,1075,3,M
Greg Jurkowski,No,45,M-O,123.8,125,SBD,Multi-ply,-352.5,352.5,382.5,382.5,215,227.5,237.5,237.5,322.5,-352.5,352.5,352.5,972.5,4,M
Shane Hammock,Yes,21,M-O,120.8,125,SBD,Multi-ply,425,435,-455,435,-290,290,302.5,302.5,337.5,-345,-347.5,337.5,1075,1,M
Mike Stuchiner,No,34,M-O,126.2,140,SBD,Multi-ply,60,-62.5,-62.5,60,242.5,-260,-260,242.5,260,287.5,-302.5,287.5,590,1,M
RC Samples,No,14,M-T1,57.4,60,SBD,Multi-ply,92.5,100,-112.5,100,62.5,67.5,70,70,102.5,115,117.5,117.5,287.5,1,M
Sam Wahnish,Yes,22,M-J,75,75,SBD,Multi-ply,265,280,292.5,292.5,192.5,-202.5,-202.5,192.5,227.5,237.5,250,250,735,1,M
Will Slaton,No,20,M-J,104.2,110,SBD,Multi-ply,227.5,-255,255,255,152.5,167.5,185,185,-225,-225,225,225,665,1,M
Matt Gonzalez,No,23,M-J,132.8,140,SBD,Multi-ply,307.5,320,-322.5,320,-227.5,227.5,-230,227.5,257.5,272.5,-282.5,272.5,820,1,M
