Division,WeightClassKg,Place,Name,Team,BodyweightKg,Best3SquatKg,Best3BenchKg,Best3DeadliftKg,TotalKg,Equipment,Event,Sex
Boys,51.71,1,Manuel Rojas,Hallsville,51.26,124.74,83.91,136.08,344.73,Single-ply,SBD,M
Boys,59.87,1,Rone Ramirez,Carthage,59.51,174.63,102.06,174.63,451.32,Single-ply,SBD,M
Boys,67.13,1,Santos Estrada,Hallsville,67.13,167.83,104.33,170.1,442.25,Single-ply,SBD,M
Boys,67.13,2,Lloyd Douglas,Texarkana Texas,65.77,147.42,104.33,158.76,410.5,Single-ply,SBD,M
Boys,67.13,3,Spencer Grey,Texarkana Texas,65.32,142.88,97.52,151.95,392.36,Single-ply,SBD,M
Boys,67.13,4,Cody Stevenson,Hallsville,67.13,142.88,102.06,142.88,387.82,Single-ply,SBD,M
Boys,67.13,5,Christian Bean,Hallsville,67.13,136.08,104.33,,240.4,Single-ply,SB,M
Boys,74.84,1,David Patterson #4,Carthage,72.3,183.7,106.59,199.58,489.88,Single-ply,SBD,M
Boys,74.84,2,Jordan Liles,Texarkana Texas,74.84,167.83,124.74,181.44,474,Single-ply,SBD,M
Boys,74.84,3,Eric Ware,Carthage,71.4,142.88,99.79,170.1,412.77,Single-ply,SBD,M
Boys,74.84,4,Daniel Howard,Texarkana Texas,69.85,147.42,97.52,158.76,403.7,Single-ply,SBD,M
Boys,74.84,5,Phillip Burns,Carthage,68.22,145.15,70.31,154.22,369.68,Single-ply,SBD,M
Boys,74.84,6,Dominic Collins,Carthage,68.95,138.35,83.91,145.15,367.41,Single-ply,SBD,M
Boys,74.84,7,Adam McKey,Hallsville,71.67,140.61,77.11,133.81,351.53,Single-ply,SBD,M
Boys,74.84,8,Braden McNeal,Hallsville,72.94,136.08,77.11,122.47,335.66,Single-ply,SBD,M
Boys,82.1,1,Jerry Roland,Hallsville,81.65,213.19,113.4,213.19,539.77,Single-ply,SBD,M
Boys,82.1,2,Telvin Wilson,Texarkana Texas,82.1,213.19,113.4,185.97,512.56,Single-ply,SBD,M
Boys,82.1,3,Rontreal Rollins,Hallsville,77.56,185.97,99.79,195.04,480.81,Single-ply,SBD,M
Boys,82.1,4,Dedrick Taylor,Hallsville,81.19,188.24,104.33,185.97,478.54,Single-ply,SBD,M
Boys,82.1,5,Austin Teodorczyk,Hallsville,80.29,181.44,108.86,176.9,467.2,Single-ply,SBD,M
Boys,82.1,6,Hunter Holland,Carthage,79.83,170.1,95.25,199.58,464.93,Single-ply,SBD,M
Boys,82.1,7,Damien Roberts,Texarkana Texas,81.65,161.03,115.67,179.17,455.86,Single-ply,SBD,M
Boys,82.1,8,Anthony Burton,Texarkana Texas,80.29,172.37,113.4,163.29,449.06,Single-ply,SBD,M
Boys,82.1,9,Roderick Boyd,Hallsville,82.1,172.37,102.06,167.83,442.25,Single-ply,SBD,M
Boys,82.1,10,Aaron Nelson,Carthage,81.19,163.29,90.72,172.37,426.38,Single-ply,SBD,M
Boys,82.1,11,Traivs Essery,Carthage,79.38,106.59,63.5,122.47,292.57,Single-ply,SBD,M
Boys,89.81,1,Stephen Godwin,Hallsville,87.09,213.19,136.08,204.12,553.38,Single-ply,SBD,M
Boys,89.81,2,Keegan Haas,Texarkana Texas,85.73,181.44,124.74,208.65,514.83,Single-ply,SBD,M
Boys,89.81,3,John Sartor,Hallsville,89.81,181.44,99.79,206.38,487.61,Single-ply,SBD,M
Boys,89.81,4,Kade Post,Texarkana Texas,88.45,170.1,120.2,161.03,451.32,Single-ply,SBD,M
Boys,89.81,5,Josh Brown #9,Hallsville,85.73,154.22,99.79,183.7,437.72,Single-ply,SBD,M
Boys,89.81,6,Alex Downing,Hallsville,88.9,154.22,108.86,149.69,412.77,Single-ply,SBD,M
Boys,89.81,7,Caleb Elliott,Carthage,85.28,138.35,108.86,158.76,405.97,Single-ply,SBD,M
Boys,89.81,8,Michael McCune,Carthage,85.28,188.24,,213.19,401.43,Single-ply,SD,M
Boys,89.81,9,Tamaris Shepard,Carthage,89.81,151.95,,156.49,308.44,Single-ply,SD,M
Boys,99.79,1,Blake McCown,Texarkana Texas,91.17,213.19,131.54,229.06,573.79,Single-ply,SBD,M
Boys,99.79,2,Clayton Godfrey,Texarkana Texas,96.62,213.19,140.61,219.99,573.79,Single-ply,SBD,M
Boys,99.79,3,Josh Bryant #2,Texarkana Texas,93.89,181.44,131.54,219.99,532.97,Single-ply,SBD,M
Boys,99.79,4,Marco Jamillo,Hallsville,93.89,158.76,113.4,156.49,428.64,Single-ply,SBD,M
Boys,99.79,5,Dakota Hart,Carthage,92.9,158.76,92.99,163.29,415.04,Single-ply,SBD,M
Boys,99.79,6,James Davis,Hallsville,92.53,117.93,92.99,151.95,362.87,Single-ply,SBD,M
Boys,99.79,7,Hayden Wall,Hallsville,96.62,129.27,77.11,142.88,349.27,Single-ply,SBD,M
Boys,109.77,1,Jerod Odom,Carthage,105.69,265.35,161.03,249.48,675.85,Single-ply,SBD,M
Boys,109.77,2,Justin Smith,Hallsville,108.41,204.12,99.79,136.08,439.98,Single-ply,SBD,M
Boys,109.77,3,Weston Gibson,Carthage,104.33,165.56,99.79,158.76,424.11,Single-ply,SBD,M
Boys,109.77,4,Micah Stewart,Carthage,107.05,167.83,97.52,158.76,424.11,Single-ply,SBD,M
Boys,109.77,5,Ryan Ayers,Hallsville,106.59,156.49,97.52,163.29,417.3,Single-ply,SBD,M
Boys,109.77,6,Mitchell Kinman,Carthage,103.42,149.69,90.72,174.63,415.04,Single-ply,SBD,M
Boys,109.77,7,Bryvarious Anderson,Carthage,105.23,138.35,99.79,149.69,387.82,Single-ply,SBD,M
Boys,109.77,8,Chris Turner,Hallsville,109.32,136.08,99.79,149.69,385.55,Single-ply,SBD,M
Boys,109.77,9,Brent Rogers,Hallsville,101.6,136.08,83.91,136.08,356.07,Single-ply,SBD,M
Boys,124.74,1,Deshun Williams,Carthage,124.74,288.03,145.15,226.8,659.98,Single-ply,SBD,M
Boys,124.74,2,Kyle Pack,Hallsville,121.56,233.6,147.42,190.51,571.53,Single-ply,SBD,M
Boys,124.74,3,Eric Stewart,Texarkana Texas,119.75,199.58,140.61,217.72,557.92,Single-ply,SBD,M
Boys,124.74,4,Martinues Manning,Texarkana Texas,111.58,208.65,142.88,204.12,555.65,Single-ply,SBD,M
Boys,124.74,5,Chris Jones #15,Texarkana Texas,116.57,215.46,131.54,185.97,532.97,Single-ply,SBD,M
Boys,124.74,6,Chad Kelly,Carthage,112.94,208.65,122.47,183.7,514.83,Single-ply,SBD,M
Boys,124.74,7,Alex Ellis,Texarkana Texas,113.85,204.12,106.59,204.12,514.83,Single-ply,SBD,M
Boys,124.74,8,Erick Davis,Hallsville,119.29,190.51,108.86,167.83,467.2,Single-ply,SBD,M
Boys,124.74,9,Demitris Jefferson,Texarkana Texas,111.58,183.7,113.4,163.29,460.4,Single-ply,SBD,M
Boys,124.74,10,Jacob Etchelecu,Hallsville,122.47,174.63,108.86,142.88,426.38,Single-ply,SBD,M
Boys,124.74,11,Pablo Juarez,Texarkana Texas,119.29,151.95,104.33,140.61,396.89,Single-ply,SBD,M
Boys,124.74,12,Clay Mahaffey,Carthage,114.76,97.52,88.45,108.86,294.84,Single-ply,SBD,M
Boys,124.74+,1,Kendrick Henderson,Carthage,139.25,249.48,151.95,204.12,605.55,Single-ply,SBD,M
Boys,124.74+,2,Nick Lewis,Texarkana Texas,137.89,226.8,136.08,215.46,578.33,Single-ply,SBD,M
Boys,124.74+,3,Gary Freeman,Texarkana Texas,145.15,244.94,145.15,154.22,544.31,Single-ply,SBD,M
Boys,124.74+,4,Mike Reed,Texarkana Texas,130.63,192.78,124.74,204.12,521.63,Single-ply,SBD,M
Boys,124.74+,5,Jonathan Hunt,Texarkana Texas,127.46,192.78,117.93,197.31,508.02,Single-ply,SBD,M
Boys,124.74+,6,Logan Sallee,Hallsville,136.08,172.37,111.13,120.2,403.7,Single-ply,SBD,M
Boys,124.74+,7,Elzie Hicks,Carthage,130.63,145.15,97.52,147.42,390.09,Single-ply,SBD,M
