Place,Name,BirthYear,Country,BodyweightKg,Squat1Kg,Squat2Kg,Squat3Kg,Best3SquatKg,Bench1Kg,Bench2Kg,Bench3Kg,Best3BenchKg,Deadlift1Kg,Deadlift2Kg,Deadlift3Kg,Best3DeadliftKg,TotalKg,WeightClassKg,Division,Event,Sex,Equipment
1,Sergey Fedosienko,1982,Russia,55.1,260,270,280,280,160,170,177.5,177.5,222.5,235,242.5,242.5,700,56,Open,SBD,M,Single-ply
2,Shih-Wu Lu,1975,Taiwan,55.2,245,255,-260,255,110,120,-122.5,120,245,255,-260,255,630,56,Open,SBD,M,Single-ply
3,Hiroyuki Isagawa,1953,Japan,55.6,205,215,220,220,175,180,185,185,220,-230,-232.5,220,625,56,Open,SBD,M,Single-ply
4,Dariusz Wszoła,1978,Poland,55.1,-240,-240,240,240,152.5,160,-165,160,192.5,205,210,210,610,56,Open,SBD,M,Single-ply
5,Roy Brandtzæg,1971,Norway,55.9,222.5,227.5,232.5,232.5,-140,-140,140,140,220,230,-235,230,602.5,56,Open,SBD,M,Single-ply
6,Ervin Gainer Sr,1966,USA,55.5,200,212.5,220,220,127.5,137.5,142.5,142.5,210,220,230,230,592.5,56,Open,SBD,M,Single-ply
7,Patrick Constantine,1969,UK,55.7,220,-230,230,230,120,125,-127.5,125,215,225,-232.5,225,580,56,Open,SBD,M,Single-ply
8,Frédéric Tinebra,1978,France,55.4,210,-222.5,222.5,222.5,140,145,-150,145,190,205,-212.5,205,572.5,56,Open,SBD,M,Single-ply
9,Jürgen Nemeth,1972,Austria,55.2,-200,200,-205,200,110,-115,,110,170,190,210,210,520,56,Open,SBD,M,Single-ply
10,Omar Shebek,1975,Libya,55.6,170,190,-195,190,90,105,-110,105,180,210,-215,210,505,56,Open,SBD,M,Single-ply
DQ,Hung Yang Sheng,1984,Taiwan,55.6,100,,,100,80,,,80,-255,-255,-255,,,56,Open,SBD,M,Single-ply
1,Tsung-Ting Hsieh,1982,Taiwan,58.9,250,260,-267.5,260,180,187.5,192.5,192.5,260,270,-282.5,270,722.5,60,Open,SBD,M,Single-ply
2,Konstantin Pavlov,1973,Russia,58.9,250,260,267.5,267.5,180,187.5,-192.5,187.5,210,215,-220,215,670,60,Open,SBD,M,Single-ply
3,Yoshihiro Sato,1982,Japan,59.6,220,-235,235,235,175,-182.5,182.5,182.5,210,220,-225,220,637.5,60,Open,SBD,M,Single-ply
4,Etienne Lited,1979,France,59.6,232.5,-242.5,242.5,242.5,-130,130,135,135,222.5,232.5,242.5,242.5,620,60,Open,SBD,M,Single-ply
5,Pawel Osmialowski,1977,Poland,59.8,230,240,250,250,130,-140,140,140,205,215,222.5,222.5,612.5,60,Open,SBD,M,Single-ply
6,Kuat Sarbalaev,1983,Kazakhstan,59.3,210,230,235,235,140,147.5,150,150,220,-240,-240,220,605,60,Open,SBD,M,Single-ply
7,Dominik Golak,1982,Poland,59.6,210,220,-230,220,130,140,147.5,147.5,200,210,-220,210,577.5,60,Open,SBD,M,Single-ply
8,Liang Chiu Chung,1974,Taiwan,59.7,212.5,-225,,212.5,90,,,90,245,257.5,-272.5,257.5,560,60,Open,SBD,M,Single-ply
9,Masuod Elmshiti,1973,Libya,60,-180,190,-210,190,130,-140,140,140,200,220,230,230,560,60,Open,SBD,M,Single-ply
10,Leandro Maccari,1979,Brazil,59.3,205,215,-232.5,215,120,127.5,130,130,200,212.5,-217.5,212.5,557.5,60,Open,SBD,M,Single-ply
11,Mohamed Lakhal,1982,Algeria,59.7,-200,210,-220,210,120,125,130,130,200,210,-220,210,550,60,Open,SBD,M,Single-ply
DQ,Vimal Raja S,1984,India,58,-237.5,-237.5,-237.5,,115,-120,-120,115,215,-225,-225,215,,60,Open,SBD,M,Single-ply
DQ,Damarrio Holloway,1977,USA,59.7,235,250,257.5,257.5,-145,145,155,155,-255,-255,-255,,,60,Open,SBD,M,Single-ply
1,Ravil Kazakov,1982,Russia,67.2,290,300,310,310,210,217.5,222.5,222.5,220,235,245,245,777.5,67.5,Open,SBD,M,Single-ply
2,Hassan El Belghiti,1975,France,67.4,255,267.5,-272.5,267.5,155,-160,-160,155,280,290,292.5,292.5,715,67.5,Open,SBD,M,Single-ply
3,Masaharu Koiwai,1976,Japan,67.3,-230,230,245,245,-170,170,177.5,177.5,265,-282.5,290,290,712.5,67.5,Open,SBD,M,Single-ply
4,Arkadiy Shalokha,,Ukraine,67.5,260,-275,-275,260,165,172.5,180,180,250,265,-272.5,265,705,67.5,Open,SBD,M,Single-ply
5,Phil Richard,1971,UK,67.2,270,280,287.5,287.5,177.5,-187.5,-187.5,177.5,-230,230,-240,230,695,67.5,Open,SBD,M,Single-ply
6,TJ Hoerner,1977,USA,67.2,272.5,-292.5,-292.5,272.5,140,150,-155,150,-250,250,265,265,687.5,67.5,Open,SBD,M,Single-ply
7,Antti Savolainen,1978,Finland,67.2,235,-245,245,245,185,-190,-190,185,245,255,-265,255,685,67.5,Open,SBD,M,Single-ply
8,Hui Lin Ming,1983,Taiwan,66.8,255,-272.5,-272.5,255,-170,170,-187.5,170,210,230,-255,230,655,67.5,Open,SBD,M,Single-ply
9,Lewis Noppers,1970,Canada,67.2,-230,-235,235,235,155,-160,-160,155,247.5,262.5,-272.5,262.5,652.5,67.5,Open,SBD,M,Single-ply
10,Erik Bačinský,1978,Slovakia,66.1,220,235,-250,235,160,170,182.5,182.5,230,-245,-245,230,647.5,67.5,Open,SBD,M,Single-ply
11,Hsin Kuan Yi,1982,Taiwan,66.5,200,210,,210,120,125,127.5,127.5,275,285,-290,285,622.5,67.5,Open,SBD,M,Single-ply
12,Abdelkader Aissa,1969,Algeria,66.6,180,200,202.5,202.5,-135,140,145,145,260,267.5,-275,267.5,615,67.5,Open,SBD,M,Single-ply
DQ,Eric Oishi,1979,Brazil,66.5,-265,-265,-265,,155,170,175,175,240,-255,-267.5,240,,67.5,Open,SBD,M,Single-ply
DQ,Amit Selberg,1976,Sweden,67,265,-272.5,-272.5,265,-197.5,-197.5,-197.5,,-230,,,,,67.5,Open,SBD,M,Single-ply
DQ,Peep Päll,1970,Estonia,67,-235,-235,-235,,150,-157.5,-165,150,257.5,-267.5,-267.5,257.5,,67.5,Open,SBD,M,Single-ply
1,Jarosław Olech,1974,Poland,74.3,330,-350,350,350,200,-210,-210,200,300,310,-317.5,310,860,75,Open,SBD,M,Single-ply
2,Wade Hooper,1971,USA,74.6,330,342.5,-347.5,342.5,222.5,230,235,235,252.5,-260,-260,252.5,830,75,Open,SBD,M,Single-ply
3,Alexander Govorin,1985,Russia,74.6,310,320,-327.5,320,165,170,175,175,307.5,320,-337.5,320,815,75,Open,SBD,M,Single-ply
4,Volodymyr Rysiev,1982,Ukraine,73.8,290,300,310,310,190,-197.5,-197.5,190,-280,280,-300,280,780,75,Open,SBD,M,Single-ply
5,Sami Nieminen,1975,Finland,74.7,270,-280,-280,270,175,182.5,-187.5,182.5,290,300,-310,300,752.5,75,Open,SBD,M,Single-ply
6,Richard Lettner,1974,Austria,74.6,-275,-275,275,275,170,180,-185,180,260,270,-275,270,725,75,Open,SBD,M,Single-ply
7,K. Maslamani,1978,India,72.8,270,280,-285,280,-160,160,170,170,250,270,-290,270,720,75,Open,SBD,M,Single-ply
8,Andreas Zeilinger,1968,Austria,74.2,240,250,260,260,195,-200,200,200,230,240,250,250,710,75,Open,SBD,M,Single-ply
9,Yusuke Fukuda,1975,Japan,72.2,275,-285,-285,275,150,-157.5,157.5,157.5,265,275,-277.5,275,707.5,75,Open,SBD,M,Single-ply
10,Pardeep Kailey,1983,Netherlands,74.4,230,-240,-240,230,145,150,-152.5,150,-240,240,-255,240,620,75,Open,SBD,M,Single-ply
DQ,Per Berglund,1967,Sweden,71.5,-260,-270,-270,,,,,,,,,,,75,Open,SBD,M,Single-ply
DQ,Jörg Müller,1965,Germany,74,275,285,-292.5,285,-175,-175,-175,,,,,,,75,Open,SBD,M,Single-ply
DQ,Willie Albert,,Canada,74.3,252.5,262.5,-272.5,262.5,-170,-170,-170,,280,-292.5,,280,,75,Open,SBD,M,Single-ply
DQ,Karel Jiroušek,1979,Czechia,74.4,-260,-260,260,260,-147.5,-147.5,-155,,265,285,-292.5,285,,75,Open,SBD,M,Single-ply
DQ,Tom Kean,1972,Canada,74.4,267.5,280,-290,280,-187.5,-187.5,-187.5,,255,272.5,280,280,,75,Open,SBD,M,Single-ply
DQ,Lung-Hsin Huang,1981,Taiwan,74.5,-280,-280,-280,,202.5,212.5,-222.5,212.5,275,-290,-300,275,,75,Open,SBD,M,Single-ply
1,Sergey Bogdanov,1985,Russia,82.1,320,330,-335,330,225,-232.5,232.5,232.5,300,310,-315,310,872.5,82.5,Open,SBD,M,Single-ply
2,David Ricks,1959,USA,81.8,305,-317.5,317.5,317.5,-200,207.5,215,215,300,-320,320,320,852.5,82.5,Open,SBD,M,Single-ply
3,Jan Wegiera,1965,Poland,81.5,300,315,320,320,240,250,-257.5,250,280,-285,-285,280,850,82.5,Open,SBD,M,Single-ply
4,Robert Michailov,1977,Bulgaria,80.6,270,290,-305,290,192.5,-202.5,205,205,305,325,-330,325,820,82.5,Open,SBD,M,Single-ply
5,Wataru Kobayakawa,1975,Japan,81.5,302.5,310,-317.5,310,195,202.5,-207.5,202.5,275,285,-290,285,797.5,82.5,Open,SBD,M,Single-ply
6,Todor Vasilev,1978,Bulgaria,80.9,290,-305,305,305,170,180,-185,180,285,300,-315,300,785,82.5,Open,SBD,M,Single-ply
7,Jaswinder Singh,1964,UK,82.3,280,287.5,-292.5,287.5,-190,190,195,195,270,280,-287.5,280,762.5,82.5,Open,SBD,M,Single-ply
8,André Hentschel,1984,Germany,82,275,-290,-290,275,210,220,-227.5,220,250,265,-270,265,760,82.5,Open,SBD,M,Single-ply
9,Arvo Kaljapulk,1982,Estonia,81.8,270,-275,-275,270,150,160,-180,160,310,315,-320,315,745,82.5,Open,SBD,M,Single-ply
10,Richard Hozjan,1982,Australia,82.1,-260,260,-280,260,190,197.5,200,200,275,285,-300,285,745,82.5,Open,SBD,M,Single-ply
11,Lars Berglund,1986,Sweden,81.7,275,285,-290,285,190,195,200,200,250,-267.5,-267.5,250,735,82.5,Open,SBD,M,Single-ply
12,Helmut Moth,1970,Austria,81.2,250,-260,260,260,-145,145,150,150,250,255,-260,255,665,82.5,Open,SBD,M,Single-ply
DQ,Richie Rosales Enrique,1976,Philippines,80.1,-257.5,-257.5,-257.5,,215,222.5,225,225,225,245,-260,245,,82.5,Open,SBD,M,Single-ply
DQ,Muntesr Mohamed,1967,Libya,81.8,-270,-270,-270,,170,-172.5,-200,170,,,,,,82.5,Open,SBD,M,Single-ply
DD,Davranbek Turakhanov,1974,Kazakhstan,80.2,-320,320,332.5,332.5,202.5,212.5,217.5,217.5,-305,312.5,322.5,322.5,,82.5,Open,SBD,M,Single-ply
1,Andrey Belyaev #1,1983,Russia,89.4,350,365,380,380,240,252.5,257.5,257.5,340,-360,-375,340,977.5,90,Open,SBD,M,Single-ply
2,Daniele Ghirardi,1969,Italy,89.7,-290,310,-320,310,220,-235,240,240,330,-345,-345,330,880,90,Open,SBD,M,Single-ply
3,Andriy Krymov,1985,Ukraine,89.8,305,315,-320,315,265,275,285,285,280,-295,-295,280,880,90,Open,SBD,M,Single-ply
4,Andrew Ivanets,1984,Belarus,88.7,300,315,-322.5,315,-202.5,202.5,-210,202.5,315,325,-330,325,842.5,90,Open,SBD,M,Single-ply
5,Jiří Horník,1978,Czechia,88.3,280,300,-310,300,205,212.5,220,220,310,-320,-322.5,310,830,90,Open,SBD,M,Single-ply
6,Pjotr van den Hoek,1972,Netherlands,89.4,-305,305,,305,-220,-220,220,220,-285,285,290,290,815,90,Open,SBD,M,Single-ply
7,Pavol Varchola,1978,Slovakia,89.2,290,300,-317.5,300,-205,205,210,210,290,302.5,-312.5,302.5,812.5,90,Open,SBD,M,Single-ply
8,Daisuke Arakawa,1978,Japan,88.9,270,285,290,290,220,-230,-230,220,280,300,-310,300,810,90,Open,SBD,M,Single-ply
9,Luciano Duarte,1975,Brazil,89.1,320,335,-340,335,195,-200,-200,195,270,280,-282.5,280,810,90,Open,SBD,M,Single-ply
10,Bruno Ricard,1974,France,88.1,300,310,315,315,-190,190,197.5,197.5,275,-285,-285,275,787.5,90,Open,SBD,M,Single-ply
11,Marcel Lindholm,1982,Finland,87.9,-300,-300,315,315,185,-192.5,-192.5,185,285,-300,-300,285,785,90,Open,SBD,M,Single-ply
12,Stefano Bettati,1968,Italy,87.9,300,-310,-320,300,170,180,-185,180,300,-315,-315,300,780,90,Open,SBD,M,Single-ply
13,Jeff Butt,1970,Canada,89.6,275,-280,,275,-212.5,215,-220,215,267.5,280,285,285,775,90,Open,SBD,M,Single-ply
14,Toshiteru Okamura,1983,Japan,89.1,255,272.5,-285,272.5,207.5,215,220,220,280,-300,-310,280,772.5,90,Open,SBD,M,Single-ply
15,Mario Schnurr,1960,Germany,88.2,272.5,290,300,300,172.5,-180,-180,172.5,260,277.5,287.5,287.5,760,90,Open,SBD,M,Single-ply
16,Aaron Ziffle,1981,Canada,88.6,-260,-260,260,260,195,202.5,210,210,245,260,-270,260,730,90,Open,SBD,M,Single-ply
17,Hamid Jamal,1971,Morocco,87.6,220,230,235,235,167.5,172.5,-177.5,172.5,280,-290,-290,280,687.5,90,Open,SBD,M,Single-ply
DQ,Serag Agsouda,1980,Libya,84.9,270,-300,-305,270,180,-200,-200,180,-270,-270,-270,,,90,Open,SBD,M,Single-ply
DQ,Christoph Erbs,1979,Germany,88.8,285,300,310,310,175,182.5,-187.5,182.5,-310,-310,-310,,,90,Open,SBD,M,Single-ply
DQ,Jens Flood,1965,Sweden,89.5,-305,-310,-327.5,,,,,,,,,,,90,Open,SBD,M,Single-ply
DQ,Margus Silbaum,1976,Estonia,89.8,-325,-325,-325,,-205,205,-215,205,315,-327.5,-327.5,315,,90,Open,SBD,M,Single-ply
1,Andrey Tarasenko,1975,Russia,96,365,375,385,385,245,255,265,265,325,340,347.5,347.5,997.5,100,Open,SBD,M,Single-ply
2,Konstantin Lebedko,1981,Russia,98.8,365,375,-377.5,375,250,260,262.5,262.5,330,340,-362.5,340,977.5,100,Open,SBD,M,Single-ply
3,Sergiy Pevnev,1978,Ukraine,97.1,345,355,362.5,362.5,250,-262.5,262.5,262.5,322.5,330,335,335,960,100,Open,SBD,M,Single-ply
4,Jason Beck,1978,USA,99.2,350,365,-375,365,260,270,-272.5,270,312.5,320,-327.5,320,955,100,Open,SBD,M,Single-ply
5,Anibal Manuel Coimbra Marques,1972,Luxembourg,97.2,335,355,-365,355,230,-235,235,235,-325,325,342.5,342.5,932.5,100,Open,SBD,M,Single-ply
6,Jacek Wiak,1984,Poland,99.2,335,-355,355,355,250,257.5,-262.5,257.5,310,320,-350,320,932.5,100,Open,SBD,M,Single-ply
7,Petr Theuser,1961,Czechia,99,330,350,362.5,362.5,215,222.5,227.5,227.5,290,305,312.5,312.5,902.5,100,Open,SBD,M,Single-ply
8,Vasil Yanchev,1985,Bulgaria,98,-300,300,330,330,200,210,215,215,300,330,-342.5,330,875,100,Open,SBD,M,Single-ply
9,André Peeters,1970,France,96.8,-305,305,320,320,200,215,222.5,222.5,300,315,322.5,322.5,865,100,Open,SBD,M,Single-ply
10,Stephane Hergott,1982,France,99.9,295,310,-315,310,230,240,245,245,285,300,-305,300,855,100,Open,SBD,M,Single-ply
11,Markus Hinz,1971,Germany,96.2,-310,320,-340,320,-205,205,215,215,265,-275,275,275,810,100,Open,SBD,M,Single-ply
12,Takayuki Arakawa,1978,Japan,92.4,265,285,-290,285,205,210,215,215,280,300,-302.5,300,800,100,Open,SBD,M,Single-ply
13,Matthias Simpig,1972,Germany,99.4,290,-300,-310,290,-180,180,190,190,260,280,287.5,287.5,767.5,100,Open,SBD,M,Single-ply
14,Marc Larsson,1982,Denmark,98.9,300,-312.5,-312.5,300,162.5,170,177.5,177.5,270,287.5,-295,287.5,765,100,Open,SBD,M,Single-ply
15,Lawrance Araujo,1970,Brazil,96,-265,265,270,270,-187.5,187.5,190,190,297.5,-320,-320,297.5,757.5,100,Open,SBD,M,Single-ply
16,Kim Dahl Hansen,1971,Denmark,99.5,270,-292.5,-292.5,270,-192.5,-192.5,192.5,192.5,280,-305,-305,280,742.5,100,Open,SBD,M,Single-ply
17,Muamar Rayani,1979,Libya,98,270,-300,-300,270,180,200,-210,200,240,260,270,270,740,100,Open,SBD,M,Single-ply
18,Robert Spindler,1984,Austria,98.9,252.5,-260,-260,252.5,180,-185,-187.5,180,260,265,270,270,702.5,100,Open,SBD,M,Single-ply
DQ,Herbert Stummer,1976,Austria,98.8,-277.5,-277.5,-277.5,,190,197.5,-200,197.5,,,,,,100,Open,SBD,M,Single-ply
DQ,Arunas Jašmontas,1971,Lithuania,98.9,-300,-300,-300,,,,,,,,,,,100,Open,SBD,M,Single-ply
DQ,Claudio D'Ovidio,1969,Italy,99,335,,,335,,,,,,,,,,100,Open,SBD,M,Single-ply
1,Maxim Barkhatov,1981,Russia,109.4,370,385,395,395,260,270,275,275,350,365,380,380,1050,110,Open,SBD,M,Single-ply
2,Oleksiy Rokochyy Jr,1981,Ukraine,108.1,372.5,385,390,390,260,-272.5,-272.5,260,340,350,-360,350,1000,110,Open,SBD,M,Single-ply
3,Tomáš Šárik,1975,Czechia,109.3,330,345,-352.5,345,240,250,255,255,310,330,335,335,935,110,Open,SBD,M,Single-ply
4,Marian Czarkowski,1969,Poland,108.1,350,-365,-365,350,245,255,-260,255,320,327.5,-335,327.5,932.5,110,Open,SBD,M,Single-ply
5,Tor-Herman Omland,1977,Norway,109.4,347.5,-357.5,357.5,357.5,257.5,262.5,265,265,305,310,-312.5,310,932.5,110,Open,SBD,M,Single-ply
6,Anthony Harris #1,1964,USA,108.3,-355,365,-382.5,365,217.5,-222.5,-222.5,217.5,330,-345,-352.5,330,912.5,110,Open,SBD,M,Single-ply
7,Slawomir Ceglarek,1974,Poland,109.2,330,350,360,360,225,-240,-240,225,325,327.5,-345,327.5,912.5,110,Open,SBD,M,Single-ply
8,Janne Salmela,1971,Sweden,107.4,-330,-330,330,330,-220,220,225,225,330,,,330,885,110,Open,SBD,M,Single-ply
9,Sune Bak,1974,Denmark,106.2,275,300,-310,300,240,247.5,-255,247.5,270,-290,290,290,837.5,110,Open,SBD,M,Single-ply
10,Fridrich Matejík,1983,Slovakia,107.7,300,320,-340,320,220,227.5,-235,227.5,270,290,-302.5,290,837.5,110,Open,SBD,M,Single-ply
11,Christoph Senn,1981,Austria,108.7,295,-307.5,307.5,307.5,197.5,207.5,212.5,212.5,300,-310,-310,300,820,110,Open,SBD,M,Single-ply
12,Rashed Al Omari,1970,UAE,103.6,-270,-270,285,285,230,245,260,260,200,240,-280,240,785,110,Open,SBD,M,Single-ply
13,Brian George,,Canada,108,285,295,305,305,187.5,192.5,-195,192.5,280,-305,-305,280,777.5,110,Open,SBD,M,Single-ply
DQ,Raed Zgouzi,1973,Libya,104,,,,,,,,,,,,,,110,Open,SBD,M,Single-ply
DQ,Michael Mastrean,1971,USA,106.3,-385,-390,-395,,-240,-247.5,262.5,262.5,305,327.5,-342.5,327.5,,110,Open,SBD,M,Single-ply
DQ,Stephen Pritchard,1971,Australia,107.6,-290,-290,-300,,-252.5,-252.5,252.5,252.5,270,292.5,300,300,,110,Open,SBD,M,Single-ply
DQ,Zbyněk Krejča,1974,Czechia,108.3,290,305,315,315,250,270,-290,270,-285,-285,,,,110,Open,SBD,M,Single-ply
DQ,Jamie Emberley,1980,Canada,108.9,-345,-345,-355,,-250,-255,-262.5,,,,,,,110,Open,SBD,M,Single-ply
DD,Harald Kreuzer,1969,Austria,107.3,340,-355,355,355,220,235,-240,235,320,-335,-335,320,,110,Open,SBD,M,Single-ply
1,Tony Cardella,1977,USA,124.3,357.5,375,390,390,255,265,-272.5,265,330,355,367.5,367.5,1022.5,125,Open,SBD,M,Single-ply
2,Clive Henry,1966,UK,122.9,410,425,-430,425,260,-267.5,-267.5,260,315,322.5,-327.5,322.5,1007.5,125,Open,SBD,M,Single-ply
3,Oleksandr Shepel,1987,Ukraine,120.5,380,390,400,400,240,-250,-255,240,340,360,-382.5,360,1000,125,Open,SBD,M,Single-ply
4,Asbjørn Randen,1973,Norway,124.2,-380,380,,380,280,-285,-285,280,-320,320,-342.5,320,980,125,Open,SBD,M,Single-ply
5,Frode Rui,1969,Norway,123.4,-345,345,-360,345,245,252.5,-257.5,252.5,340,350,-362.5,350,947.5,125,Open,SBD,M,Single-ply
6,Olof Wiklund,1978,Sweden,124,360,377.5,-382.5,377.5,-220,220,-227.5,220,320,342.5,-355,342.5,940,125,Open,SBD,M,Single-ply
7,Stefan Huldén,1966,Sweden,123.5,330,340,345,345,245,-252.5,-252.5,245,310,322.5,-332.5,322.5,912.5,125,Open,SBD,M,Single-ply
8,Linas Palivonas,1981,Lithuania,115.6,310,325,335,335,225,235,242.5,242.5,310,325,-335,325,902.5,125,Open,SBD,M,Single-ply
9,Jean-Luc Collart,1959,Belgium,118.3,320,340,-350,340,217.5,-222.5,-222.5,217.5,280,300,-305,300,857.5,125,Open,SBD,M,Single-ply
10,Hamed Elruba,1976,Libya,123.4,300,-320,320,320,190,-205,-205,190,300,-310,,300,810,125,Open,SBD,M,Single-ply
11,Claudemiro Nascimento,1970,Brazil,112.3,290,310,320,320,150,160,170,170,280,300,305,305,795,125,Open,SBD,M,Single-ply
12,Steve Halladay,,Canada,110.4,250,260,-265,260,197.5,205,-210,205,250,-257.5,-260,250,715,125,Open,SBD,M,Single-ply
DQ,Morten Sørig,1969,Denmark,123.4,347.5,360,-367.5,360,-230,-230,-230,,290,307.5,,307.5,,125,Open,SBD,M,Single-ply
DQ,Dean Bowring,1974,UK,123.5,360,370,377.5,377.5,-292.5,-292.5,-292.5,,335,-347.5,-357.5,335,,125,Open,SBD,M,Single-ply
DD,Waeil El.Fallah,1979,Libya,121.8,300,330,360,360,-210,210,-230,210,300,-310,-310,300,,125,Open,SBD,M,Single-ply
1,Vladimir Bondarenko,1978,Russia,158.3,400,420,435,435,260,270,280,280,350,365,377.5,377.5,1092.5,125+,Open,SBD,M,Single-ply
2,Brad Gillingham,1966,USA,147.9,367.5,-382.5,385,385,272.5,277.5,-280,277.5,355,377.5,390,390,1052.5,125+,Open,SBD,M,Single-ply
3,Ove Lehto,1972,Finland,145.7,-390,390,-410,390,310,317.5,-325,317.5,325,335,342.5,342.5,1050,125+,Open,SBD,M,Single-ply
4,Daisuke Midote,1972,Japan,138.3,377.5,395,405,405,-315,-315,315,315,287.5,300,-320,300,1020,125+,Open,SBD,M,Single-ply
5,Jari Martikainen,1975,Finland,143.4,390,402.5,-412.5,402.5,255,262.5,-267.5,262.5,355,-375,-375,355,1020,125+,Open,SBD,M,Single-ply
6,Johnny Wahlqvist,1973,Sweden,167.1,380,390,-400,390,-315,320,-332.5,320,280,-292.5,292.5,292.5,1002.5,125+,Open,SBD,M,Single-ply
7,Milan Špingl,1980,Czechia,142.5,375,392.5,400,400,255,275,-282.5,275,300,325,-330,325,1000,125+,Open,SBD,M,Single-ply
8,Fredrik Svensson,1979,Sweden,139.2,330,-342.5,-342.5,330,320,-330,330,330,300,312.5,-330,312.5,972.5,125+,Open,SBD,M,Single-ply
9,Andy-Elvis Dörner,1976,Germany,130.5,380,400,410,410,220,235,245,245,295,305,310,310,965,125+,Open,SBD,M,Single-ply
10,Olaf Dahl,1977,Norway,140.1,350,-360,,350,245,-255,255,255,345,357.5,-362.5,357.5,962.5,125+,Open,SBD,M,Single-ply
11,James Blanchflower,1966,UK,161.6,-357.5,357.5,370,370,260,270,-280,270,280,300,-317.5,300,940,125+,Open,SBD,M,Single-ply
12,Alex Mardell,,Canada,131.5,330,340,-350,340,277.5,-285,285,285,282.5,-295,-295,282.5,907.5,125+,Open,SBD,M,Single-ply
13,Eumenes Souza Jr,1972,Brazil,139.5,340,360,-392.5,360,215,230,-245,230,260,280,290,290,880,125+,Open,SBD,M,Single-ply
14,Adnan Yousef,1981,Libya,131.6,320,350,-360,350,170,180,190,190,290,-310,-310,290,830,125+,Open,SBD,M,Single-ply
15,Masaharu Indo,1984,Japan,126.3,275,295,305,305,195,215,220,220,230,255,-282.5,255,780,125+,Open,SBD,M,Single-ply
DQ,Jewgenij Kondraschow,1983,Germany,139.9,-375,,,,,,,,,,,,,125+,Open,SBD,M,Single-ply
1,Wei-Ling Chen,1982,Taiwan,46.7,175,190,197.5,197.5,67.5,72.5,75,75,170,180,185,185,457.5,48,Open,SBD,F,Single-ply
2,Yukako Fukushima,1970,Japan,46.6,155,165,170,170,115,-122.5,122.5,122.5,150,160,-167.5,160,452.5,48,Open,SBD,F,Single-ply
3,Valentina Vermenyuk,1986,Russia,46.8,150,160,167.5,167.5,85,90,92.5,92.5,150,160,165,165,425,48,Open,SBD,F,Single-ply
4,Yu Lee Chia,1987,Taiwan,47.9,130,145,-152.5,145,80,87.5,90,90,165,175,-180,175,410,48,Open,SBD,F,Single-ply
5,Bénédicte LePanse,1978,France,47.7,142.5,152.5,160,160,87.5,92.5,97.5,97.5,140,150,-155,150,407.5,48,Open,SBD,F,Single-ply
6,Sanna Apuli,1981,Finland,47.8,145,150,-155,150,70,75,80,80,145,155,-162.5,155,385,48,Open,SBD,F,Single-ply
7,Cheryl Anderson,1975,USA,47.7,110,120,-130,120,70,77.5,80,80,130,140,-145,140,340,48,Open,SBD,F,Single-ply
8,Maria Pia Salemme,1975,Italy,47.4,120,-125,-125,120,57.5,60,62.5,62.5,-140,140,-145,140,322.5,48,Open,SBD,F,Single-ply
DQ,Jessica Santos,1974,Philippines,44.3,102.5,110,-112.5,110,-47.5,-47.5,-47.5,,122.5,130,-135,130,,48,Open,SBD,F,Single-ply
DQ,Ilka Schwengl-Forsthuber,1965,Austria,47,-125,-125,-125,,90,-95,95,95,120,125,127.5,127.5,,48,Open,SBD,F,Single-ply
1,Kateryna Klymenko,1985,Ukraine,52,155,162.5,167.5,167.5,110,117.5,120,120,155,167.5,175,175,462.5,52,Open,SBD,F,Single-ply
2,Ju Chou Yi,1980,Taiwan,50.8,160,170,175,175,75,85,-90,85,180,190,-202.5,190,450,52,Open,SBD,F,Single-ply
3,Hanna Rantala,1982,Finland,51.6,152.5,162.5,167.5,167.5,112.5,-115,115,115,150,160,167.5,167.5,450,52,Open,SBD,F,Single-ply
4,Olena Dmytruk,1983,Ukraine,51.3,-160,160,-170,160,100,105,-110,105,150,170,-185,170,435,52,Open,SBD,F,Single-ply
5,Suzanne Hartwig-Gary,1968,USA,51.4,152.5,162.5,-167.5,162.5,97.5,-102.5,-102.5,97.5,147.5,157.5,165,165,425,52,Open,SBD,F,Single-ply
6,Mervi Sirkiä,1972,Finland,51.6,160,-165,-165,160,92.5,95,97.5,97.5,155,162.5,-167.5,162.5,420,52,Open,SBD,F,Single-ply
7,Magdolna Petróczki,1968,Hungary,51.7,140,150,-162.5,150,70,77.5,-82.5,77.5,145,157.5,170,170,397.5,52,Open,SBD,F,Single-ply
8,Teresa Sawyer,1963,UK,51.3,-140,140,147.5,147.5,90,-95,95,95,140,147.5,150,150,392.5,52,Open,SBD,F,Single-ply
9,Carola Lindström,1982,Sweden,50.5,155,-160,-160,155,75,-80,-80,75,155,-165,-165,155,385,52,Open,SBD,F,Single-ply
10,Keiko Nakai,1976,Japan,51.7,-135,135,-140,135,85,90,-92.5,90,142.5,-150,-150,142.5,367.5,52,Open,SBD,F,Single-ply
11,Patrycja Jurga,1982,Poland,51.4,125,135,145,145,65,67.5,-70,67.5,132.5,142.5,-155,142.5,355,52,Open,SBD,F,Single-ply
12,Karin Hollaus,1971,Austria,51.7,140,-145,-145,140,-70,70,-72.5,70,135,140,-145,140,350,52,Open,SBD,F,Single-ply
13,Junko Kitamura,1963,South Africa,49.4,115,125,-130,125,77.5,82.5,85,85,115,122.5,127.5,127.5,337.5,52,Open,SBD,F,Single-ply
14,Mika Teramura,1962,Japan,51.4,110,120,-127.5,120,67.5,72.5,75,75,120,130,-137.5,130,325,52,Open,SBD,F,Single-ply
15,Elvira Lorenzo Maria,1965,Philippines,51.1,105,-112.5,-112.5,105,50,-57.5,57.5,57.5,125,132.5,137.5,137.5,300,52,Open,SBD,F,Single-ply
DQ,Vilma Ochoa Vargas,1980,Ecuador,51.4,170,180,185,185,82.5,87.5,-90,87.5,-175,-175,-175,,,52,Open,SBD,F,Single-ply
1,Inna Filimonova #1,1976,Russia,55.2,200,215,222.5,222.5,100,107.5,112.5,112.5,175,182.5,192.5,192.5,527.5,56,Open,SBD,F,Single-ply
2,Anna Ryzhkova,1986,Russia,55.7,-202.5,202.5,-215,202.5,105,112.5,120,120,177.5,190,-207.5,190,512.5,56,Open,SBD,F,Single-ply
3,Tetyana Prymenchuk,1972,Ukraine,55.7,170,182.5,190,190,115,122.5,-130,122.5,165,-175,-175,165,477.5,56,Open,SBD,F,Single-ply
4,Virpi Kehänen,1979,Finland,55.7,190,197.5,-202.5,197.5,82.5,-85,-85,82.5,185,-190,-200,185,465,56,Open,SBD,F,Single-ply
5,Mervi Anita Rantamäki,1974,Finland,55.9,175,185,-190,185,92.5,97.5,-100,97.5,170,175,-182.5,175,457.5,56,Open,SBD,F,Single-ply
6,Viktoriya Abdulina,1967,Ukraine,55.6,-180,-182.5,182.5,182.5,95,-97.5,-97.5,95,170,-177.5,-177.5,170,447.5,56,Open,SBD,F,Single-ply
7,Laura Locatelli,1957,Italy,55.8,145,155,-162.5,155,-90,90,-92.5,90,180,187.5,-192.5,187.5,432.5,56,Open,SBD,F,Single-ply
8,Marie Eriksson,1978,Sweden,53.9,137.5,152.5,160,160,65,70,75,75,160,175,185,185,420,56,Open,SBD,F,Single-ply
9,Maria Eriksson,1961,Sweden,55.1,145,155,-160,155,-95,-95,95,95,150,157.5,-162.5,157.5,407.5,56,Open,SBD,F,Single-ply
10,Ashley Matherne,1983,USA,55.2,145,-157.5,-157.5,145,95,102.5,105,105,137.5,147.5,155,155,405,56,Open,SBD,F,Single-ply
11,Cécile Courqueux,1983,France,55.8,160,167.5,-172.5,167.5,70,75,-77.5,75,152.5,-157.5,-157.5,152.5,395,56,Open,SBD,F,Single-ply
12,Marcela Sandvik,1974,Czechia,52.4,132.5,-140,140,140,95,100,102.5,102.5,140,147.5,-152.5,147.5,390,56,Open,SBD,F,Single-ply
13,Ting Lin Shu,1977,Taiwan,53.7,140,-150,150,150,85,-90,-90,85,-150,-150,150,150,385,56,Open,SBD,F,Single-ply
14,Jeannette Gevers,1962,Australia,55.6,147.5,152.5,157.5,157.5,77.5,82.5,-85,82.5,142.5,-147.5,-147.5,142.5,382.5,56,Open,SBD,F,Single-ply
15,Naho Machida,1983,Japan,55.5,127.5,137.5,-142.5,137.5,62.5,67.5,72.5,72.5,147.5,165,-172.5,165,375,56,Open,SBD,F,Single-ply
16,Christa Power-George,1972,Canada,55.4,127.5,-135,-137.5,127.5,60,65,-70,65,127.5,-135,-135,127.5,320,56,Open,SBD,F,Single-ply
17,Wing-Yuk Ip,1961,Hong Kong,55.9,105,115,-117.5,115,67.5,-72.5,-72.5,67.5,122.5,-132.5,-132.5,122.5,305,56,Open,SBD,F,Single-ply
DQ,Diane Richard,1971,Canada,55.2,-115,-115,-115,,62.5,70,-75,70,115,120,-122.5,120,,56,Open,SBD,F,Single-ply
1,Irina Poletaeva,1982,Russia,59.3,200,-207.5,-207.5,200,140,150,155,155,180,187.5,-192.5,187.5,542.5,60,Open,SBD,F,Single-ply
2,Li Hsu Hsiao,1981,Taiwan,60,170,190,202.5,202.5,90,100,,100,195,207.5,210,210,512.5,60,Open,SBD,F,Single-ply
3,Gundula Fiona Sommer von Bachhaus,1981,Germany,59.2,190,-200,-200,190,132.5,-140,-140,132.5,180,187.5,-192.5,187.5,510,60,Open,SBD,F,Single-ply
4,Dana Matejova,1975,Slovakia,59.9,-195,195,205,205,110,117.5,-127.5,117.5,160,175,-190,175,497.5,60,Open,SBD,F,Single-ply
5,Yu Chou Chien,1983,Taiwan,58.1,175,185,-200,185,90,97.5,102.5,102.5,195,-205,-207.5,195,482.5,60,Open,SBD,F,Single-ply
6,Anna Bulgakova,1989,Ukraine,59.1,185,-197.5,-197.5,185,117.5,-125,-125,117.5,-170,170,-192.5,170,472.5,60,Open,SBD,F,Single-ply
7,Jennifer Perry,1982,USA,59.9,165,175,-182.5,175,97.5,102.5,107.5,107.5,172.5,182.5,-192.5,182.5,465,60,Open,SBD,F,Single-ply
8,Helene Johage,1967,Sweden,59.3,155,165,172.5,172.5,90,-97.5,97.5,97.5,155,162.5,170,170,440,60,Open,SBD,F,Single-ply
9,Christin Toepler,1983,Germany,59.8,-152.5,152.5,160,160,92.5,-97.5,97.5,97.5,145,152.5,157.5,157.5,415,60,Open,SBD,F,Single-ply
10,Yukie Kato,1974,Japan,59.6,147.5,155,-160,155,90,95,-100,95,150,160,-165,160,410,60,Open,SBD,F,Single-ply
11,Manisha Power,1989,India,60,130,150,160,160,-60,60,80,80,140,155,-165,155,395,60,Open,SBD,F,Single-ply
12,Monika Rovná,1982,Czechia,58.1,145,157.5,-165,157.5,70,-75,75,75,145,-155,-155,145,377.5,60,Open,SBD,F,Single-ply
DQ,Eleonora Makhpirova,1986,Kazakhstan,59.6,210,220,-222.5,220,110,-115,-115,110,-190,-190,,,,60,Open,SBD,F,Single-ply
1,Galina Potselueva,1980,Russia,67.3,235,245,252.5,252.5,145,-152.5,152.5,152.5,200,210,215,215,620,67.5,Open,SBD,F,Single-ply
2,Larysa Soloviova,1978,Ukraine,66.9,205,212.5,-220,212.5,150,157.5,162.5,162.5,220,230,-245,230,605,67.5,Open,SBD,F,Single-ply
3,Priscilla Ribic,1972,USA,67,222.5,235,-240,235,-125,125,-137.5,125,230,-240,-247.5,230,590,67.5,Open,SBD,F,Single-ply
4,Zhanna Ivanova,1984,Ukraine,66.3,215,220,-230,220,125,132.5,137.5,137.5,195,205,-207.5,205,562.5,67.5,Open,SBD,F,Single-ply
5,Antonietta Orsini,1964,Italy,66.2,-200,-200,200,200,-140,140,147.5,147.5,200,207.5,-215,207.5,555,67.5,Open,SBD,F,Single-ply
6,Mayumi Kitamura,1967,Japan,65.3,172.5,187.5,195,195,140,147.5,152.5,152.5,180,-192.5,192.5,192.5,540,67.5,Open,SBD,F,Single-ply
7,Gillian Wright,1973,UK,66.5,177.5,185,-190,185,107.5,112.5,-115,112.5,200,-207.5,-207.5,200,497.5,67.5,Open,SBD,F,Single-ply
8,María Guðsteinsdóttir,1970,Iceland,65.7,165,175,180,180,95,100,102.5,102.5,172.5,180,187.5,187.5,470,67.5,Open,SBD,F,Single-ply
9,Synnøve Lund,1972,Norway,64.2,167.5,177.5,182.5,182.5,100,105,107.5,107.5,155,160,165,165,455,67.5,Open,SBD,F,Single-ply
10,Maria Virtanen,1977,Finland,67,-165,165,-175,165,102.5,107.5,110,110,155,165,-170,165,440,67.5,Open,SBD,F,Single-ply
11,Linda Kåda Høiland,1979,Norway,64.8,160,-167.5,-167.5,160,85,87.5,-90,87.5,175,-182.5,,175,422.5,67.5,Open,SBD,F,Single-ply
12,Carina Persson,1967,Sweden,64.4,150,160,-167.5,160,75,80,-82.5,80,175,-185,-185,175,415,67.5,Open,SBD,F,Single-ply
13,Melanie Durrant,1983,Canada,64.5,155,162.5,167.5,167.5,87.5,-95,-95,87.5,155,-162.5,-162.5,155,410,67.5,Open,SBD,F,Single-ply
14,Daniela Falck,1974,Germany,62.3,-137.5,-140,140,140,77.5,82.5,87.5,87.5,167.5,172.5,-175,172.5,400,67.5,Open,SBD,F,Single-ply
15,Kristina Hoffmann,1981,Denmark,65.3,145,-155,-160,145,-77.5,77.5,-82.5,77.5,155,165,170,170,392.5,67.5,Open,SBD,F,Single-ply
16,Deepali Jalgaonkar,1986,India,64.5,145,-155,-155,145,60,65,-67.5,65,120,130,-140,130,340,67.5,Open,SBD,F,Single-ply
DQ,Lise Ejlertsen,1982,Denmark,66.3,-160,160,-172.5,160,,,,,,,,,,67.5,Open,SBD,F,Single-ply
DQ,Jennifer Porter,1967,Canada,66.9,160,167.5,-172.5,167.5,-85,-87.5,-90,,145,-150,-155,145,,67.5,Open,SBD,F,Single-ply
1,Yulia Zaugolova,1981,Russia,70.2,240,260,-271,260,140,147.5,155,155,225,-240,-240,225,640,75,Open,SBD,F,Single-ply
2,Inger Blikra,1961,Norway,73.6,205,222.5,230,230,132.5,-140,-140,132.5,205,215,-220,215,577.5,75,Open,SBD,F,Single-ply
3,Elizaveta Ivanova,1988,Ukraine,69.7,215,222.5,230,230,112.5,120,-127.5,120,-195,195,205,205,555,75,Open,SBD,F,Single-ply
4,Disa Hatfield,1974,USA,74.1,-187.5,-190,195,195,135,-142.5,142.5,142.5,175,185,190,190,527.5,75,Open,SBD,F,Single-ply
5,Jung Lo Hsiu,1984,Taiwan,71.8,190,-205,-222.5,190,-110,-110,110,110,-175,-197.5,200,200,500,75,Open,SBD,F,Single-ply
6,Marian Gibson,1964,UK,68.1,160,170,175,175,127.5,-130,-130,127.5,170,180,182.5,182.5,485,75,Open,SBD,F,Single-ply
7,Elisabeth Wahlander,1960,Sweden,68.5,-175,-185,185,185,85,92.5,-97.5,92.5,180,197.5,-205,197.5,475,75,Open,SBD,F,Single-ply
8,Maria Pia Moscianese,1963,Italy,72.5,150,155,160,160,60,65,70,70,170,180,185,185,415,75,Open,SBD,F,Single-ply
9,Eszter Szollos,1983,Hungary,73.6,-115,115,127.5,127.5,90,97.5,-100,97.5,135,145,150,150,375,75,Open,SBD,F,Single-ply
DQ,Anna Dittler,1946,Hungary,68.9,-150,-150,-150,,,,,,,,,,,75,Open,SBD,F,Single-ply
1,Svetlana Dedyulya,1975,Russia,82.4,220,240,250,250,170,185,-200,185,200,220,-230,220,655,82.5,Open,SBD,F,Single-ply
2,Wen Chang Ya,1984,Taiwan,82.3,220,230,240,240,115,-122.5,122.5,122.5,190,207.5,-225,207.5,570,82.5,Open,SBD,F,Single-ply
3,Liane Blyn,1972,USA,77.3,207.5,220,-230,220,-127.5,130,-140,130,200,-212.5,212.5,212.5,562.5,82.5,Open,SBD,F,Single-ply
4,Monica Porter,1967,UK,81.4,205,212.5,-215,212.5,115,120,125,125,205,215,-227.5,215,552.5,82.5,Open,SBD,F,Single-ply
5,Riikka Ylitalo,1982,Finland,80.7,170,185,195,195,140,150,-155,150,190,-207.5,-207.5,190,535,82.5,Open,SBD,F,Single-ply
6,Heidi Hille Arnesen,1970,Norway,75.2,195,-205,210,210,-117.5,-117.5,117.5,117.5,192.5,-200,200,200,527.5,82.5,Open,SBD,F,Single-ply
7,Erlina Pecante,1964,Philippines,82.1,190,210,220,220,105,115,-122.5,115,190,-212.5,-212.5,190,525,82.5,Open,SBD,F,Single-ply
8,Dorota Szczepanik,1969,Poland,81.7,155,165,172.5,172.5,120,-130,130,130,155,165,-172.5,165,467.5,82.5,Open,SBD,F,Single-ply
9,Edina Ulveczki,1981,Hungary,81.3,150,160,170,170,130,135,-137.5,135,145,155,-167.5,155,460,82.5,Open,SBD,F,Single-ply
10,Chu Hung Min,1983,Taiwan,81.7,-165,165,-170,165,145,152.5,157.5,157.5,125,-160,-185,125,447.5,82.5,Open,SBD,F,Single-ply
11,Tulua Sekone-Fraser,1990,New Zealand,82.1,-160,160,-165,160,80,90,-100,90,180,-190,-190,180,430,82.5,Open,SBD,F,Single-ply
12,Tracey Halladay-Bierwagon,1982,Canada,81.3,145,-150,-150,145,97.5,102.5,107.5,107.5,142.5,150,-155,150,402.5,82.5,Open,SBD,F,Single-ply
1,Ielja Strik,1973,Netherlands,87.2,245,255,-260,255,165,172.5,175,175,210,225,232.5,232.5,662.5,90,Open,SBD,F,Single-ply
2,Valeria Shcheglova,1983,Russia,88.6,-240,240,250,250,150,157.5,162.5,162.5,220,-230,-235,220,632.5,90,Open,SBD,F,Single-ply
3,Inna Orobets,1971,Ukraine,89.5,230,237.5,-245,237.5,-155,155,-160,155,200,210,212.5,212.5,605,90,Open,SBD,F,Single-ply
4,Bonica Brown,1988,USA,89.2,185,205,220,220,105,120,137.5,137.5,185,205,225,225,582.5,90,Open,SBD,F,Single-ply
5,Jackie Buckley-Gray,1967,New Zealand,85,-185,-185,185,185,135,140,-157.5,140,205,-222.5,-222.5,205,530,90,Open,SBD,F,Single-ply
6,Jennifer Busby,1977,UK,85,190,200,205,205,90,95,-100,95,170,180,185,185,485,90,Open,SBD,F,Single-ply
DQ,Giselle Costas,1980,Puerto Rico,90,-227.5,-227.5,-227.5,,115,125,-140,125,205,212.5,-217.5,212.5,,90,Open,SBD,F,Single-ply
1,Irina Lugovaya,1974,Russia,100.4,240,255,265,265,160,170,180,180,215,225,235,235,680,90+,Open,SBD,F,Single-ply
2,Jessica O'Donnell,1980,USA,95.9,250,-265,-265,250,152.5,162.5,170,170,220,232.5,-260,232.5,652.5,90+,Open,SBD,F,Single-ply
3,Joanne Schaefer,1967,Netherlands,97.7,210,220,230,230,-165,165,167.5,167.5,200,210,220,220,617.5,90+,Open,SBD,F,Single-ply
4,Marie Thornton,1981,UK,100.7,220,230,-235,230,110,115,120,120,190,200,205,205,555,90+,Open,SBD,F,Single-ply
5,Sonia Manaena,1961,New Zealand,115,-190,190,-205,190,100,110,-120,110,205,220,-237.5,220,520,90+,Open,SBD,F,Single-ply
6,Brenda van der Meulen,1978,Netherlands,94.9,180,192.5,-197.5,192.5,130,137.5,-140,137.5,170,-180,-180,170,500,90+,Open,SBD,F,Single-ply
7,Rosemarie Beer,1945,Austria,90.3,160,170,175,175,125,-130,-130,125,160,170,180,180,480,90+,Open,SBD,F,Single-ply
8,Yuliya Stesenko,1984,Uzbekistan,93.3,150,165,172.5,172.5,90,105,-107.5,105,150,170,172.5,172.5,450,90+,Open,SBD,F,Single-ply
