Name,WeightClassKg,Division,Sex,Event,Best3SquatKg,Squat4Kg,Best3BenchKg,Bench4Kg,Best3DeadliftKg,Deadlift4Kg,TotalKg,Equipment,Place
Candace Hall,82.5,Special Olympics,F,SBD,56.7,,47.63,,63.5,,167.83,Multi-ply,1
Faith Dennis,90+,Special Olympics,F,SBD,90.72,,58.97,,115.67,,265.35,Multi-ply,1
Jason Ray,52,Special Olympics Teen,M,SBD,38.56,,43.09,,58.97,,140.61,Multi-ply,1
Chris Coyle,67.5,Special Olympics,M,SBD,86.18,,65.77,,108.86,,260.82,Multi-ply,1
David Hatfield,67.5,Special Olympics,M,SBD,61.24,,43.09,,113.4,,217.72,Multi-ply,2
Adam Mack,90,Special Olympics,M,SBD,147.42,,99.79,,174.63,,421.84,Multi-ply,1
Jeff Wood,100,Special Olympics,M,SBD,136.08,,88.45,,181.44,,405.97,Multi-ply,1
Brian Pittman,110,Special Olympics,M,SBD,156.49,,136.08,,174.63,,467.2,Multi-ply,1
Byron Taylor,125,Special Olympics,M,SBD,165.56,,106.59,,147.42,,419.57,Multi-ply,1
Chris Jackson,125,Special Olympics Masters,M,SBD,170.1,,99.79,,192.78,,462.66,Multi-ply,1
Dawn Handy,67.5,Special Olympics,F,B,,,58.97,,,,58.97,Multi-ply,1
Terri Morris,67.5,Special Olympics,F,B,,,34.02,,,,34.02,Multi-ply,2
Kelly Purnell,90,Special Olympics Teen,F,B,,,70.31,,,,70.31,Multi-ply,1
Dominic Page,60,Special Olympics Teen,M,B,,,81.65,,,,81.65,Multi-ply,1
John Gregory,140,Open,M,SB,138.35,158.76,127.01,145.15,,,265.35,Multi-ply,1
Tanya Larson,52,Amateur Open,F,SBD,108.86,,61.69,,131.54,,302.09,Multi-ply,1
Glendoria Burris,60,Amateur Open,F,SBD,129.27,,61.24,,138.35,,328.85,Multi-ply,1
Shannon Pole-Summers,90+,Amateur Teen 14-15,F,SBD,170.1,,104.33,,156.49,,430.91,Multi-ply,1
Kim Ferebee,90+,Amateur Teen 18-19,F,SBD,192.78,,90.72,,185.97,,469.47,Multi-ply,1
Glendoria Burris,60,Amateur Submasters,F,SBD,129.27,,61.24,,138.35,,328.85,Multi-ply,1
Demeter Piccotti,56,Amateur Masters,F,SBD,117.93,,61.24,,131.54,,310.71,Multi-ply,1
Janice Sturniolo,60,Amateur Masters,F,SBD,54.43,,54.43,,104.33,,213.19,Multi-ply,1
D. Mikoloski,67.5,Amateur Masters,F,SBD,47.63,,40.82,,97.52,,185.97,Multi-ply,1
Jodi Teter,60,Pro Open,F,SBD,185.97,,113.4,,176.9,,476.27,Multi-ply,1
Traci Arnold-Tate,60,Pro Open,F,SBD,167.83,,108.86,,145.15,,421.84,Multi-ply,2
Shannon Pole-Summers,90+,Pro Teen,F,SBD,170.1,,104.33,,156.49,,430.91,Multi-ply,1
Julie Scanlon,75,Pro Juniors,F,SBD,183.71,,127.01,,183.71,,494.42,Multi-ply,1
Jeanne Burchett,67.5,Pro Masters 60-64,F,SBD,120.2,,63.5,,138.35,,322.05,Multi-ply,1
Shannon Pole-Summers,90+,Elite Amateur Teen 14-15,F,SBD,170.1,,104.33,,156.49,,430.91,Multi-ply,1
Winfield Clark,60,Amateur Teen 16-17,M,SBD,145.15,,83.91,,158.76,,387.82,Multi-ply,1
Ryan Martucci,67.5,Amateur Teen 18-19,M,SBD,199.58,,113.4,,190.51,,503.49,Multi-ply,1
Josh Pierce,110,Amateur Teen 16-17,M,SBD,185.97,,117.93,,242.67,,546.58,Multi-ply,1
John Cooke,60,Amateur Open,M,SBD,174.63,,122.47,,215.46,,512.56,Multi-ply,1
Bill Jones,67.5,Amateur Open,M,SBD,249.48,,145.15,,213.19,,607.81,Multi-ply,1
William Powell,75,Amateur Open,M,SBD,185.97,,120.2,,204.12,,510.29,Multi-ply,1
Samuel Cuevas,82.5,Amateur Open,M,SBD,263.08,,183.71,,231.33,,678.12,Multi-ply,1
Marty Martin,82.5,Amateur Open,M,SBD,154.22,,117.93,,183.71,,455.86,Multi-ply,2
Dan Fields,90,Amateur Open,M,SBD,272.16,,174.63,,219.99,,666.78,Multi-ply,1
Tom Reumont,90,Amateur Open,M,SBD,240.4,,165.56,,249.48,,655.44,Multi-ply,2
Matt Oberholzer,90,Amateur Open,M,SBD,185.97,,131.54,,204.12,,521.63,Multi-ply,3
Bernie Arrington,100,Amateur Open,M,SBD,303.91,,199.58,,263.08,,766.57,Multi-ply,1
Andy Pierson,100,Amateur Open,M,SBD,244.94,,163.29,,249.48,,657.71,Multi-ply,2
Dave Bartat,100,Amateur Open,M,SBD,267.62,,102.06,,285.76,,655.44,Multi-ply,3
David Scott,100,Amateur Open,M,SBD,238.14,,151.95,,249.48,,639.57,Multi-ply,4
Todd Stocks,100,Amateur Open,M,SBD,136.08,,97.52,,140.61,,374.21,Multi-ply,5
Robert Connelly,110,Amateur Open,M,SBD,294.84,,147.42,,258.55,,700.8,Multi-ply,1
Dan Zenisek,125,Amateur Open,M,SBD,299.37,,165.56,,290.3,,755.23,Multi-ply,1
Kerry Miller,125,Amateur Open,M,SBD,263.08,,142.88,,231.33,,637.3,Multi-ply,2
Raymond Joyner,140,Amateur Open,M,SBD,367.41,,188.24,,306.18,,861.83,Multi-ply,1
Matt Morgan #1,140,Amateur Open,M,SBD,317.52,,208.65,,299.37,,825.54,Multi-ply,2
Robert Hotchkiss,140,Amateur Open,M,SBD,317.52,,183.71,,254.01,,755.23,Multi-ply,3
Mitchell Curry,140+,Amateur Open,M,SBD,349.27,362.87,208.65,,244.94,,802.86,Multi-ply,1
Matt Oberholzer,90,Amateur Juniors,M,SBD,185.97,,131.54,,204.12,,521.63,Multi-ply,1
William Tomko III,100,Amateur Juniors,M,SBD,288.03,,192.78,,244.94,,725.75,Multi-ply,1
Jeff Turner,100,Amateur Juniors,M,SBD,281.23,,158.76,,244.94,,684.93,Multi-ply,2
Beau King,110,Amateur Juniors,M,SBD,308.44,317.52,199.58,,283.5,,791.52,Multi-ply,1
Mike Frinzl,125,Amateur Juniors,M,SBD,272.16,,145.15,,283.5,,700.8,Multi-ply,1
Jim Roth,82.5,Amateur Submasters,M,SBD,190.51,,149.69,,208.65,,548.85,Multi-ply,1
D. Scarborough,82.5,Amateur Submasters,M,SBD,190.51,,140.61,,215.46,,546.58,Multi-ply,2
Dan Fields,90,Amateur Submasters,M,SBD,272.16,,174.63,,219.99,,666.78,Multi-ply,1
Tom Reumont,90,Amateur Submasters,M,SBD,240.4,,165.56,,249.48,,655.44,Multi-ply,2
Robert Munn Jr,90,Amateur Submasters,M,SBD,222.26,,154.22,,260.82,,637.3,Multi-ply,3
Bernie Arrington,100,Amateur Submasters,M,SBD,303.91,,199.58,,263.08,,766.57,Multi-ply,1
Bill Jones,100,Amateur Submasters,M,SBD,240.4,,167.83,,235.87,,644.1,Multi-ply,2
Bert Collins,100,Amateur Submasters,M,SBD,215.46,,133.81,,238.14,,587.4,Multi-ply,3
John Brubaker,110,Amateur Submasters,M,SBD,251.74,,183.71,,272.16,,707.6,Multi-ply,1
Glenn Evans,125,Amateur Submasters,M,SBD,299.37,,124.74,,265.35,,689.46,Multi-ply,1
A. Goodman,125,Amateur Submasters,M,SBD,249.48,,161.03,,260.82,,671.32,Multi-ply,2
Tom Doi,60,Amateur Masters 50-54,M,SBD,167.83,,72.57,,172.37,,412.77,Multi-ply,1
Gregory Campbell,67.5,Amateur Masters 40-44,M,SBD,185.97,,104.33,,183.71,,474,Multi-ply,1
Henry Dudley,75,Amateur Masters 55-59,M,SBD,129.27,,74.84,,149.69,,353.8,Multi-ply,1
Michael Russo,82.5,Amateur Masters 40-44,M,SBD,215.46,,154.22,,231.33,,601.01,Multi-ply,1
Rusell Rolle,82.5,Amateur Masters 40-44,M,SBD,242.67,,117.93,,226.8,,587.4,Multi-ply,2
John Klein,82.5,Amateur Masters 55-59,M,SBD,142.88,,88.45,,165.56,,396.89,Multi-ply,1
Thomas Cottrell,90,Amateur Masters 55-59,M,SBD,158.76,,163.29,,183.71,,505.76,Multi-ply,1
Doc Junkins,90,Amateur Masters 55-59,M,SBD,142.88,,104.33,,183.71,,430.91,Multi-ply,2
Richard Moody,100,Amateur Masters 40-44,M,SBD,294.84,,172.37,,249.48,,716.68,Multi-ply,1
Robert Rood,100,Amateur Masters 55-59,M,SBD,231.33,,167.83,,249.48,,648.64,Multi-ply,1
Daniel Duesberry,110,Amateur Masters 40-44,M,SBD,254.01,,140.61,,276.69,,671.32,Multi-ply,1
Raleigh Field,110,Amateur Masters 40-44,M,SBD,229.06,,161.03,,61.24,,451.32,Multi-ply,2
Phillip Patton,110,Amateur Masters 45-49,M,SBD,285.76,,163.29,,254.01,,703.07,Multi-ply,1
Jay Bechtel,125,Amateur Masters 40-44,M,SBD,265.35,,170.1,,263.08,,698.53,Multi-ply,1
Billy Morgan,125,Amateur Masters 45-49,M,SBD,170.1,,151.95,,226.8,,548.85,Multi-ply,1
Chris Focht,90,Elite Amateur Open,M,SBD,272.16,,165.56,,276.69,,714.41,Multi-ply,1
William Powell,75,Police,M,SBD,185.97,,120.2,,204.12,,510.29,Multi-ply,1
Robert Munn Jr,90,Police,M,SBD,222.26,,154.22,,260.82,,637.3,Multi-ply,1
AJ Henderson,100,Police,M,SBD,310.71,,170.1,,269.89,,750.7,Multi-ply,1
Mark Dimiduk,110,Police,M,SBD,349.27,,172.37,,281.23,,802.86,Multi-ply,1
Bob Calhoun,110,Police,M,SBD,299.37,,204.12,,267.62,,771.11,Multi-ply,2
Raleigh Field,110,Police,M,SBD,229.06,,161.03,,61.24,,451.32,Multi-ply,3
Ted Forbes,125,Police,M,SBD,344.73,,192.78,,299.37,,836.88,Multi-ply,1
A. Goodman,125,Police,M,SBD,249.48,,161.03,,260.82,,671.32,Multi-ply,2
Billy Morgan,125,Police,M,SBD,170.1,,151.95,,226.8,,548.85,Multi-ply,3
Mark Manno,140,Police,M,SBD,353.8,,226.8,,340.19,,920.79,Multi-ply,1
Terry Tsourotis,140+,Police,M,SBD,306.18,,208.65,,265.35,272.16,780.18,Multi-ply,1
Tom Lavelle,75,Pro Open,M,SBD,319.78,,197.31,,226.8,,743.89,Multi-ply,1
Chris Morris #6,82.5,Pro Open,M,SBD,210.92,,188.24,,229.06,,628.23,Multi-ply,1
Carlo Finotti,90,Pro Open,M,SBD,281.23,,213.19,,294.84,,789.25,Multi-ply,1
Galen Scott,90,Pro Open,M,SBD,263.08,,199.58,,272.16,,734.82,Multi-ply,2
M. Fessenden,100,Pro Open,M,SBD,385.55,,204.12,,303.91,,893.58,Multi-ply,1
Mike Hill,100,Pro Open,M,SBD,328.85,,222.26,,290.3,,841.41,Multi-ply,2
Jeff Gould,100,Pro Open,M,SBD,299.37,,240.4,,301.64,,841.41,Multi-ply,3
David Snodgrass,100,Pro Open,M,SBD,301.64,,190.51,,342.46,,834.61,Multi-ply,4
Brad Hartung,100,Pro Open,M,SBD,337.93,,172.37,,265.35,,775.64,Multi-ply,5
Ed Belohlavek,100,Pro Open,M,SBD,306.18,,174.63,,249.48,,730.28,Multi-ply,6
Nick LaVitola,110,Pro Open,M,SBD,394.63,,240.4,,362.87,,997.9,Multi-ply,1
Louie Simmons,110,Pro Open,M,SBD,365.14,,244.94,,319.78,,929.87,Multi-ply,2
Gabe Reitter,110,Pro Open,M,SBD,362.87,,242.67,,301.64,,907.19,Multi-ply,3
Rob. Fusner,125,Pro Open,M,SBD,396.89,,281.23,,326.59,,1004.71,Multi-ply,1
Steve Wilson,125,Pro Open,M,SBD,347,,240.4,,360.61,,948.01,Multi-ply,2
Alex Klest,125,Pro Open,M,SBD,362.87,,242.67,,342.46,,948.01,Multi-ply,3
John Stafford,125,Pro Open,M,SBD,362.87,,235.87,,340.19,,938.94,Multi-ply,4
Todd Brock,125,Pro Open,M,SBD,371.95,,240.4,,317.52,,929.87,Multi-ply,5
Ted Forbes,125,Pro Open,M,SBD,344.73,,192.78,,299.37,,836.88,Multi-ply,6
Patrick Toms,125,Pro Open,M,SBD,317.52,,183.71,,310.71,,811.93,Multi-ply,7
Dave Tate,140,Pro Open,M,SBD,408.23,,249.48,,331.12,,988.83,Multi-ply,1
Marvin Teter,140,Pro Open,M,SBD,376.48,,260.82,,317.52,,954.81,Multi-ply,2
Mark Swatting,140,Pro Open,M,SBD,344.73,,249.48,,340.19,,934.4,Multi-ply,3
Mark Manno,140,Pro Open,M,SBD,353.8,,226.8,,340.19,,920.79,Multi-ply,4
Bob Youngs,140,Pro Open,M,SBD,367.41,,226.8,,317.52,,911.72,Multi-ply,5
Brent Lever,140,Pro Open,M,SBD,340.19,,217.72,,317.52,,875.43,Multi-ply,6
Dan Kovacs,140+,Pro Open,M,SBD,417.31,,299.37,,367.41,,1084.09,Multi-ply,1
Michael Ruggeria,140+,Pro Open,M,SBD,385.55,,247.21,,358.34,,991.1,Multi-ply,2
Robert Yitts,140+,Pro Open,M,SBD,390.09,,265.35,,324.32,,979.76,Multi-ply,3
Chris Morris #6,82.5,Pro Juniors,M,SBD,210.92,,188.24,,229.06,235.87,628.23,Multi-ply,1
John Schrenkel,140+,Pro Juniors,M,SBD,317.52,362.87,197.31,,308.44,317.52,823.27,Multi-ply,1
Galen Scott,90,Pro Submasters,M,SBD,263.08,,199.58,,272.16,,734.82,Multi-ply,1
David Snodgrass,100,Pro Submasters,M,SBD,301.64,,190.51,,342.46,,834.61,Multi-ply,1
Nick LaVitola,110,Pro Submasters,M,SBD,394.63,,240.4,,362.87,,997.9,Multi-ply,1
Ken Troubleffield,110,Pro Submasters,M,SBD,274.42,,165.56,,260.82,,700.8,Multi-ply,2
Alex Klest,125,Pro Submasters,M,SBD,362.87,,242.67,,342.46,,948.01,Multi-ply,1
JR Hunt,140+,Pro Submasters,M,SBD,399.16,,301.64,,342.46,,1043.26,Multi-ply,1
Russel Dodson,75,pro Masters 55-59,M,SBD,140.61,,58.97,,172.37,,371.95,Multi-ply,1
John Varrone,82.5,Pro Masters 50-54,M,SBD,263.08,,117.93,,263.08,,644.1,Multi-ply,1
Doc Junkins,90,Pro Masters 55-59,M,SBD,142.88,,104.33,,183.71,,430.91,Multi-ply,1
AJ Henderson,100,Pro Masters 45-49,M,SBD,310.71,,170.1,,269.89,,750.7,Multi-ply,1
Mark Dimiduk,110,Pro Masters 40-44,M,SBD,349.27,,172.37,,281.23,,802.86,Multi-ply,1
Bob Calhoun,110,Pro Masters 40-44,M,SBD,299.37,,204.12,,267.62,,771.11,Multi-ply,2
Floyd Powe,110,Pro Masters 60-64,M,SBD,204.12,,129.27,,229.06,,562.46,Multi-ply,1
Steve Wilson,125,Pro Masters 40-44,M,SBD,347,,240.4,,360.61,,948.01,Multi-ply,1
John Fiorio,125,Pro Masters 45-49,M,SBD,385.55,,208.65,,299.37,,893.58,Multi-ply,1
Mike Taylor,140+,Pro Masters 50-54,M,SBD,235.87,,136.08,,226.8,,598.74,Multi-ply,1
Tim Briggs,75,Amateur Open,M,B,,,174.63,,,,174.63,Multi-ply,1
Lawrence Piazzi,82.5,Amateur Open,M,B,,,174.63,,,,174.63,Multi-ply,1
Bill Crisanti,90,Amateur Open,M,B,,,158.76,,,,158.76,Multi-ply,1
Tony Hayward,100,Amateur Open,M,B,,,140.61,,,,140.61,Multi-ply,1
Terry Kelley,100,Elite Amateur Open,M,B,,,249.48,,,,249.48,Multi-ply,1
Carl Summers,110,Elite Amateur Open,M,B,,,151.95,,,,151.95,Multi-ply,1
Bill Vance,90,Pro Open,M,B,,,215.46,,,,215.46,Multi-ply,1
Chad Lord,100,Pro Open,M,B,,,199.58,,,,199.58,Multi-ply,1
Rob Capozzolo,110,Pro Open,M,B,,,254.01,,,,254.01,Multi-ply,1
Gary Nimmo,125,Pro Open,M,B,,,244.94,,,,244.94,Multi-ply,1
Larry DeAngelis,140,Pro Masters 60-64,M,B,,,213.19,,,,213.19,Multi-ply,1
Terry Kelley,100,Police,M,B,,,249.48,,,,249.48,Multi-ply,1
