Name,WeightClassKg,Best3SquatKg,Best3BenchKg,Best3DeadliftKg,TotalKg,Event,Equipment,Sex,Division,Place
Helen Hovasapian,56,77.5,40,85,202.5,SBD,Single-ply,F,Open,1
Amanda Tallentire,67.5,70,32.5,80,182.5,SBD,Single-ply,F,Open,2
Elizabeth Toolin,67.5,125,67.5,145,337.5,SBD,Single-ply,F,Open,1
Paul Omanski,75,140,137.5,165,442.5,SBD,Single-ply,M,Open,1
Harry Hovasapian,82.5,190,120,205,515,SBD,Single-ply,M,Open,1
Matthew Brown,90,125,77.5,165,367.5,SBD,Single-ply,M,Open,1
Adam Price,100,65,180,65,310,SBD,Single-ply,M,Open,1
Ed Zvaigzne,125,230,120,215,565,SBD,Single-ply,M,Open,1
