Division,WeightClassKg,Place,Name,Team,BodyweightKg,Best3SquatKg,Best3BenchKg,Best3DeadliftKg,TotalKg,Equipment,Event,Sex
Boys,55.79,1,Brooks Guzman,Weslaco East,51.8,172.37,92.99,172.37,437.72,Single-ply,SBD,M
Boys,51.71,2,Josh Yzaguirre,San Benito,48.72,95.25,61.23,115.67,272.16,Single-ply,SBD,M
Boys,51.71,3,Alex Mena,Weslaco,49.71,61.23,61.23,129.27,251.74,Single-ply,SBD,M
Boys,51.71,DQ,Jose Quintero,Brownsville Lopez,50.8,106.59,,,,Single-ply,SBD,M
Boys,55.79,1,Alejandro Flores,Weslaco East,55.79,170.1,111.13,174.63,455.86,Single-ply,SBD,M
Boys,55.79,2,Angel Flores,Weslaco East,55.02,163.29,92.99,183.7,439.98,Single-ply,SBD,M
Boys,55.79,3,Kaleb Espinoza,Donna,55.16,165.56,86.18,179.17,430.91,Single-ply,SBD,M
Boys,59.87,4,Abraham Zermeno,Donna North,55.84,145.15,90.72,163.29,399.16,Single-ply,SBD,M
Boys,59.87,5,Ovidio Garza,Brownsville Lopez,55.88,142.88,77.11,142.88,362.87,Single-ply,SBD,M
Boys,59.87,DQ,Angel Flores,Mercedes,55.97,,,,,Single-ply,SBD,M
Boys,59.87,1,Raul Mota,San Benito,59.87,185.97,127.01,204.12,517.1,Single-ply,SBD,M
Boys,59.87,2,Danny Diaz,Brownsville Lopez,59.78,183.7,120.2,201.85,505.76,Single-ply,SBD,M
Boys,67.13,3,Mike Tamez,Donna,60.06,156.49,92.99,188.24,437.72,Single-ply,SBD,M
Boys,59.87,4,Mario Villarreal,Weslaco,59.15,124.74,74.84,151.95,351.53,Single-ply,SBD,M
Boys,67.13,1,Alan Alfaro,Rio Hondo,66.86,204.12,120.2,226.8,551.11,Single-ply,SBD,M
Boys,67.13,2,Heliseo Guerrero,Rio Hondo,64.32,192.78,127.01,213.19,532.97,Single-ply,SBD,M
Boys,67.13,3,Rogelio Pulido,Brownsville Lopez,64.95,183.7,102.06,226.8,512.56,Single-ply,SBD,M
Boys,67.13,4,Denzel Castro,Weslaco East,66.22,181.44,117.93,190.51,489.88,Single-ply,SBD,M
Boys,67.13,5,Julian Flores,Rio Hondo,66.41,165.56,124.74,199.58,489.88,Single-ply,SBD,M
Boys,74.84,6,Brandon Ruiz,Donna,67.36,183.7,113.4,190.51,487.61,Single-ply,SBD,M
Boys,74.84,7,Rick Gonzalez,Brownsville Hanna,67.22,188.24,111.13,172.37,471.74,Single-ply,SBD,M
Boys,67.13,8,Adrian Torres,La Feria,65.77,195.04,97.52,174.63,467.2,Single-ply,SBD,M
Boys,67.13,9,Yayo Segura,Brownsville Pace,66.68,165.56,104.33,190.51,460.4,Single-ply,SBD,M
Boys,67.13,10,Robert Castillo,Edcouch-Elsa,66.04,172.37,113.4,167.83,453.59,Single-ply,SBD,M
Boys,67.13,11,Ramses Ramos,Brownsville Lopez,65.14,183.7,79.38,174.63,437.72,Single-ply,SBD,M
Boys,67.13,12,Juan Borjas,Edcouch-Elsa,67.04,136.08,104.33,170.1,410.5,Single-ply,SBD,M
Boys,67.13,13,JJ Camacho,Brownsville Pace,66.04,136.08,102.06,147.42,385.55,Single-ply,SBD,M
Boys,67.13,14,Albert Garcia-Vasquez,La Feria,65.32,129.27,77.11,163.29,369.68,Single-ply,SBD,M
Boys,67.13,DQ,Jorge Cavazos,Mercedes,65.86,,,,,Single-ply,SBD,M
Boys,67.13,DQ,Joel Guerrero,Donna,63.41,,,,,Single-ply,SBD,M
Boys,67.13,DQ,Jacob Zuniga,San Benito,64.32,163.29,,,,Single-ply,SBD,M
Boys,74.84,1,Emilio Tamez,Weslaco East,74.12,195.04,127.01,208.65,530.7,Single-ply,SBD,M
Boys,74.84,2,Arturo Mancias,Brownsville Hanna,71.67,192.78,111.13,206.38,510.29,Single-ply,SBD,M
Boys,74.84,3,Alec Gonzalez,Mercedes,71.12,170.1,97.52,185.97,453.59,Single-ply,SBD,M
Boys,74.84,4,Noe Rodriguez,Edcouch-Elsa,73.48,149.69,124.74,172.37,446.79,Single-ply,SBD,M
Boys,74.84,5,Frank Marin,Weslaco,69.58,165.56,108.86,170.1,444.52,Single-ply,SBD,M
Boys,74.84,6,Eric Ginez,Donna,72.3,183.7,97.52,161.03,442.25,Single-ply,SBD,M
Boys,74.84,7,Edward Alvarez,San Benito,72.21,151.95,104.33,181.44,437.72,Single-ply,SBD,M
Boys,74.84,8,Narciso Guevarra,Brownsville Pace,69.31,149.69,102.06,176.9,428.64,Single-ply,SBD,M
Boys,74.84,9,Brandon Perez,La Feria,69.49,147.42,95.25,158.76,401.43,Single-ply,SBD,M
Boys,74.84,10,Angel Rosales,San Benito,68.95,140.61,99.79,158.76,399.16,Single-ply,SBD,M
Boys,74.84,11,Julian Flores,San Benito,69.58,151.95,92.99,145.15,390.09,Single-ply,SBD,M
Boys,74.84,12,Mark Gutierrez,Donna North,71.67,136.08,81.65,165.56,383.29,Single-ply,SBD,M
Boys,74.84,13,Eric Hinojosa,Mercedes,72.21,138.35,86.18,145.15,369.68,Single-ply,SBD,M
Boys,74.84,DQ,Eric Tong,Brownsville Hanna,67.59,,,,,Single-ply,SBD,M
Boys,74.84,DQ,Caleb Robertson,Rio Hondo,72.48,165.56,,,,Single-ply,SBD,M
Boys,82.1,1,Ram Mendoza,Weslaco East,81.28,226.8,154.22,238.14,619.15,Single-ply,SBD,M
Boys,82.1,2,Daniel Flores,Rio Hondo,81.37,249.48,124.74,217.72,591.94,Single-ply,SBD,M
Boys,89.81,3,Rigo Ayala,Edcouch-Elsa,82.28,233.6,142.88,210.92,587.4,Single-ply,SBD,M
Boys,82.1,4,Robert Garza,Donna,81.19,229.06,127.01,190.51,546.58,Single-ply,SBD,M
Boys,82.1,5,Joey Guzman,Rio Hondo,81.19,183.7,133.81,204.12,521.63,Single-ply,SBD,M
Boys,82.1,6,Sam Longoria,Brownsville Hanna,81.37,206.38,120.2,183.7,510.29,Single-ply,SBD,M
Boys,82.1,7,Ricky Sauceda,Brownsville Lopez,78.11,190.51,120.2,195.04,505.76,Single-ply,SBD,M
Boys,82.1,8,Trey Caballero,Weslaco,81.1,183.7,113.4,204.12,501.22,Single-ply,SBD,M
Boys,82.1,9,Javi Sanchez,Weslaco,77.56,167.83,104.33,183.7,455.86,Single-ply,SBD,M
Boys,82.1,10,Salvador Mendoza,La Feria,76.75,129.27,70.31,142.88,342.46,Single-ply,SBD,M
Boys,82.1,DQ,Isaiah Ramos,Weslaco,75.48,120.2,,,,Single-ply,SBD,M
Boys,82.1,DQ,Abram Ramirez,Rio Hondo,80.92,215.46,,,,Single-ply,SBD,M
Boys,99.79,1,Seth Garcia,Edcouch-Elsa,89.9,249.48,131.54,251.74,632.76,Single-ply,SBD,M
Boys,89.81,2,Stephen Dorado,Rio Hondo,88.81,235.87,158.76,226.8,621.42,Single-ply,SBD,M
Boys,89.81,3,Isaiah Heredia,Rio Hondo,89.18,233.6,142.88,235.87,612.35,Single-ply,SBD,M
Boys,89.81,4,Daniel Yanez,Donna,87.91,233.6,142.88,206.38,582.87,Single-ply,SBD,M
Boys,89.81,5,Ramon Delgado,Brownsville Hanna,83.37,231.33,115.67,215.46,562.45,Single-ply,SBD,M
Boys,89.81,6,Nick Chavez,Donna,89.81,224.53,117.93,197.31,539.77,Single-ply,SBD,M
Boys,89.81,7,Juan Aguirre,San Benito,89.54,181.44,133.81,204.12,519.36,Single-ply,SBD,M
Boys,89.81,8,Daniel Ramos,Brownsville Lopez,86.18,188.24,127.01,197.31,512.56,Single-ply,SBD,M
Boys,89.81,9,Pablo Garza,Brownsville Pace,86.82,174.63,115.67,204.12,494.42,Single-ply,SBD,M
Boys,89.81,10,Adrian Noriega,Mercedes,88.45,190.51,127.01,176.9,494.42,Single-ply,SBD,M
Boys,89.81,11,Jesus Luna,Brownsville Lopez,88.9,197.31,106.59,188.24,492.15,Single-ply,SBD,M
Boys,89.81,12,Alexis Olade,Brownsville Lopez,87.72,192.78,102.06,188.24,483.08,Single-ply,SBD,M
Boys,89.81,13,Edward Salinas,Weslaco,83.28,188.24,102.06,183.7,474,Single-ply,SBD,M
Boys,89.81,14,Jesus Barrientes,Mercedes,83.73,172.37,113.4,165.56,451.32,Single-ply,SBD,M
Boys,89.81,15,Bryan Smith,Mercedes,85.09,161.03,106.59,170.1,437.72,Single-ply,SBD,M
Boys,89.81,16,Michael Salinas,San Benito,82.83,170.1,95.25,167.83,433.18,Single-ply,SBD,M
Boys,89.81,17,Chris Walker,Brownsville Pace,87.27,161.03,90.72,179.17,430.91,Single-ply,SBD,M
Boys,99.79,1,Jerry DeCanini,Weslaco East,98.88,235.87,147.42,240.4,623.69,Single-ply,SBD,M
Boys,99.79,2,Omar Leal,Brownsville Hanna,95.16,229.06,124.74,201.85,555.65,Single-ply,SBD,M
Boys,99.79,3,Alex Valadez,Brownsville Hanna,98.61,206.38,133.81,213.19,553.38,Single-ply,SBD,M
Boys,99.79,4,Marco Zuñiga,San Benito,96.52,219.99,117.93,208.65,546.58,Single-ply,SBD,M
Boys,99.79,5,Marco Gutierrez,La Feria,99.25,204.12,131.54,192.78,528.44,Single-ply,SBD,M
Boys,99.79,6,Ricky Cardoza,Weslaco East,99.79,195.04,145.15,183.7,523.9,Single-ply,SBD,M
Boys,99.79,7,Joey Torres,Brownsville Lopez,92.71,213.19,115.67,183.7,512.56,Single-ply,SBD,M
Boys,99.79,8,Manuel Lerma,Donna North,95.93,206.38,142.88,163.29,512.56,Single-ply,SBD,M
Boys,99.79,9,Matt Torres,San Benito,97.79,181.44,133.81,167.83,483.08,Single-ply,SBD,M
Boys,99.79,10,Miguel Terran,Brownsville Pace,97.89,183.7,120.2,176.9,480.81,Single-ply,SBD,M
Boys,99.79,11,Gilbert Guerrero,Donna,97.7,190.51,102.06,172.37,464.93,Single-ply,SBD,M
Boys,99.79,12,Julio Medina,Brownsville Pace,92.08,170.1,102.06,149.69,421.84,Single-ply,SBD,M
Boys,99.79,13,Michael Gutierrez,Mercedes,97.25,156.49,104.33,161.03,421.84,Single-ply,SBD,M
Boys,109.77,1,German Lopez,Weslaco East,109.04,263.08,181.44,235.87,680.39,Single-ply,SBD,M
Boys,109.77,2,Juan Martinez,Donna North,106.59,247.21,138.35,247.21,632.76,Single-ply,SBD,M
Boys,109.77,3,Elijah Sanchez,Edcouch-Elsa,100.97,249.48,156.49,208.65,614.62,Single-ply,SBD,M
Boys,109.77,4,Eddie Gomez,Edcouch-Elsa,101.42,254.01,124.74,222.26,601.01,Single-ply,SBD,M
Boys,109.77,5,Fidel Grimaldo,Donna North,104.14,222.26,131.54,240.4,594.21,Single-ply,SBD,M
Boys,109.77,6,Diego Moreno,Brownsville Hanna,106.87,210.92,142.88,233.6,587.4,Single-ply,SBD,M
Boys,109.77,7,Jose Gomez,Mercedes,109.77,219.99,136.08,213.19,569.26,Single-ply,SBD,M
Boys,109.77,8,Michael Alvarez,Brownsville Pace,107.32,238.14,124.74,197.31,560.19,Single-ply,SBD,M
Boys,109.77,9,Jose Constantino,Mercedes,106.87,219.99,131.54,201.85,553.38,Single-ply,SBD,M
Boys,109.77,10,Israel Torres,La Feria,107.05,208.65,122.47,210.92,542.04,Single-ply,SBD,M
Boys,109.77,11,JP Torres,Donna,108.77,219.99,113.4,181.44,514.83,Single-ply,SBD,M
Boys,109.77,12,Rollie Villanueva,Brownsville Hanna,108.14,183.7,124.74,192.78,501.22,Single-ply,SBD,M
Boys,109.77,13,Daniel Gonzalez,Brownsville Pace,107.86,226.8,108.86,158.76,494.42,Single-ply,SBD,M
Boys,109.77,14,Israel Cerda,Donna North,102.06,149.69,97.52,158.76,405.97,Single-ply,SBD,M
Boys,124.74,1,Julio Contreras,Edcouch-Elsa,123.47,303.91,147.42,263.08,714.41,Single-ply,SBD,M
Boys,124.74,2,Jonathan Banda,Weslaco East,119.75,272.16,165.56,249.48,687.19,Single-ply,SBD,M
Boys,124.74,3,Gonzalo Alegria,La Feria,123.38,263.08,147.42,231.33,641.83,Single-ply,SBD,M
Boys,124.74,4,Luis Costilla,Donna North,112.76,242.67,158.76,217.72,619.15,Single-ply,SBD,M
Boys,124.74,5,Ramiro Reza,San Benito,123.38,226.8,145.15,213.19,585.13,Single-ply,SBD,M
Boys,124.74,6,Austin Sulewski,Brownsville Pace,118.3,226.8,117.93,142.88,487.61,Single-ply,SBD,M
Boys,124.74,7,Peter Sandoval,Weslaco,123.47,183.7,111.13,179.17,474,Single-ply,SBD,M
Boys,124.74,8,Rudy De La Torre,Weslaco,117.03,142.88,102.06,142.88,387.82,Single-ply,SBD,M
Boys,124.74+,1,Sergio Moralez,Weslaco East,157.85,292.57,210.92,301.64,805.13,Single-ply,SBD,M
Boys,124.74+,2,Gabriel Rodriguez,Edcouch-Elsa,130.27,340.19,204.12,249.48,793.79,Single-ply,SBD,M
Boys,124.74+,3,Armando Ruvio,Rio Hondo,143.79,272.16,142.88,238.14,653.17,Single-ply,SBD,M
Boys,124.74+,4,Mario DeLeon,La Feria,147.78,247.21,165.56,210.92,623.69,Single-ply,SBD,M
Boys,124.74+,5,Eli Olvera,Donna North,126.55,244.94,151.95,201.85,598.74,Single-ply,SBD,M
Boys,124.74+,6,Josh Trevino,Brownsville Lopez,137.35,224.53,133.81,233.6,591.94,Single-ply,SBD,M
Boys,124.74+,7,Christian Castro,Brownsville Pace,132.09,249.48,113.4,226.8,589.67,Single-ply,SBD,M
Boys,124.74+,8,Robert Perez,Weslaco,140.89,174.63,124.74,165.56,464.93,Single-ply,SBD,M
Boys,124.74+,DQ,John Reyes,Rio Hondo,148.96,,,,,Single-ply,SBD,M
Boys,124.74+,DQ,Danny Melendez,Mercedes,143.61,185.97,115.67,,,Single-ply,SBD,M
