Name,State,Event,Equipment,Division,Sex,WeightClassKg,BodyweightKg,Best3SquatKg,Best3BenchKg,Best3DeadliftKg,TotalKg,Place
Joey Davey,OH,SBD,Wraps,Juniors,M,82.5,80.83,199.58,136.08,195.04,530.7,1
Dave Hoff,OH,B,Multi-ply,Open,M,140,127.01,,,,,DQ
Jeff Wampler,OH,SBD,Multi-ply,Open,M,100,99.43,408.23,226.8,303.91,938.94,3
Josh Pfetzer,KY,SBD,Multi-ply,Open,M,90,89.36,312.98,208.65,276.69,798.32,2
Logan Zechar,OH,SBD,Multi-ply,Open,M,110,108.23,403.7,226.8,344.73,975.22,1
Patrick Mihalik,GA,SBD,Multi-ply,Open,M,110,108.59,381.02,256.28,319.78,957.08,2
Cody Robbins,IN,SBD,Wraps,Open,M,90,88.81,258.55,197.31,290.3,746.16,1
Kevin Brinkman,OH,SBD,Wraps,Open,M,90,88.54,179.17,102.06,226.8,508.02,4
Jake Frazier,OH,SBD,Wraps,Open,M,100,99.79,310.71,161.03,328.85,800.59,3
Siu Weldishofer,OH,SBD,Wraps,Open,F,67.5,66.04,138.35,65.77,156.49,360.61,2
Ben Frazier,OH,SBD,Wraps,Teenage,M,100,97.16,204.12,161.03,249.48,614.62,1
Patti Lee,OH,SBD,Multi-ply,Open,F,75,73.84,199.58,88.45,199.58,487.61,2
Marc Anthony van der Molen,OH,SBD,Multi-ply,Juniors,M,90,85.37,356.07,104.33,274.42,734.82,1
JD Marcum,KY,SBD,Wraps,Masters 45-49,M,110,108.23,272.16,161.03,240.4,673.58,1
Jake Norman,OH,SBD,Multi-ply,Open,M,140,132.9,421.84,263.08,403.7,1088.62,1
Kellyn Huehn,OH,SBD,Wraps,Open,F,75,69.04,165.56,90.72,172.37,428.64,2
Timothy Joseph Russell,OH,SBD,Wraps,Open,M,110,107.05,197.31,129.27,213.19,539.77,5
Meaghan Nelson,IN,SBD,Wraps,Open,F,75,70.85,117.93,77.11,140.61,335.66,5
Dusty Hawk,OH,SBD,Multi-ply,Open,M,118,114.03,281.23,172.37,278.96,732.55,1
Jeff Fox,OH,SBD,Multi-ply,Masters 45-49,M,110,109.13,260.82,197.31,226.8,684.92,1
Brodie White,CO,SBD,Multi-ply,Open,M,100,98.79,374.21,278.96,299.37,952.54,2
Steve Siefert,OH,SBD,Wraps,Open,M,82.5,81.28,242.67,129.27,260.82,632.76,2
Jim Allen,CO,SBD,Multi-ply,Open,M,140,133.9,,,,,DQ
Joel Schneider,KY,SBD,Wraps,Teenage,M,67.5,64.68,117.93,63.5,136.08,317.51,1
Justin Jackson,IN,SBD,Wraps,Open,M,100,99.97,371.95,199.58,335.66,907.18,2
Cameron Arnett,OH,SBD,Wraps,Open,M,82.5,80.56,272.16,158.76,238.14,669.05,1
Alex Kleinberg,KY,SBD,Wraps,Open,M,140,132,256.28,149.69,272.16,678.12,1
Megan Moore,IN,SBD,Wraps,Open,F,90+,97.25,99.79,52.16,124.74,276.69,2
Michelle Forlenza,KY,SBD,Wraps,Open,F,75,73.57,120.2,68.04,158.76,347,4
Kyle Brown #10,OH,SBD,Wraps,Open,M,90,88.72,242.67,213.19,199.58,655.44,3
Holly Beidelschies,OH,SBD,Multi-ply,Open,F,75,74.75,181.44,72.57,138.35,392.36,3
Kyle Lynch,OH,SBD,Wraps,Juniors,M,100,99.79,206.38,122.47,226.8,555.65,1
Jimmie Pacifico,WA,SBD,Multi-ply,Open,M,100,98.88,462.66,331.12,335.66,1129.45,1
David Pullem,OH,SBD,Wraps,Juniors,M,82.5,77.84,170.1,124.74,204.12,498.95,2
Sam Sparks,KY,SBD,Wraps,Open,F,75,74.98,158.76,83.91,188.24,430.91,1
Jody Hodge,OH,B,Raw,Open,M,110,108.86,,192.78,,192.78,1
Jody Hodge,OH,B,Raw,Masters 40-44,M,110,108.86,,192.78,,192.78,1
Joseph Lindsey,OH,SBD,Multi-ply,Open,M,90,89.99,362.87,238.14,260.82,861.83,1
Rheta West,NY,SBD,Multi-ply,Open,F,75,73.57,301.64,170.1,235.87,707.6,1
Jason Coker,OH,D,Multi-ply,Open,M,100,99.79,,,272.16,272.16,1
Bob Lehman,OH,SBD,Wraps,Open,M,118,117.39,233.6,188.24,258.55,680.39,1
Aria Attia,PA,SBD,Wraps,Open,M,125,123.92,70.31,231.33,415.04,716.68,1
Kate Rawlings,OH,SBD,Wraps,Submasters,F,67.5,67.49,102.06,83.91,147.42,333.39,1
Tabitha Reynolds,CA,SBD,Wraps,Open,F,67.5,64.68,147.42,88.45,149.69,385.55,1
Kristina Beighle,KY,SBD,Wraps,Open,F,90+,98.52,90.72,49.9,117.93,258.55,3
Ted Castor,OH,SBD,Multi-ply,Masters 45-49,M,90,89.54,,,,,DQ
William Travis Greeley,OH,SBD,Wraps,Open,M,110,109.23,258.55,158.76,290.3,707.6,3
Tee Cummins,MS,SBD,Wraps,Open,M,100,99.79,376.48,208.65,347,932.13,1
Robert Knutsson,OH,SBD,Wraps,Open,M,110,107.77,260.82,197.31,310.71,768.84,1
Christine Tomes,IN,SBD,Wraps,Open,F,75,73.3,131.54,86.18,176.9,394.63,3
Chelsi Figley,OH,B,Raw,Open,F,60,59.96,,79.38,,79.38,1
Mike Jester,OH,SBD,Multi-ply,Open,M,100,99.79,294.84,226.8,290.3,811.93,5
Mike Jester,OH,SBD,Multi-ply,Masters 45-49,M,100,99.79,294.84,226.8,290.3,811.93,2
Jennifer Frankic,IN,SBD,Wraps,Submasters,F,82.5,80.83,104.33,63.5,122.47,290.3,1
Ryan Romey,KY,SBD,Wraps,Open,M,90,88.81,238.14,167.83,292.57,698.53,2
Theresa L Demich,OH,SBD,Wraps,Masters 55-59,F,67.5,62.41,74.84,47.63,115.67,238.14,1
Courtney Hart,IN,SBD,Wraps,Open,M,110,107.95,283.5,197.31,274.42,755.23,2
Courtney Hart,IN,SBD,Wraps,Masters 40-44,M,110,107.95,283.5,197.31,274.42,755.23,1
Jeanine Whittaker,OH,D,Raw,Open,F,82.5,82.42,,,252.65,252.65,1
Wes McCormick,OH,BD,Multi-ply,Open,M,75,74.66,,256.28,272.16,528.44,1
Michael Coe,IN,SBD,Multi-ply,Open,M,100,98.97,317.51,204.12,310.71,832.34,4
Michael Coe,IN,SBD,Multi-ply,Masters 45-49,M,100,98.97,317.51,204.12,310.71,832.34,1
AJ Orme,OH,B,Raw,Open,M,100,99.52,,192.78,,192.78,1
AJ Orme,OH,B,Raw,Submasters,M,100,99.52,,192.78,,192.78,1
Daniel Barnett,GA,SBD,Multi-ply,Open,M,140+,146.69,317.51,226.8,331.12,875.43,1
Jeremy Horn,OH,SBD,Wraps,Submasters,M,100,98.43,219.99,149.69,238.14,607.81,1
Amanda Huskey,OH,SBD,Wraps,Open,F,90+,113.13,138.35,63.5,167.83,369.68,1
Benton Smith,OH,SBD,Wraps,Open,M,110,107.05,204.12,158.76,226.8,589.67,4
